<svg width="33" height="32" viewBox="0 0 33 32" fill="none" xmlns="http://www.w3.org/2000/svg">
<mask id="mask0" mask-type="alpha" maskUnits="userSpaceOnUse" x="0" y="0" width="33" height="32">
<ellipse cx="16.186" cy="16" rx="16.186" ry="16" fill="white"/>
</mask>
<g mask="url(#mask0)">
<path d="M-5.39539 33.1783V7.28462C-4.26167 6.40388 -1.11396 6.36865 2.40722 13.2736C5.92839 20.1786 10.6766 17.9122 12.6106 15.9158C16.612 9.57454 23.2142 9.39839 26.8154 13.2736C29.6963 16.3738 34.4179 16.3269 36.4186 15.9158V33.1783H-5.39539Z" fill="url(#paint0_radial)"/>
</g>
<path d="M27.0626 17.3584C27.0626 22.1311 23.1936 26.0001 18.4209 26.0001C13.6483 26.0001 9.7793 22.1311 9.7793 17.3584C9.7793 12.5858 13.6483 8.7168 18.4209 8.7168C23.1936 8.7168 27.0626 12.5858 27.0626 17.3584Z" fill="#EDAA22"/>
<path d="M25.6227 17.3584C25.6227 22.1311 21.7537 26.0001 16.981 26.0001C12.2084 26.0001 8.33936 22.1311 8.33936 17.3584C8.33936 12.5858 12.2084 8.7168 16.981 8.7168C21.7537 8.7168 25.6227 12.5858 25.6227 17.3584Z" fill="#FFD36A"/>
<path d="M24.182 17.3591C24.182 21.3363 20.9579 24.5605 16.9807 24.5605C13.0035 24.5605 9.7793 21.3363 9.7793 17.3591C9.7793 13.3819 13.0035 10.1577 16.9807 10.1577C20.9579 10.1577 24.182 13.3819 24.182 17.3591Z" fill="#FFE096"/>
<path d="M21.3025 17.3589C21.3025 19.7452 19.368 21.6797 16.9817 21.6797C14.5954 21.6797 12.6609 19.7452 12.6609 17.3589C12.6609 14.9726 14.5954 13.0381 16.9817 13.0381C19.368 13.0381 21.3025 14.9726 21.3025 17.3589Z" fill="#FFF0CB"/>
<path d="M24.7232 13.6416C24.7232 18.4143 20.8542 22.2833 16.0816 22.2833C11.3089 22.2833 7.43994 18.4143 7.43994 13.6416C7.43994 8.869 11.3089 5 16.0816 5C20.8542 5 24.7232 8.869 24.7232 13.6416Z" fill="#EDAA22"/>
<path d="M23.2833 13.6416C23.2833 18.4143 19.4143 22.2833 14.6416 22.2833C9.869 22.2833 6 18.4143 6 13.6416C6 8.869 9.869 5 14.6416 5C19.4143 5 23.2833 8.869 23.2833 13.6416Z" fill="#FFD36A"/>
<path d="M21.8427 13.6423C21.8427 17.6195 18.6185 20.8437 14.6413 20.8437C10.6641 20.8437 7.43994 17.6195 7.43994 13.6423C7.43994 9.66508 10.6641 6.44092 14.6413 6.44092C18.6185 6.44092 21.8427 9.66508 21.8427 13.6423Z" fill="#FFE096"/>
<path d="M18.9632 13.6421C18.9632 16.0284 17.0287 17.9629 14.6424 17.9629C12.256 17.9629 10.3215 16.0284 10.3215 13.6421C10.3215 11.2558 12.256 9.32129 14.6424 9.32129C17.0287 9.32129 18.9632 11.2558 18.9632 13.6421Z" fill="#FFF0CB"/>
<defs>
<radialGradient id="paint0_radial" cx="0" cy="0" r="1" gradientUnits="userSpaceOnUse" gradientTransform="translate(13.6936 20.0271) rotate(90.5316) scale(14.3695 22.8397)">
<stop stop-color="#BAE3F8"/>
<stop offset="1" stop-color="white"/>
</radialGradient>
</defs>
</svg>
