<svg width="128" height="204" viewBox="0 0 128 204" fill="none" xmlns="http://www.w3.org/2000/svg">
<g opacity="0.15">
<path d="M43.8683 56.8706C41.6068 53.9776 38.9388 51.263 37.4242 48.027C34.3932 41.4749 36.8606 34.4429 38.6259 27.8868C40.3913 21.3307 40.9622 13.3648 35.4768 8.16984C33.4203 6.23283 30.4419 4.90203 27.7055 5.37583C24.8205 5.87549 22.8724 8.24005 22.0286 10.8123C21.1849 13.3846 21.2446 16.1397 20.9398 18.8517C20.2445 25.1575 17.6558 31.022 13.4512 35.8164C9.99555 39.7451 5.37005 43.1059 4.03526 48.0926C1.76988 56.5542 9.78242 66.6831 5.55164 74.3526C2.69839 79.5292 -4.93693 81.5561 -6.85031 87.1446C-8.26925 91.2782 -6.08444 96.3252 -8.13115 100.191C-10.4556 104.572 -17.2591 105.605 -19.596 109.98C-21.9329 114.354 -18.747 119.905 -17.5649 125.016C-16.5769 129.307 -17.0726 133.656 -18.9817 137.447C-20.1803 139.809 -21.9325 141.972 -22.3741 144.594C-22.698 146.51 -22.2556 148.534 -22.1424 150.483C-21.9979 152.601 -22.1899 154.699 -21.759 156.824C-21.2076 159.48 -19.8057 161.992 -17.7345 164.037C-15.6634 166.081 -13.0183 167.564 -10.1415 168.292C-5.74662 163.19 -3.14027 156.948 0.573822 151.391C7.78099 140.629 19.3273 132.153 22.7064 119.706C23.9448 115.141 24.016 110.197 26.0639 105.943C27.8952 102.146 31.1588 99.184 34.0761 96.0521C40.1006 89.5837 44.6546 81.9706 48.4784 74.1767C51.5151 67.9926 48.3665 62.6284 43.8683 56.8706Z" fill="#FFA562"/>
<path d="M45.3309 95.8583C42.3138 100.758 40.505 106.55 35.9163 110.249C32.4406 113.053 27.7458 114.327 24.1241 116.971C15.767 123.076 15.0518 134.71 8.91183 142.768C6.37885 146.086 2.96674 148.732 0.0121637 151.731C-3.70779 155.539 -6.69617 159.919 -8.83703 164.7C-9.38466 165.483 -9.59474 166.441 -9.42868 167.397C-9.26263 168.354 -8.73157 169.244 -7.93312 169.906C-5.5713 172.557 -2.94061 174.999 -0.0809564 177.192C1.99738 171.397 6.35227 166.641 12.1626 163.82C21.1957 159.464 33.3836 159.903 39.9775 152.809C44.4406 148.004 45.0371 140.952 48.5768 135.507C50.9427 131.889 54.5181 129.114 58.8071 127.568C62.6479 126.196 66.9312 125.86 70.673 124.304C79.6782 120.543 83.3828 110.908 86.6041 102.236C89.8254 93.5639 94.3892 84.0586 103.909 81.4032C106.919 80.5647 110.216 80.5108 113.129 79.4456C119.618 77.071 122.813 69.6503 120.81 63.2109C118.807 56.7714 112.37 51.7357 105.31 50.1756C102.379 49.4394 99.3301 49.5566 96.5909 50.5107C91.252 52.6656 89.3102 58.5705 87.8508 63.8357C86.5888 68.4114 84.7411 73.4761 80.8048 76.6157C77.8711 78.9499 73.999 78.9519 70.287 79.6541C65.055 80.6002 60.1497 82.5222 55.8626 85.3059C51.5754 88.0896 47.9939 91.6781 45.3309 95.8583Z" fill="url(#paint0_linear)"/>
<path d="M-12.2632 164.364L24.6903 60.2383" stroke="white"/>
<path d="M11.9621 94.8759C15.7648 93.6226 19.5577 92.2286 23.4863 91.2845C24.1891 91.1157 25.0127 91.142 25.6829 90.8902C26.5184 90.5763 27.098 89.8753 27.9014 89.52" stroke="#F8FDFF" stroke-linecap="round" stroke-linejoin="round"/>
<path d="M0.974712 126.95C-1.5338 124.4 -4.058 121.868 -6.59521 119.344" stroke="#F8FDFF" stroke-linecap="round" stroke-linejoin="round"/>
<path d="M73.4744 102.232C65.0765 109.586 57.7184 117.784 49.9039 125.65C47.0014 128.572 43.6155 131.063 40.6704 134.004C38.4022 136.269 35.9744 138.123 33.4906 140.154C29.3793 143.515 25.1368 146.712 20.7102 149.67C18.2911 151.287 14.7211 153.516 13.2824 156.008" stroke="white" stroke-linecap="round" stroke-linejoin="round"/>
<path d="M50.6435 124.37C52.9241 119.036 54.8478 113.583 56.6521 108.064C56.9183 107.249 57.479 105.314 57.0046 104.649" stroke="white" stroke-linecap="round" stroke-linejoin="round"/>
<path d="M29.0249 143.538C31.609 143.816 34.28 144.239 36.8219 144.829" stroke="white" stroke-linecap="round" stroke-linejoin="round"/>
</g>
<defs>
<linearGradient id="paint0_linear" x1="116.13" y1="49.7236" x2="22.692" y2="190.613" gradientUnits="userSpaceOnUse">
<stop stop-color="#68C5FD"/>
<stop offset="1" stop-color="#3FA9EC"/>
</linearGradient>
</defs>
</svg>
