<svg width="24" height="24" viewBox="0 0 24 24" fill="none" xmlns="http://www.w3.org/2000/svg">
<path d="M18.5 12C18.5 10.4 17.8333 8.66667 17.5 8L21 10V13.5V19.5L19.5 21H17.5C18.3 20.2 18.5 19.3333 18.5 19V12Z" fill="#A4D6FF"/>
<path d="M13.2305 3.96042L20.2305 9.42384C20.7161 9.80284 21 10.3845 21 11.0005V19C21 20.1046 20.1046 21 19 21H5C3.89543 21 3 20.1046 3 19V11.0005C3 10.3845 3.28386 9.80284 3.76946 9.42384L10.7695 3.96042C11.4927 3.39593 12.5073 3.39593 13.2305 3.96042Z" stroke="#3F99DD" stroke-width="1.5"/>
<path d="M13 21V10L14.6 10.55L15 21H13Z" fill="#A4D6FF"/>
<path d="M15 11.7368V21H9V11.7368C9 9.42105 15 9.42105 15 11.7368Z" stroke="#3F99DD" stroke-width="1.5"/>
</svg>
