<svg width="270" height="252" viewBox="0 0 270 252" fill="none" xmlns="http://www.w3.org/2000/svg">
<path d="M148.079 44.6888C156.45 34.7297 178.89 20.1303 201.677 41.4056" stroke="white"/>
<path d="M119.544 44.6888C111.172 34.7297 88.7322 20.1303 65.9452 41.4056" stroke="white"/>
<rect x="187.154" y="166.003" width="18.3416" height="5.23921" stroke="#E1E5F1"/>
<rect x="177.795" y="171.619" width="18.3416" height="5.23921" stroke="#E1E5F1"/>
<rect x="196.513" y="171.619" width="18.3416" height="5.23921" stroke="#E1E5F1"/>
<rect x="187.154" y="177.234" width="18.3416" height="5.23921" stroke="#E1E5F1"/>
<rect x="132.983" y="171.52" width="26.1015" height="7.74244" stroke="#E1E5F1"/>
<rect x="119.869" y="179.388" width="26.1015" height="7.74244" stroke="#E1E5F1"/>
<rect x="146.096" y="179.388" width="26.1015" height="7.74244" stroke="#E1E5F1"/>
<rect x="132.983" y="187.256" width="26.1015" height="7.74244" stroke="#E1E5F1"/>
<path d="M116.611 204.121L268.322 204.121" stroke="#E1E5F1"/>
<path d="M-2 204.121L107.416 204.121" stroke="#E1E5F1"/>
<path d="M217.68 233.834L231.544 246.911C221.096 247.165 206.656 247.456 192.669 247.634C169.649 247.927 147.855 247.912 147.103 246.911C145.893 245.302 152.312 228.134 155.673 219.752H173.317L183.708 223.05L217.68 233.834Z" fill="#F4F6FF"/>
<path d="M152.36 225.268H188.806M148.792 239.06H221.43" stroke="white"/>
<path d="M186.49 223.429L190.168 251.013" stroke="white"/>
<rect x="143.703" y="50.1585" width="68.9122" height="108.291" fill="#F4F6FF"/>
<path d="M138.234 47.9706C143.004 39.0087 157.522 21.6958 177.432 24.14C183.031 23.9363 196.595 26.1564 206.052 36.6664" stroke="white"/>
<path d="M212.615 44.6891C213.61 46.5785 215.658 51.8488 215.897 57.8152" stroke="#E1E5F1"/>
<path d="M176.518 47.9705V160.636" stroke="white"/>
<path d="M209.334 80.7862H144.797" stroke="white"/>
<path d="M209.334 105.944H144.797" stroke="white"/>
<path d="M209.334 137.666H144.797" stroke="white"/>
<rect width="68.9122" height="108.291" transform="matrix(-1 0 0 1 123.919 50.1585)" fill="#F4F6FF"/>
<path d="M129.388 47.9706C124.618 39.0087 110.1 21.6958 90.1904 24.14C84.5908 23.9363 71.0271 26.1564 61.5699 36.6664" stroke="white"/>
<path d="M91.1036 47.9705V160.636" stroke="white"/>
<path d="M58.2883 80.7862H122.825" stroke="white"/>
<path d="M58.2883 105.944H122.825" stroke="white"/>
<path d="M58.2883 137.666H122.825" stroke="white"/>
<path d="M136.046 58.9089V150.792" stroke="#E1E5F1"/>
<path d="M45.8121 31.325V123.208" stroke="#E1E5F1"/>
<rect x="215.152" y="182.513" width="39.3784" height="31.7215" fill="#E1E5F1"/>
<path d="M228.299 183.607C228.299 185.47 228.299 187.333 228.299 189.196C228.299 189.748 228.114 190.206 228.842 190.168C229.202 190.149 229.127 189.828 229.386 189.701C229.591 189.6 229.966 189.663 230.191 189.663C230.454 189.663 231 189.556 231.157 189.831C231.305 190.091 231.169 190.168 231.559 190.168" stroke="white" stroke-linecap="round" stroke-linejoin="round"/>
<path d="M234.841 189.93C235.898 189.961 238.002 190.744 238.087 189.303C238.166 187.964 238.087 186.601 238.087 185.259C238.087 184.708 238.087 184.158 238.087 183.607" stroke="white" stroke-linecap="round" stroke-linejoin="round"/>
<path d="M233.747 182.513V215.329" stroke="white"/>
<rect x="23.9034" y="182.513" width="39.3784" height="31.7215" fill="#E1E5F1"/>
<path d="M37.0506 183.607C37.0506 185.47 37.0506 187.333 37.0506 189.196C37.0506 189.748 36.8655 190.206 37.594 190.168C37.954 190.149 37.8785 189.828 38.1375 189.701C38.343 189.6 38.7182 189.663 38.9425 189.663C39.2052 189.663 39.7516 189.556 39.9086 189.831C40.0564 190.091 39.9203 190.168 40.3111 190.168" stroke="white" stroke-linecap="round" stroke-linejoin="round"/>
<path d="M43.5927 189.93C44.65 189.961 46.7538 190.744 46.839 189.303C46.9181 187.964 46.839 186.601 46.839 185.259C46.839 184.708 46.839 184.158 46.839 183.607" stroke="white" stroke-linecap="round" stroke-linejoin="round"/>
<path d="M42.4988 182.513V215.329" stroke="white"/>
<rect x="72.635" y="182.513" width="39.3784" height="31.7215" fill="#E1E5F1"/>
<path d="M85.7821 183.607C85.7821 185.47 85.7821 187.333 85.7821 189.196C85.7821 189.748 85.597 190.206 86.3256 190.168C86.6855 190.149 86.61 189.828 86.869 189.701C87.0745 189.6 87.4497 189.663 87.674 189.663C87.9367 189.663 88.4831 189.556 88.6401 189.831C88.7879 190.091 88.6518 190.168 89.0426 190.168" stroke="white" stroke-linecap="round" stroke-linejoin="round"/>
<path d="M92.3242 189.93C93.3815 189.961 95.4853 190.744 95.5705 189.303C95.6496 187.964 95.5705 186.601 95.5705 185.259C95.5705 184.708 95.5705 184.158 95.5705 183.607" stroke="white" stroke-linecap="round" stroke-linejoin="round"/>
<path d="M91.2303 182.513V215.329" stroke="white"/>
<rect x="8.71265" y="146.695" width="22.4135" height="6.55273" stroke="#E1E5F1"/>
<rect x="23.8181" y="153.492" width="22.4135" height="6.55273" stroke="#E1E5F1"/>
<rect x="8.71265" y="160.29" width="22.4135" height="6.55273" stroke="#E1E5F1"/>
<rect x="231.288" y="68.5403" width="18.3416" height="5.23921" stroke="#E1E5F1"/>
<rect x="221.93" y="74.1556" width="18.3416" height="5.23921" stroke="#E1E5F1"/>
<rect x="240.647" y="74.1556" width="18.3416" height="5.23921" stroke="#E1E5F1"/>
<rect x="231.288" y="79.7708" width="18.3416" height="5.23921" stroke="#E1E5F1"/>
<path d="M123.895 233.834L137.758 246.911C127.311 247.165 112.871 247.456 98.8836 247.634C75.8637 247.927 54.0701 247.912 53.3175 246.911C52.1076 245.302 58.5268 228.134 61.8876 219.752H79.532L89.9231 223.05L123.895 233.834Z" fill="#F4F6FF"/>
<path d="M58.5749 225.269H95.0211M55.0067 239.061H127.644" stroke="white"/>
<path d="M92.7047 223.43L96.3826 251.014" stroke="white"/>
<path d="M195.453 165.91C195.453 165.91 197.679 165.561 197.926 165.474C197.926 165.474 199.513 162.285 199.678 160.821C199.843 159.375 201.183 158.747 201.183 158.747L200.585 158.887C200.585 158.887 198.833 159.706 198.545 160.42C198.277 161.152 197.143 163.697 195.453 165.91Z" fill="#201D1E"/>
<path d="M171.101 142.035L173.453 146.809C173.453 146.809 173.612 146.848 174.921 146.264L171.101 142.035Z" fill="#FAD8D3"/>
<path d="M187.277 230.655C187.894 230.655 187.894 229.692 187.277 229.692C186.641 229.692 186.641 230.655 187.277 230.655Z" fill="white"/>
<path d="M201.734 230.655C202.351 230.655 202.351 229.692 201.734 229.692C201.098 229.692 201.098 230.655 201.734 230.655Z" fill="white"/>
<path d="M196.722 221.211C197.339 221.211 197.339 220.247 196.722 220.247C196.086 220.247 196.086 221.211 196.722 221.211Z" fill="white"/>
<path d="M163.377 221.211C163.994 221.211 163.994 220.247 163.377 220.247C162.741 220.247 162.741 221.211 163.377 221.211Z" fill="white"/>
<path d="M229.683 225.644C230.3 225.644 230.3 224.68 229.683 224.68C229.047 224.68 229.047 225.644 229.683 225.644Z" fill="white"/>
<path d="M166.845 233.739C167.462 233.739 167.462 232.776 166.845 232.776C166.209 232.776 166.209 233.739 166.845 233.739Z" fill="white"/>
<path d="M146.164 232.525C146.106 232.467 146.029 232.39 145.971 232.332C145.798 232.159 145.47 232.14 145.297 232.332C145.123 232.525 145.104 232.814 145.297 233.007C145.354 233.065 145.432 233.142 145.489 233.2C145.663 233.373 145.991 233.392 146.164 233.2C146.338 233.026 146.357 232.718 146.164 232.525Z" fill="white"/>
<path d="M136.68 222.271C136.68 222.213 136.68 222.136 136.68 222.078C136.68 221.827 136.468 221.577 136.198 221.596C135.929 221.615 135.716 221.808 135.716 222.078C135.716 222.136 135.716 222.213 135.716 222.271C135.716 222.521 135.929 222.772 136.198 222.753C136.449 222.733 136.68 222.541 136.68 222.271Z" fill="white"/>
<path d="M114.823 227.668C115.439 227.668 115.439 226.704 114.823 226.704C114.187 226.704 114.187 227.668 114.823 227.668Z" fill="white"/>
<path d="M129.568 227.668C130.185 227.668 130.185 226.704 129.568 226.704C128.932 226.704 128.932 227.668 129.568 227.668Z" fill="white"/>
<path d="M51.5814 230.655C52.1982 230.655 52.1982 229.692 51.5814 229.692C50.9453 229.692 50.9453 230.655 51.5814 230.655Z" fill="white"/>
<path d="M79.723 233.219C80.3398 233.219 80.3398 232.255 79.723 232.255C79.087 232.255 79.087 233.219 79.723 233.219Z" fill="white"/>
<path d="M94.8732 234.028C95.49 234.028 95.49 233.065 94.8732 233.065C94.2371 233.065 94.2371 234.028 94.8732 234.028Z" fill="white"/>
<path d="M210.504 231.716C211.121 231.716 211.121 230.752 210.504 230.752C209.887 230.752 209.887 231.716 210.504 231.716Z" fill="white"/>
<path d="M203.936 123.682C204.641 121.992 205.069 120.562 204.892 120.488C204.715 120.415 204.001 121.725 203.296 123.414C202.591 125.104 202.163 126.534 202.339 126.608C202.516 126.681 203.231 125.371 203.936 123.682Z" fill="#F48B8D"/>
<path d="M204.25 122.957L213.121 128.239C213.121 128.239 212.461 128.541 212.286 128.662C212.111 128.783 203.571 124.187 203.571 124.187C203.571 124.187 203.959 122.736 204.25 122.957Z" fill="#201D1E"/>
<path d="M28.8403 229.838C28.8403 229.838 52.4433 227.667 57.7576 228.294C63.0718 228.943 67.6201 226.928 81.5042 223.347C95.3883 219.765 172.732 209.491 243.11 224.265C244.906 226.615 251.632 227.018 245.169 231.047C238.706 235.076 71.115 237.024 27.3083 229.973" fill="#221F1F"/>
<path opacity="0.7" d="M214.86 120.422C214.86 120.422 246.644 99.2577 241.691 81.1006C241.691 81.1006 270.7 92.4536 267.596 114.331C267.596 114.331 230.858 160.475 196.78 165.641C162.721 170.806 219.197 150.163 214.86 120.422Z" fill="#FFEDE1"/>
<g opacity="0.7">
<g opacity="0.7">
<path opacity="0.7" d="M247.107 83.1631C243.348 89.0998 239.224 94.8245 234.463 100.009C232.593 102.053 230.723 104.096 228.873 106.158C227.369 107.816 225.808 109.416 224.054 110.784C221.664 112.635 218.946 114.003 216.171 115.14C215.747 115.314 215.939 116.008 216.363 115.834C218.85 114.832 221.278 113.656 223.476 112.114C225.307 110.842 226.926 109.319 228.449 107.7C232.689 103.19 236.949 98.6024 240.727 93.6872C243.233 90.4105 245.565 87.0181 247.762 83.5293C247.974 83.1245 247.358 82.7583 247.107 83.1631Z" fill="white"/>
</g>
</g>
<g opacity="0.7">
<g opacity="0.7">
<path opacity="0.7" d="M212.084 126.358C225.5 119.535 237.99 110.379 246.644 97.8892C249.054 94.4004 251.135 90.6996 252.812 86.8061C252.986 86.382 252.369 86.0158 252.195 86.4398C246.201 100.26 235.33 111.247 222.82 119.362C219.235 121.694 215.515 123.795 211.718 125.722C211.313 125.954 211.679 126.57 212.084 126.358Z" fill="white"/>
</g>
</g>
<g opacity="0.7">
<g opacity="0.7">
<path opacity="0.7" d="M215.765 133.336C219.139 131.89 222.473 130.348 225.615 128.44C228.044 126.956 230.279 125.24 232.535 123.544C235.831 121.038 239.242 118.687 242.538 116.2C246.239 113.406 249.593 110.283 252.523 106.679C255.8 102.612 258.537 98.159 261.081 93.6101C261.312 93.2053 260.676 92.8391 260.464 93.2439C255.915 101.397 250.653 108.972 243.232 114.774C239.821 117.453 236.197 119.882 232.747 122.503C230.549 124.18 228.371 125.876 226.039 127.361C222.685 129.5 219.061 131.158 215.418 132.738C214.975 132.893 215.341 133.509 215.765 133.336Z" fill="white"/>
</g>
</g>
<g opacity="0.7">
<g opacity="0.7">
<path opacity="0.7" d="M203.43 149.18C222.088 140.699 241.363 131.832 255.453 116.47C259.558 111.998 263.163 107.103 266.44 101.995C266.69 101.609 266.073 101.243 265.823 101.629C260.04 110.63 253.178 118.725 244.774 125.375C236.737 131.736 227.755 136.767 218.58 141.296C213.453 143.822 208.268 146.192 203.063 148.563C202.639 148.756 203.006 149.373 203.43 149.18Z" fill="white"/>
</g>
</g>
<g opacity="0.7">
<g opacity="0.7">
<path opacity="0.7" d="M236.371 85.7267C238.857 88.3481 241.401 90.8924 243.714 93.668C245.912 96.3279 247.955 99.1228 249.825 102.014C253.506 107.758 256.513 113.926 258.749 120.383C260.002 124.026 261.004 127.746 261.775 131.543C261.871 132.006 262.565 131.813 262.469 131.351C259.77 117.877 253.814 105.137 245.256 94.4004C242.654 91.1429 239.744 88.2324 236.91 85.2062C236.563 84.8593 236.062 85.3797 236.371 85.7267Z" fill="white"/>
</g>
</g>
<g opacity="0.7">
<g opacity="0.7">
<path opacity="0.7" d="M230.357 92.3572C237.72 104.134 242.346 117.569 243.772 131.37C244.177 135.244 244.312 139.138 244.216 143.031C244.197 143.494 244.929 143.494 244.948 143.031C245.295 129.134 242.442 115.217 236.679 102.554C235.022 98.9107 233.113 95.3834 230.993 91.9717C230.743 91.5862 230.107 91.9525 230.357 92.3572Z" fill="white"/>
</g>
</g>
<g opacity="0.7">
<g opacity="0.7">
<path opacity="0.7" d="M220.084 100.684C225.847 112.904 229.124 126.243 229.644 139.754C229.798 143.706 229.817 147.715 228.912 151.589C228.796 152.033 229.509 152.225 229.605 151.782C230.396 148.409 230.492 144.959 230.415 141.509C230.338 138.039 230.087 134.589 229.663 131.158C228.815 124.315 227.254 117.55 225.037 111.015C223.804 107.372 222.339 103.807 220.7 100.318C220.508 99.8938 219.891 100.26 220.084 100.684Z" fill="white"/>
</g>
</g>
<g opacity="0.7">
<g opacity="0.7">
<path opacity="0.7" d="M214.764 105.291C218.252 119.342 218.522 134.126 215.554 148.313C214.725 152.283 213.646 156.196 212.316 160.032C212.161 160.475 212.855 160.668 213.01 160.225C217.751 146.443 219.351 131.64 217.655 117.164C217.173 113.097 216.44 109.069 215.457 105.098C215.342 104.635 214.648 104.828 214.764 105.291Z" fill="white"/>
</g>
</g>
<path d="M218.156 129.693C218.156 129.693 222.377 132.835 223.958 137.403C225.539 141.971 231.34 138.656 232.921 141.721C234.501 144.785 228.95 150.259 224.96 151.994C220.99 153.729 213.434 163.193 210.446 160.456C207.459 157.719 205.396 150.259 207.536 144.959C209.694 139.639 212.104 130.695 218.156 129.693Z" fill="#094051"/>
<path d="M227.312 141.663C227.312 141.663 212.721 149.951 210.736 157.006C208.75 164.06 216.383 156.504 218.87 154.018C221.356 151.531 222.436 152.283 226.657 149.797C230.878 147.31 232.728 144.708 232.131 142.781C231.514 140.834 228.546 140.718 227.312 141.663Z" fill="#072C35"/>
<path d="M224.247 131.755C222.069 130.811 221.799 128.479 223.572 126.59C226.078 123.93 230.819 119.766 237.084 118.224C246.548 115.892 245.064 121.655 247.839 123.583C250.615 125.51 257.477 125.53 255.78 129.944C254.084 134.358 239.069 145.055 236.872 140.815C234.674 136.574 232.053 134.685 229.277 133.471C227.793 132.816 225.827 132.43 224.247 131.755Z" fill="#05C99A"/>
<path d="M248.246 135.793C252.688 132.454 255.635 128.878 254.829 127.806C254.023 126.733 249.769 128.571 245.327 131.91C240.886 135.249 237.939 138.825 238.745 139.898C239.551 140.97 243.805 139.132 248.246 135.793Z" fill="#00AA86"/>
<path d="M224.709 124.855C224.709 124.855 228.93 127.997 230.511 132.565C232.091 137.133 237.893 133.818 239.474 136.882C241.054 139.947 235.503 145.421 231.513 147.156C227.543 148.891 219.987 158.355 216.999 155.618C214.011 152.881 211.949 145.421 214.089 140.121C216.247 134.801 218.657 125.857 224.709 124.855Z" fill="#094051"/>
<path d="M233.826 136.805C233.826 136.805 219.235 145.094 217.249 152.148C215.264 159.203 222.897 151.647 225.383 149.161C227.87 146.674 228.949 147.426 233.17 144.939C237.392 142.453 239.242 139.851 238.645 137.923C238.028 135.977 235.04 135.861 233.826 136.805Z" fill="#072C35"/>
<path d="M209.174 138.887C207.188 137.731 207.208 135.456 209.135 133.876C211.834 131.64 216.864 128.19 223.013 127.457C232.323 126.339 230.241 131.659 232.67 133.818C235.099 135.977 241.652 136.805 239.513 140.815C237.373 144.843 221.78 153.305 220.18 149.007C218.58 144.708 216.286 142.588 213.78 141.104C212.431 140.313 210.6 139.716 209.174 138.887Z" fill="#F48B8D"/>
<path d="M231.649 145.53C236.286 142.853 239.523 139.778 238.879 138.663C238.235 137.547 233.954 138.813 229.317 141.491C224.68 144.168 221.443 147.243 222.087 148.358C222.731 149.473 227.012 148.207 231.649 145.53Z" fill="#F48B8D"/>
<path d="M194.756 152.996C192.925 152.206 192.694 150.24 194.178 148.66C196.279 146.424 200.269 142.916 205.531 141.624C213.491 139.658 212.239 144.515 214.571 146.134C216.903 147.754 222.666 147.773 221.24 151.474C219.814 155.194 207.189 164.176 205.357 160.61C203.526 157.044 201.31 155.464 198.977 154.442C197.744 153.902 196.086 153.575 194.756 152.996Z" fill="#05C99A"/>
<path d="M214.938 156.395C218.674 153.587 221.152 150.58 220.474 149.678C219.796 148.776 216.218 150.321 212.483 153.129C208.747 155.937 206.269 158.945 206.947 159.847C207.625 160.749 211.203 159.204 214.938 156.395Z" fill="#00AA86"/>
<path d="M235.388 127.997C235.388 127.997 236.467 129.597 240.862 128.922C245.256 128.247 249.208 127.958 250.21 129.442C251.212 130.927 256.166 129.674 255.53 128.324C254.894 126.975 250.576 123.082 244.216 125.009C237.855 126.937 235.388 127.997 235.388 127.997Z" fill="#05C99A"/>
<path d="M237.97 128.594C235.6 129.211 233.884 127.476 234.135 124.816C234.482 121.077 235.696 114.658 239.802 109.435C246.008 101.532 248.475 107.141 251.945 106.948C255.414 106.756 261.004 102.4 262.45 107.064C263.895 111.729 258.46 129.982 253.988 127.92C249.516 125.857 246.162 126.011 243.155 126.782C241.517 127.187 239.686 128.132 237.97 128.594Z" fill="#F48B8D"/>
<path d="M260.055 116.594C261.543 111.053 261.665 106.27 260.329 105.911C258.992 105.552 256.702 109.753 255.215 115.295C253.727 120.837 253.604 125.62 254.941 125.979C256.277 126.337 258.567 122.136 260.055 116.594Z" fill="#F48B8D"/>
<path d="M221.471 130.329C221.471 130.329 225.23 130.233 227.581 131.89C229.933 133.548 231.918 133.933 231.109 136.073C230.299 138.212 227.967 139.986 225.557 138.771C223.148 137.557 220.642 133.452 220.661 132.873C220.681 132.295 221.471 130.329 221.471 130.329Z" fill="#F48B8D"/>
<path d="M203.16 141.258C201.348 140.159 201.387 138.058 203.18 136.613C205.705 134.569 210.408 131.447 216.113 130.849C221.163 130.31 222.59 131.755 223.322 133.471C223.862 134.685 224.054 136.034 224.96 136.882C227.177 138.906 233.249 139.754 231.205 143.455C229.182 147.156 214.61 154.808 213.203 150.799C211.776 146.79 209.675 144.805 207.382 143.397C206.167 142.626 204.471 142.048 203.16 141.258Z" fill="#FFD26A"/>
<path d="M223.906 147.727C228.237 145.307 231.276 142.502 230.694 141.461C230.113 140.42 226.13 141.538 221.8 143.958C217.469 146.378 214.43 149.183 215.011 150.224C215.593 151.265 219.575 150.147 223.906 147.727Z" fill="#FFD26A"/>
<path d="M205.801 132.758C203.989 131.659 204.028 129.558 205.82 128.112C208.345 126.069 213.048 122.947 218.754 122.349C223.804 121.809 225.23 123.255 225.963 124.971C226.502 126.185 226.695 127.534 227.601 128.382C229.818 130.406 235.889 131.254 233.846 134.955C231.803 138.656 217.25 146.308 215.843 142.299C214.417 138.29 212.316 136.304 210.022 134.897C208.808 134.107 207.112 133.548 205.801 132.758Z" fill="#094051"/>
<path d="M226.542 139.205C230.873 136.785 233.912 133.98 233.331 132.939C232.749 131.898 228.767 133.016 224.436 135.436C220.106 137.855 217.066 140.661 217.648 141.702C218.23 142.742 222.212 141.625 226.542 139.205Z" fill="#094051"/>
<path d="M215.284 137.307C215.708 137.268 225.596 132.199 225.885 128.633C226.174 125.067 219.37 124.277 216.672 127.322C213.973 130.368 212.971 131.717 212.971 131.852C212.971 131.987 215.284 137.307 215.284 137.307Z" fill="#094051"/>
<path d="M199.752 156.785C199.752 156.785 205.212 158.208 205.173 157.247C205.135 156.285 215.031 117.082 215.031 117.082C215.031 117.082 204.903 114.256 202.472 124.542C198.923 139.539 198.498 143.692 184.589 153.536C162.887 168.898 181.156 163.592 181.156 163.592C181.156 163.592 188.602 166.033 199.752 156.785Z" fill="#201D1E"/>
<path d="M202.511 141.824C202.511 141.824 205.663 136.122 201.183 133.534L209.805 132.094L211.232 131.529L211.688 143.945L202.511 141.824Z" fill="#FAD8D3"/>
<path d="M211.815 131.109C211.815 131.109 209.945 138.169 201.266 140.634C191.824 143.323 212.349 147.301 214.332 144.313C214.332 144.313 214.847 140.018 215.82 138.169C216.793 136.32 216.373 135.367 216.373 135.367C216.373 135.367 213.875 130.474 211.815 131.109Z" fill="#201D1E"/>
<path d="M117.83 210.976C117.83 210.976 111.064 213.173 104.53 204.364C104.53 204.364 108.057 202.784 112.028 205.482C115.999 208.142 117.83 210.976 117.83 210.976Z" fill="#068E6E"/>
<path d="M107.441 201.087C107.441 201.087 103.624 210.764 97.3019 215.197C90.9604 219.63 89.0329 221.095 89.0329 221.095C89.0329 221.095 85.814 222.348 85.9875 223.292C86.2959 224.988 89.11 223.466 91.1725 222.926C93.524 222.309 97.7067 221.211 103.624 221.211C109.368 221.211 109.291 219.823 109.349 215.332C109.407 211.515 114.592 206.909 114.592 206.909C114.592 206.909 114.727 198.216 107.441 201.087Z" fill="#FBD9D4"/>
<path d="M117.83 210.995C117.83 210.995 121.743 204.653 123.593 202.803C127.101 199.295 127.044 198.004 127.159 196.654C127.275 195.305 128.643 190.968 129.569 189.484C130.494 188 137.182 173.582 146.743 170.248C156.303 166.932 165.921 162.75 165.921 162.75C165.921 162.75 144.256 152.476 138.03 156.485C138.03 156.485 121.82 168.493 120.548 170.961C119.276 173.428 108.848 200.895 104.511 204.403C104.511 204.403 106.439 208.084 117.83 210.995Z" fill="#1479CB"/>
<path d="M86.296 223.948C89.4186 224.776 103.856 228.554 107.788 228.362C108.347 228.323 108.848 228.709 108.963 229.229C109.079 229.692 109.098 230.231 108.79 230.578C108.173 231.291 90.7293 227.687 85.7949 225.76C85.3708 225.586 85.1588 225.123 85.3323 224.699L85.4672 224.372C85.6022 224.044 85.9491 223.871 86.296 223.948Z" fill="#7880BC"/>
<path fill-rule="evenodd" clip-rule="evenodd" d="M91.4846 218.039C92.012 218.031 92.4464 218.451 92.4549 218.979L91.5 218.994C92.4549 218.979 92.4549 218.978 92.4549 218.978L92.4549 218.977C92.4549 218.977 92.4549 218.977 92.4549 218.978L92.4551 218.985C92.4553 218.992 92.4557 219.005 92.4564 219.024C92.4579 219.06 92.4606 219.117 92.4655 219.192C92.4755 219.342 92.4944 219.564 92.5299 219.839C92.6013 220.39 92.7385 221.145 92.9995 221.957C93.5279 223.6 94.5175 225.345 96.3558 226.252C96.8288 226.486 97.0231 227.058 96.7897 227.531C96.5564 228.004 95.9837 228.199 95.5107 227.965C93.0122 226.733 91.7851 224.42 91.1811 222.541C90.8759 221.592 90.7179 220.719 90.6357 220.084C90.5945 219.765 90.572 219.503 90.5597 219.318C90.5536 219.226 90.55 219.152 90.5479 219.1C90.5468 219.074 90.5462 219.053 90.5458 219.038L90.5453 219.019L90.5452 219.013L90.5451 219.011L90.5451 219.01C90.5451 219.01 90.5451 219.009 91.5 218.994L90.5451 219.009C90.5366 218.482 90.9572 218.048 91.4846 218.039Z" fill="#7880BC"/>
<path d="M127.178 198.177C127.178 198.177 125.559 191.142 128.219 186.785L127.178 198.177Z" fill="#221F1F"/>
<path d="M134.85 169.766C138.551 172.136 141.596 171.847 142.926 172.04L134.85 169.766Z" fill="#221F1F"/>
<path d="M142.444 172.522C142.058 172.618 138.261 176.512 132.748 175.837L142.444 172.522Z" fill="#221F1F"/>
<path d="M105.359 205.386C105.359 205.386 107.749 209.993 110.583 211.669C110.583 211.669 111.835 209.819 112.337 209.279C112.337 209.279 107.711 207.371 105.359 205.386Z" fill="#221F1F"/>
<path d="M111.431 208.798C111.315 209.279 111.431 208.759 111.412 208.759C111.392 208.798 111.315 208.72 110.737 208.508C105.822 206.697 104.511 204.403 104.511 204.403C108.829 200.895 119.257 173.428 120.548 170.961C121.839 168.493 138.03 156.485 138.03 156.485C140.633 154.808 145.895 155.618 151.157 157.141C151.157 157.141 131.92 169.958 128.509 174.816C125.097 179.673 113.031 202.167 111.431 208.798Z" fill="#1479CB"/>
<path fill-rule="evenodd" clip-rule="evenodd" d="M155.233 158.76C155.49 158.7 155.747 158.859 155.808 159.115C155.868 159.372 155.709 159.629 155.452 159.69L155.343 159.225L155.233 158.76ZM110.457 208.408C110.042 208.172 110.042 208.172 110.042 208.172L110.078 208.109C110.102 208.066 110.138 208.003 110.185 207.92C110.278 207.754 110.416 207.51 110.593 207.194C110.947 206.564 111.456 205.651 112.08 204.523C113.326 202.267 115.027 199.15 116.844 195.705C120.485 188.804 124.574 180.621 126.428 175.402C127.41 172.638 129.75 170.232 132.625 168.185C135.509 166.132 138.986 164.402 142.328 163.01C145.672 161.617 148.897 160.555 151.284 159.842C152.478 159.485 153.464 159.215 154.152 159.034C154.496 158.943 154.765 158.875 154.949 158.829C155.041 158.807 155.112 158.789 155.16 158.778L155.214 158.765L155.228 158.761L155.233 158.76C155.234 158.76 155.233 158.76 155.343 159.225C155.452 159.69 155.452 159.69 155.452 159.69L155.449 159.691L155.436 159.694L155.384 159.706C155.338 159.717 155.269 159.734 155.179 159.756C154.999 159.801 154.734 159.868 154.394 159.957C153.715 160.136 152.74 160.403 151.557 160.757C149.191 161.464 146 162.515 142.695 163.892C139.388 165.27 135.982 166.967 133.179 168.963C130.367 170.965 128.214 173.229 127.328 175.722C125.447 181.015 121.326 189.256 117.689 196.15C115.868 199.602 114.164 202.725 112.916 204.985C112.291 206.115 111.781 207.03 111.426 207.662C111.249 207.978 111.11 208.223 111.016 208.39C110.969 208.473 110.933 208.536 110.909 208.579L110.873 208.643L110.872 208.644C110.872 208.644 110.872 208.644 110.457 208.408ZM110.457 208.408L110.042 208.172C109.912 208.402 109.992 208.693 110.221 208.823C110.451 208.954 110.742 208.873 110.872 208.644L110.457 208.408Z" fill="white"/>
<path fill-rule="evenodd" clip-rule="evenodd" d="M106.824 214.409C106.938 214.343 107.084 214.382 107.15 214.496L106.944 214.616C107.15 214.496 107.15 214.496 107.15 214.497L107.151 214.497L107.151 214.497L107.152 214.499L107.154 214.503C107.156 214.506 107.158 214.51 107.16 214.515C107.166 214.525 107.173 214.538 107.181 214.555C107.197 214.589 107.218 214.636 107.239 214.696C107.283 214.814 107.33 214.983 107.347 215.186C107.381 215.599 107.288 216.142 106.817 216.683C106.73 216.782 106.579 216.793 106.48 216.706C106.38 216.619 106.37 216.468 106.457 216.369C106.834 215.936 106.895 215.525 106.871 215.226C106.858 215.073 106.823 214.947 106.791 214.859C106.775 214.816 106.76 214.782 106.75 214.761C106.745 214.75 106.741 214.743 106.739 214.738L106.736 214.734C106.736 214.734 106.736 214.734 106.736 214.734L106.737 214.735L106.737 214.735L106.737 214.735C106.671 214.621 106.71 214.475 106.824 214.409Z" fill="#221F1F"/>
<path fill-rule="evenodd" clip-rule="evenodd" d="M87.2521 222.396L87.2524 222.395L87.2546 222.392L87.2648 222.379C87.2741 222.367 87.2883 222.348 87.3072 222.324C87.345 222.277 87.4013 222.209 87.4736 222.128C87.6188 221.967 87.8258 221.759 88.0751 221.569C88.5835 221.182 89.209 220.913 89.8384 221.154C89.9615 221.201 90.0996 221.139 90.1466 221.016C90.1937 220.893 90.1321 220.755 90.0089 220.708C89.1435 220.377 88.3365 220.77 87.786 221.189C87.5059 221.402 87.277 221.633 87.1185 221.809C87.039 221.897 86.9765 221.973 86.9336 222.027C86.9121 222.054 86.8954 222.076 86.8839 222.091C86.8782 222.098 86.8737 222.104 86.8705 222.109L86.8668 222.114L86.8657 222.115L86.8653 222.116L86.8652 222.116C86.8651 222.116 86.8651 222.116 87.0586 222.256L86.8651 222.116C86.7878 222.223 86.8119 222.372 86.9188 222.45C87.0256 222.527 87.1748 222.503 87.2521 222.396L87.2521 222.396Z" fill="#221F1F"/>
<path fill-rule="evenodd" clip-rule="evenodd" d="M133.903 159.128C134.22 158.892 134.669 158.957 134.906 159.274C135.142 159.591 135.077 160.04 134.76 160.276L134.332 159.702L133.903 159.128ZM133.903 159.128C133.903 159.128 133.903 159.128 134.332 159.702C134.76 160.276 134.76 160.276 134.76 160.276L134.76 160.277L134.72 160.306C134.694 160.326 134.654 160.356 134.602 160.395C134.499 160.472 134.347 160.587 134.153 160.734C133.765 161.028 133.21 161.451 132.542 161.967C131.207 162.999 129.422 164.401 127.623 165.884C125.822 167.368 124.018 168.925 122.637 170.268C121.946 170.94 121.374 171.547 120.964 172.056C120.759 172.31 120.604 172.53 120.496 172.712C120.383 172.903 120.346 173.015 120.337 173.061C120.262 173.461 120.04 174.117 119.741 174.907C119.435 175.717 119.026 176.724 118.549 177.854C117.596 180.116 116.363 182.891 115.121 185.611C113.878 188.332 112.623 191.003 111.623 193.057C111.123 194.084 110.685 194.961 110.344 195.614C110.173 195.941 110.024 196.216 109.902 196.429C109.792 196.62 109.671 196.819 109.562 196.943C109.301 197.24 108.848 197.27 108.551 197.009C108.254 196.748 108.225 196.295 108.486 195.998C108.486 195.998 108.486 195.998 108.486 195.997C108.491 195.99 108.545 195.914 108.66 195.715C108.769 195.526 108.908 195.269 109.074 194.951C109.407 194.315 109.838 193.452 110.335 192.431C111.328 190.389 112.578 187.729 113.818 185.016C115.057 182.303 116.283 179.542 117.229 177.298C117.702 176.175 118.104 175.187 118.401 174.401C118.706 173.594 118.881 173.053 118.929 172.797C118.982 172.515 119.113 172.237 119.263 171.983C119.417 171.722 119.618 171.444 119.848 171.158C120.31 170.584 120.929 169.932 121.639 169.241C123.061 167.858 124.9 166.272 126.712 164.778C128.526 163.283 130.324 161.871 131.667 160.833C132.338 160.314 132.897 159.888 133.288 159.592C133.483 159.444 133.637 159.328 133.742 159.25C133.794 159.21 133.834 159.18 133.862 159.16L133.903 159.128Z" fill="#221F1F"/>
<path d="M78.4713 153.972C78.4713 153.972 77.8537 161.339 87.9542 167.82C87.9741 167.82 89.2889 159.935 78.4713 153.972Z" fill="#7CD2FC"/>
<path d="M82.0242 153.982C80.6943 153.864 79.6968 154.881 79.6968 154.881C79.6968 154.881 73.0474 160.413 68.3537 161.762C63.6599 163.131 52.6687 162.818 52.6687 162.818C52.6687 162.818 51.2215 162.016 50.4001 162.544C49.5591 163.072 49.4222 164.03 51.3389 164.773C53.275 165.535 57.8123 167.06 60.0809 167.471C62.3496 167.881 66.9064 169.582 68.5688 170.501C70.2311 171.4 73.419 171.967 74.9249 168.174C76.2939 164.753 79.6186 163.385 86.581 161.606C86.6006 161.625 84.4101 154.197 82.0242 153.982Z" fill="#FBD9D4"/>
<path d="M172.033 149.671C172.033 149.671 146.623 142.876 145.055 142.167C143.314 141.383 143.178 139.947 141.378 140.904C139.579 141.861 139.095 142.167 137.295 141.785C135.495 141.421 117.111 139.028 115.408 138.53C113.027 137.841 111.576 138.377 110.318 139.2C109.041 140.024 82.2183 153.059 78.4639 153.958C78.4639 153.958 88.4304 159.452 87.6757 167.74C87.6757 167.74 88.8755 168.295 90.3269 166.477C91.7977 164.659 95.3198 163.95 96.7326 164.333C98.1453 164.716 100.564 163.969 101.687 161.883C102.809 159.816 115.001 153.805 116.878 153.423C116.878 153.423 137.16 165.788 156.744 164.984C176.329 164.199 181.128 162.917 181.128 162.917C181.128 162.917 175.226 150.762 172.033 149.671Z" fill="#1479CB"/>
<path d="M50.4997 164.043C53.573 165.31 68.0293 171.192 72.0892 171.416C72.6583 171.457 73.1326 171.906 73.1895 172.519C73.2464 173.05 73.2085 173.622 72.867 173.969C72.1651 174.684 54.6544 168.679 49.7977 165.963C49.3803 165.739 49.2096 165.187 49.4372 164.738L49.608 164.391C49.7787 164.064 50.1582 163.921 50.4997 164.043Z" fill="#7880BC"/>
<path fill-rule="evenodd" clip-rule="evenodd" d="M56.6228 162.096C56.8829 161.638 57.4658 161.477 57.9246 161.737L57.4535 162.567C57.9246 161.737 57.9249 161.737 57.9252 161.737L57.9274 161.738L57.9315 161.741L57.9433 161.747C57.9528 161.753 57.9655 161.76 57.9813 161.77C58.0129 161.789 58.0567 161.815 58.1114 161.85C58.2207 161.918 58.3739 162.018 58.5598 162.149C58.9312 162.411 59.4366 162.8 59.9865 163.314C61.081 164.338 62.3847 165.893 63.1281 167.977C63.3054 168.473 63.0464 169.02 62.5496 169.197C62.0528 169.374 61.5064 169.115 61.3292 168.619C60.7203 166.913 59.6365 165.603 58.6815 164.709C58.2066 164.265 57.7719 163.931 57.4591 163.71C57.3031 163.6 57.1783 163.519 57.0951 163.467C57.0536 163.441 57.0226 163.422 57.0033 163.411C56.9937 163.405 56.9871 163.401 56.9835 163.399L56.9807 163.397C56.5232 163.137 56.363 162.555 56.6228 162.096Z" fill="#7880BC"/>
<path d="M100.907 162.567C100.907 162.567 101.936 159.4 105.682 156.36L100.907 162.567Z" fill="#221F1F"/>
<path d="M113.799 154.45C113.799 154.45 111.928 152.684 111.889 150.152L113.799 154.45Z" fill="#221F1F"/>
<path d="M112.844 154.865C112.844 154.865 109.547 155.595 108.547 152.062L112.844 154.865Z" fill="#221F1F"/>
<path fill-rule="evenodd" clip-rule="evenodd" d="M113.804 145.855C113.768 145.853 113.695 145.858 113.57 145.911C112.893 146.195 105.733 149.624 98.7156 152.996C95.213 154.679 91.7537 156.343 89.17 157.588C87.8782 158.21 86.8052 158.727 86.0553 159.088L84.8786 159.655C84.8784 159.655 84.8783 159.655 84.685 159.254L84.8786 159.655C84.6411 159.769 84.3554 159.67 84.2408 159.432C84.1263 159.195 84.2261 158.909 84.4636 158.795L84.657 159.196C84.4636 158.795 84.4634 158.795 84.4636 158.795L85.6407 158.228C86.3907 157.866 87.4637 157.349 88.7557 156.727C91.3395 155.483 94.7991 153.818 98.302 152.135C105.295 148.774 112.494 145.326 113.202 145.03C113.423 144.937 113.644 144.888 113.864 144.902C114.089 144.916 114.281 144.994 114.442 145.107C114.727 145.309 114.917 145.632 115.053 145.863L115.063 145.881C115.386 146.431 115.582 146.733 116.061 146.733C116.638 146.733 117.06 146.49 117.507 146.233C117.561 146.202 117.614 146.171 117.669 146.14C117.896 146.011 118.2 145.848 118.53 145.834C118.906 145.817 119.222 145.989 119.482 146.295C119.486 146.297 119.49 146.299 119.495 146.302C119.537 146.323 119.604 146.351 119.701 146.385C119.896 146.454 120.173 146.532 120.531 146.62C121.243 146.795 122.233 146.997 123.429 147.219C125.819 147.662 128.997 148.181 132.348 148.725C132.547 148.758 132.746 148.79 132.946 148.823C139.462 149.88 146.513 151.025 149.488 151.879C151.99 152.597 153.656 153.387 154.9 153.977C155.184 154.112 155.447 154.237 155.693 154.347C156.356 154.647 156.865 154.832 157.351 154.888C157.822 154.941 158.302 154.875 158.905 154.614C159.657 154.287 160.938 154.104 162.362 153.995C163.809 153.885 165.478 153.849 167.056 153.849C168.635 153.849 170.129 153.885 171.228 153.922C171.777 153.94 172.229 153.958 172.543 153.972C172.7 153.979 172.822 153.984 172.906 153.988L173.001 153.993L173.034 153.995C173.034 153.995 173.035 153.995 173.017 154.331L173.035 153.995C173.298 154.008 173.5 154.233 173.487 154.496C173.473 154.76 173.249 154.962 172.985 154.948L172.998 154.701C172.985 154.948 172.985 154.948 172.985 154.948L172.954 154.947L172.86 154.942C172.778 154.938 172.657 154.933 172.501 154.926C172.19 154.912 171.742 154.894 171.196 154.876C170.104 154.84 168.621 154.804 167.056 154.804C165.489 154.804 163.847 154.84 162.434 154.948C160.998 155.057 159.871 155.236 159.285 155.49C158.551 155.808 157.902 155.911 157.244 155.836C156.601 155.764 155.979 155.524 155.3 155.218C155.04 155.101 154.767 154.971 154.475 154.833C153.233 154.245 151.645 153.492 149.225 152.797C146.306 151.959 139.286 150.819 132.714 149.752L132.195 149.668C128.847 149.124 125.658 148.604 123.255 148.158C122.055 147.935 121.043 147.729 120.303 147.548C119.934 147.457 119.622 147.37 119.385 147.286C119.267 147.245 119.157 147.201 119.063 147.153C118.984 147.113 118.861 147.044 118.77 146.931C118.648 146.781 118.59 146.786 118.574 146.788C118.573 146.788 118.573 146.788 118.572 146.788C118.5 146.791 118.383 146.833 118.139 146.971C118.093 146.998 118.043 147.027 117.99 147.057C117.554 147.312 116.91 147.688 116.061 147.688C115.011 147.688 114.554 146.904 114.277 146.429C114.264 146.407 114.252 146.385 114.24 146.365C114.078 146.089 113.984 145.953 113.891 145.887C113.86 145.865 113.835 145.857 113.804 145.855Z" fill="white"/>
<path fill-rule="evenodd" clip-rule="evenodd" d="M74.4901 163.773C74.6153 163.732 74.7504 163.8 74.7917 163.925L74.5651 164C74.7917 163.925 74.7918 163.925 74.7918 163.925L74.7919 163.926L74.7921 163.926L74.7926 163.928L74.7942 163.933C74.7954 163.937 74.797 163.942 74.7989 163.948C74.8028 163.961 74.8079 163.98 74.8137 164.002C74.8253 164.048 74.8398 164.112 74.8524 164.19C74.8775 164.344 74.8961 164.56 74.8668 164.796C74.8374 165.033 74.7589 165.296 74.5854 165.539C74.4105 165.783 74.148 165.993 73.7717 166.134C73.6482 166.18 73.5106 166.117 73.4644 165.994C73.4181 165.87 73.4808 165.733 73.6042 165.686C73.8991 165.576 74.0818 165.422 74.1972 165.261C74.3139 165.098 74.3708 164.915 74.3929 164.737C74.4151 164.559 74.4013 164.391 74.3811 164.266C74.3711 164.204 74.3597 164.154 74.3511 164.121C74.3468 164.104 74.3433 164.091 74.341 164.084L74.3385 164.075L74.3384 164.075C74.3383 164.075 74.3383 164.075 74.3383 164.075M74.4901 163.773C74.365 163.815 74.2971 163.95 74.3383 164.075L74.4901 163.773Z" fill="#221F1F"/>
<path d="M79.5857 154.927C84.0932 157.225 86.5816 161.437 86.5816 161.437C86.0513 161.51 82.0332 162.567 82.0332 162.567C82.0332 162.567 80.2384 157.425 78.4639 155.766L79.5857 154.927Z" fill="#221F1F"/>
<path d="M49.9042 162.238C49.9042 162.238 50.6875 161.895 51.6357 162.253C51.6357 162.253 51.78 162.453 51.6976 162.568C51.677 162.553 49.327 162.525 49.9042 162.238Z" fill="white"/>
<path fill-rule="evenodd" clip-rule="evenodd" d="M51.4882 162.047C51.5118 161.918 51.6361 161.831 51.7658 161.855C52.6105 162.009 53.1353 162.397 53.4489 162.757C53.6045 162.936 53.7062 163.105 53.7697 163.232C53.8015 163.296 53.8238 163.349 53.8386 163.387C53.846 163.406 53.8515 163.422 53.8554 163.434C53.8573 163.439 53.8588 163.444 53.86 163.448L53.8614 163.453L53.8619 163.454L53.8621 163.455L53.8622 163.455C53.8623 163.455 53.8623 163.456 53.6331 163.522L53.8623 163.456C53.8993 163.582 53.8267 163.715 53.7001 163.752C53.5736 163.789 53.4411 163.716 53.404 163.59C53.404 163.59 53.404 163.59 53.404 163.59C53.404 163.59 53.404 163.59 53.404 163.59L53.404 163.59L53.4041 163.59L53.4042 163.59L53.4044 163.591C53.4044 163.591 53.4044 163.591 53.4043 163.591L53.4026 163.585C53.4008 163.58 53.3976 163.571 53.3928 163.558C53.3831 163.533 53.3669 163.494 53.3427 163.446C53.2942 163.349 53.2138 163.214 53.0888 163.07C52.8412 162.786 52.411 162.458 51.6804 162.325C51.5507 162.301 51.4646 162.177 51.4882 162.047Z" fill="#221F1F"/>
<path d="M134.81 143.439L169.421 149.675L169.668 149.118L158.732 145.982L145.48 142.381C145.48 142.381 144.531 142.14 143.885 141.639C143.24 141.138 142.632 140.303 141.493 140.711C140.354 141.119 135.949 143.476 134.81 143.439Z" fill="#1479CB"/>
<path d="M140.54 140.602C140.54 140.602 135.044 144.562 130.035 145.377L140.54 140.602Z" fill="#221F1F"/>
<path d="M136.002 143.024C136.002 143.024 114.227 138.946 110.479 139.999C106.731 141.053 81.1109 155.882 81.1109 155.882C81.1109 155.882 78.5992 154.146 78.4639 154.126C78.4639 154.126 79.855 153.638 81.1302 153.112C82.4054 152.585 91.525 148.331 91.525 148.331L108.74 139.999C108.74 139.999 111.503 138.067 113.744 138.224C115.986 138.38 138.63 142.009 138.63 142.009L136.002 143.024Z" fill="#1479CB"/>
<path d="M198.189 140.35L192.745 139.314C186.622 137.682 183.561 139.64 182.321 140.868C179.628 143.536 174.261 148.373 168.72 146.933C167.131 146.511 167.712 147.759 166.976 149.352C166.027 151.425 168.972 162.384 175.927 166.415C175.927 166.415 193.055 169.236 203.324 160.753C213.592 152.269 212.352 147.432 214.212 145.129C216.072 142.826 209.931 138.968 205.416 139.045C200.921 139.122 198.189 140.35 198.189 140.35Z" fill="#F8A263"/>
<path d="M268.329 117.222C267.481 117.222 266.806 116.547 266.787 115.699C266.537 104.308 261.467 95.0172 251.714 88.0589C244.37 82.8161 237.065 80.9657 236.988 80.9465C236.159 80.7344 235.658 79.9056 235.851 79.0768C236.063 78.248 236.892 77.7468 237.72 77.9396C238.048 78.0167 245.681 79.9634 253.507 85.5339C263.954 92.9933 269.621 103.248 269.871 115.487C269.89 115.931 269.405 116.727 269.405 116.727C269.135 116.977 268.753 117.203 268.348 117.222H268.329Z" fill="#094051"/>
<path d="M246.914 85.3411C247.28 84.5509 247.589 83.7606 247.801 82.9125C247.955 82.315 247.03 82.0644 246.876 82.6619C246.683 83.4136 246.413 84.1461 246.085 84.8593C245.815 85.4182 246.644 85.9001 246.914 85.3411Z" fill="white"/>
<path d="M251.328 89.2539C251.79 88.7721 252.195 88.2516 252.465 87.6348C252.735 87.018 252.908 86.3434 253.12 85.7073C253.332 85.1291 252.388 84.8592 252.195 85.4568C251.79 86.6325 251.52 87.6348 250.634 88.56C250.229 89.0226 250.904 89.7165 251.328 89.2539Z" fill="white"/>
<path d="M256.475 92.3958C257.111 91.3357 257.632 90.2177 258.036 89.0612C258.229 88.4637 257.304 88.2131 257.111 88.8106C256.745 89.9093 256.263 90.9309 255.646 91.9139C255.319 92.4343 256.147 92.9162 256.475 92.3958Z" fill="white"/>
<path d="M261.294 97.3109C262.065 96.2894 262.74 95.21 263.299 94.0535C263.569 93.4945 262.74 93.0126 262.47 93.5716C261.911 94.7281 261.237 95.8075 260.466 96.8291C260.099 97.3109 260.928 97.7928 261.294 97.3109Z" fill="white"/>
<path d="M264.32 103.074C265.765 101.841 266.999 100.395 267.982 98.7566C268.31 98.2169 267.481 97.735 267.153 98.2747C266.209 99.836 265.014 101.204 263.626 102.4C263.163 102.785 263.857 103.46 264.32 103.074Z" fill="white"/>
<path d="M266.189 110.534C268.598 108.799 270.584 106.621 272.049 104.038C272.357 103.498 271.528 103.016 271.22 103.556C269.832 105.985 267.962 108.066 265.707 109.705C265.206 110.052 265.688 110.9 266.189 110.534Z" fill="white"/>
<g opacity="0.7">
<g opacity="0.7">
<path opacity="0.7" d="M38.9563 77.2842C44.4111 85.1291 50.7718 92.338 57.8843 98.718C58.2313 99.0264 58.7517 98.5252 58.4047 98.1976C51.3308 91.8561 45.0279 84.7051 39.5923 76.8987C39.3225 76.5517 38.6864 76.8987 38.9563 77.2842Z" fill="white"/>
</g>
</g>
<g opacity="0.7">
<g opacity="0.7">
<path opacity="0.7" d="M237.566 85.9965C238.029 85.9965 238.029 85.264 237.566 85.264C237.104 85.2833 237.104 85.9965 237.566 85.9965Z" fill="white"/>
</g>
</g>
<path opacity="0.7" d="M45.3743 77.5348C45.3743 77.5348 6.05329 101.995 4.80042 140.699C4.80042 140.699 36.7969 170.845 81.3993 173.312C125.982 175.799 179.143 165.371 179.143 165.371C179.143 165.371 120.624 161.439 102.66 141.624C102.66 141.643 75.3084 122.638 45.3743 77.5348Z" fill="#FFEDE1"/>
<g opacity="0.7">
<g opacity="0.7">
<path opacity="0.7" d="M2.69997 121.964C8.67522 131.351 17.0598 138.868 26.2155 145.055C35.853 151.551 46.3386 156.832 57.1518 161.073C68.1579 165.371 79.6072 168.532 91.2686 170.498C102.853 172.445 114.611 173.235 126.349 172.792C132.17 172.58 137.991 172.04 143.754 171.231C149.402 170.421 155.146 169.361 160.292 166.778C161.545 166.142 162.74 165.429 163.878 164.6C164.244 164.33 163.897 163.713 163.511 163.983C158.827 167.337 153.238 168.898 147.629 169.901C141.865 170.922 136.025 171.539 130.204 171.905C118.601 172.599 106.939 172.117 95.432 170.44C83.9634 168.783 72.6489 165.968 61.7393 162.036C50.8875 158.143 40.4019 153.131 30.6102 147.04C21.1654 141.162 12.2604 134.049 5.64905 125.009C4.8395 123.891 4.0685 122.773 3.33605 121.597C3.08547 121.193 2.4494 121.559 2.69997 121.964Z" fill="white"/>
</g>
</g>
<g opacity="0.7">
<g opacity="0.7">
<path opacity="0.7" d="M7.1718 110.881C10.5064 120.267 17.5418 127.669 25.059 133.953C32.5377 140.217 40.7296 145.576 49.4226 149.989C66.8087 158.798 86.1415 163.752 105.629 164.388C111.103 164.561 116.577 164.407 122.032 163.867C124.73 163.617 127.429 163.27 130.127 162.827C133.192 162.325 136.295 161.824 139.206 160.687C139.63 160.514 139.456 159.82 139.013 159.993C136.391 161.015 133.616 161.516 130.859 161.979C128.45 162.383 126.021 162.73 123.593 162.981C118.87 163.482 114.109 163.733 109.368 163.713C99.6918 163.675 90.0158 162.557 80.571 160.417C61.7972 156.157 43.8907 147.85 28.7213 135.977C20.1053 129.25 11.6051 121.231 7.8657 110.688C7.7115 110.264 7.0176 110.437 7.1718 110.881Z" fill="white"/>
</g>
</g>
<g opacity="0.7">
<g opacity="0.7">
<path opacity="0.7" d="M12.1255 104.905C20.0668 116.894 30.803 126.821 43.0426 134.319C56.4773 142.549 71.6274 147.715 87.1631 150.221C96.2994 151.686 105.571 152.245 114.823 152.052C115.285 152.033 115.285 151.319 114.823 151.319C98.5161 151.686 82.0938 149.642 66.5967 144.438C52.6608 139.774 39.5731 132.488 28.5864 122.696C22.5726 117.338 17.2141 111.247 12.7616 104.52C12.4917 104.153 11.8557 104.52 12.1255 104.905Z" fill="white"/>
</g>
</g>
<g opacity="0.7">
<g opacity="0.7">
<path opacity="0.7" d="M21.9167 93.4559C28.7207 103.402 36.4115 112.924 45.8177 120.537C54.8576 127.862 65.5167 133.413 77.0624 135.321C84.3869 136.536 91.8464 136.401 99.2287 136.015C99.6913 135.996 99.6913 135.263 99.2287 135.283C92.7908 135.61 86.2952 135.765 79.8766 134.994C73.9013 134.261 68.0996 132.623 62.6062 130.155C51.9278 125.356 42.7529 117.819 34.9658 109.146C30.4362 104.096 26.3499 98.6794 22.5142 93.0897C22.2829 92.7042 21.6661 93.0704 21.9167 93.4559Z" fill="white"/>
</g>
</g>
<g opacity="0.7">
<g opacity="0.7">
<path opacity="0.7" d="M32.0944 83.4522C41.3464 95.1521 51.0417 107.257 64.5727 114.215C68.1386 116.046 71.9165 117.473 75.8293 118.359C76.2727 118.456 76.4847 117.762 76.0221 117.665C61.5273 114.369 50.1743 104.057 40.8067 93.0512C37.9925 89.7551 35.294 86.3434 32.6148 82.9318C32.3257 82.5655 31.8052 83.086 32.0944 83.4522Z" fill="white"/>
</g>
</g>
<g opacity="0.7">
<g opacity="0.7">
<path opacity="0.7" d="M14.4383 149.006C13.0891 139.62 15.5948 130.213 19.9317 121.925C24.1722 113.791 30.0896 106.235 36.9901 100.183C40.9029 96.7519 45.2976 93.88 50.1742 92.0488C50.5982 91.8946 50.4247 91.1815 49.9814 91.3549C41.1535 94.6895 34.041 101.224 28.1236 108.413C22.0905 115.738 17.0212 124.18 14.6696 133.452C13.3589 138.617 12.9734 143.956 13.7251 149.218C13.8022 149.662 14.5154 149.45 14.4383 149.006Z" fill="white"/>
</g>
</g>
<g opacity="0.7">
<g opacity="0.7">
<path opacity="0.7" d="M23.1121 154.866C23.6326 145.826 27.1984 137.172 31.9015 129.519C36.7396 121.655 42.9268 114.562 50.02 108.645C53.6437 105.618 57.5566 102.92 61.7392 100.742C62.144 100.53 61.7778 99.9131 61.373 100.125C53.4703 104.231 46.5313 110.148 40.5946 116.74C34.3495 123.679 29.0296 131.64 25.6564 140.371C23.8639 145.017 22.6688 149.893 22.3797 154.866C22.3797 155.348 23.0929 155.348 23.1121 154.866Z" fill="white"/>
</g>
</g>
<g opacity="0.7">
<g opacity="0.7">
<path opacity="0.7" d="M32.8075 164.234C34.6387 155.907 38.3973 148.043 42.8884 140.834C47.6686 133.182 53.4703 126.05 60.2744 120.094C63.7246 117.068 67.464 114.35 71.5503 112.21C71.9551 111.998 71.5888 111.362 71.1841 111.594C63.5897 115.564 57.0748 121.501 51.5043 127.939C45.529 134.839 40.4404 142.569 36.6433 150.857C34.7158 155.078 33.1159 159.473 32.1136 164.022C32.0173 164.484 32.7112 164.677 32.8075 164.234Z" fill="white"/>
</g>
</g>
<g opacity="0.7">
<g opacity="0.7">
<path opacity="0.7" d="M50.9835 169.92C52.9881 161.285 55.9179 152.746 60.7366 145.248C64.3218 139.677 68.9092 134.936 74.0364 130.753C76.7927 128.498 79.684 126.378 82.5367 124.238C82.9029 123.968 82.5367 123.332 82.1705 123.621C77.024 127.457 71.8005 131.273 67.2901 135.88C62.1437 141.142 58.1538 147.349 55.2433 154.114C53.0845 159.145 51.5039 164.407 50.2703 169.727C50.1739 170.17 50.8678 170.363 50.9835 169.92Z" fill="white"/>
</g>
</g>
<g opacity="0.7">
<g opacity="0.7">
<path opacity="0.7" d="M67.1168 175.394C68.6781 166.951 71.4922 158.702 76.1953 151.474C79.3371 146.636 83.2692 142.453 87.6254 138.714C89.3023 137.287 91.0371 135.938 92.6755 134.454C93.0224 134.145 92.502 133.625 92.155 133.933C88.7819 136.96 85.1775 139.658 82.0356 142.935C77.294 147.889 73.5354 153.671 70.8561 159.993C68.7937 164.87 67.3674 169.997 66.4036 175.201C66.3458 175.664 67.0397 175.857 67.1168 175.394Z" fill="white"/>
</g>
</g>
<g opacity="0.7">
<g opacity="0.7">
<path opacity="0.7" d="M86.0066 177.514C87.0089 166.817 89.958 156.254 96.6464 147.657C98.1884 145.691 99.8846 143.841 101.677 142.106C102.005 141.778 101.504 141.277 101.157 141.586C97.8607 144.785 94.9309 148.351 92.6179 152.322C89.958 156.851 88.1269 161.844 86.9511 166.951C86.1415 170.421 85.6404 173.948 85.2934 177.495C85.2549 177.977 85.9681 177.977 86.0066 177.514Z" fill="white"/>
</g>
</g>
<g opacity="0.7">
<g opacity="0.7">
<path opacity="0.7" d="M105.667 174.642C105.339 165.178 109.04 156.196 114.842 148.852C115.131 148.486 114.611 147.985 114.321 148.332C110.254 153.478 107.151 159.357 105.744 165.814C105.108 168.706 104.838 171.655 104.934 174.623C104.954 175.105 105.667 175.105 105.667 174.642Z" fill="white"/>
</g>
</g>
<g opacity="0.7">
<g opacity="0.7">
<path opacity="0.7" d="M118.118 172.753C118.022 168.783 118.292 164.638 119.969 160.976C120.798 159.164 122.108 157.661 123.014 155.907C123.226 155.502 122.609 155.136 122.397 155.541C121.434 157.391 120.046 158.972 119.198 160.918C117.579 164.619 117.29 168.763 117.386 172.753C117.405 173.216 118.118 173.216 118.118 172.753Z" fill="white"/>
</g>
</g>
<g opacity="0.7">
<g opacity="0.7">
<path opacity="0.7" d="M126.157 172.329C126.215 170.016 126.793 167.684 127.333 165.448C127.853 163.231 128.393 160.996 129.222 158.875C129.395 158.451 128.701 158.258 128.528 158.683C127.66 160.88 127.101 163.212 126.581 165.506C126.06 167.722 125.501 170.035 125.444 172.329C125.424 172.792 126.138 172.792 126.157 172.329Z" fill="white"/>
</g>
</g>
<g opacity="0.7">
<g opacity="0.7">
<path opacity="0.7" d="M133.23 171.886C133.288 169.573 133.866 167.241 134.406 165.005C134.926 162.788 135.466 160.552 136.295 158.432C136.468 158.008 135.775 157.815 135.601 158.239C134.734 160.437 134.175 162.769 133.654 165.063C133.134 167.279 132.575 169.592 132.517 171.886C132.479 172.348 133.211 172.348 133.23 171.886Z" fill="white"/>
</g>
</g>
<g opacity="0.7">
<g opacity="0.7">
<path opacity="0.7" d="M140.324 171.443C140.381 169.361 140.844 167.298 141.307 165.275C141.769 163.308 142.27 161.323 143.003 159.434C143.176 159.01 142.482 158.817 142.309 159.241C141.538 161.208 141.018 163.289 140.555 165.352C140.112 167.337 139.649 169.399 139.61 171.443C139.591 171.905 140.304 171.905 140.324 171.443Z" fill="white"/>
</g>
</g>
<g opacity="0.7">
<g opacity="0.7">
<path opacity="0.7" d="M145.914 170.729C145.991 167.221 146.684 163.443 147.957 160.167C148.13 159.723 147.417 159.55 147.263 159.974C145.971 163.308 145.277 167.144 145.2 170.729C145.181 171.192 145.914 171.192 145.914 170.729Z" fill="white"/>
</g>
</g>
<path d="M45.5159 77.4637C45.5159 77.4637 93.1563 153.121 136.772 163.968C180.388 174.815 224.889 164.972 250.308 137.912C276.09 109.087 278 98.8201 278 98.8201C278 98.8201 250.308 153.972 183.488 161.498C111.084 168.002 68.8162 109.309 45.5159 77.4637Z" fill="#7880BC"/>
<path d="M179.696 143.945C179.696 143.945 176.904 147.909 175.885 150.63C175.885 150.63 175.5 145.927 179.696 143.945Z" fill="#F8A263"/>
<path d="M3.87582 150.163C2.87352 150.163 2.04469 149.373 2.02542 148.351C1.73629 138.444 3.91437 128.44 8.52109 118.59C12.1833 110.765 17.349 103.016 23.9218 95.5761C35.0242 82.9125 46.1459 75.6072 46.6278 75.2988C47.4951 74.7399 48.6324 74.9904 49.1913 75.8385C49.7503 76.7059 49.4997 77.8431 48.6516 78.4021C48.536 78.4792 37.4143 85.7844 26.6203 98.0626C16.7515 109.319 5.10942 127.129 5.72622 148.235C5.76477 149.257 4.95522 150.124 3.91437 150.144C3.91437 150.144 3.89509 150.163 3.87582 150.163Z" fill="#094051"/>
<path d="M170.556 135.35C170.556 135.35 169.903 135.913 169.713 136.538C169.522 137.164 169.985 137.414 170.366 137.164C170.692 136.955 170.883 136.705 170.992 136.267C171.128 135.829 171.264 135.516 170.556 135.35Z" fill="white"/>
<path d="M211.939 130.312L211.688 116.266C211.688 116.266 216.778 115.625 220.731 122.288C225.3 129.982 217.897 135.402 215.776 137.752C213.655 140.103 214.388 140.667 214.966 142.512" fill="#221F1F"/>
<path d="M209.364 116.639C209.364 116.639 205.186 119.014 204.247 121.525C203.307 124.017 200.72 123.355 200.337 124.232C199.953 125.108 200.912 125.867 200.643 126.49C200.49 126.86 200.26 127.055 200.107 127.152C199.992 127.21 199.953 127.366 200.011 127.483L200.298 128.125L199.8 128.359C199.666 128.417 199.589 128.573 199.608 128.729C199.647 128.924 199.742 129.196 199.992 129.352C200.432 129.644 198.228 130.968 198.937 132.194C199.647 133.421 204.093 133.869 204.093 133.869L208.157 134.394L210.974 131.357C210.974 131.357 211.434 132.253 212.488 131.863C213.523 131.474 214.501 130.072 214.884 129.371C215.171 128.846 215.056 127.853 214.367 127.639C213.677 127.425 211.856 128.437 211.856 128.437L212.45 124.368L213.006 118.975L211.032 116.249L209.364 116.639Z" fill="#FAD8D3"/>
<path d="M207.391 117.942C207.391 117.942 209.166 116.568 209.923 117.543C210.681 118.519 207.112 123.576 212.515 128.474C212.515 128.474 214.13 127.598 214.848 128.594C215.565 129.589 213.95 119.714 213.95 119.714L211.518 116.249C211.518 116.269 207.67 116.787 207.391 117.942Z" fill="#201D1E"/>
<path d="M202.698 123.93C202.447 124.084 202.197 124.2 201.908 124.257C201.638 124.315 201.368 124.334 201.079 124.354C200.867 124.392 200.693 124.469 200.655 124.643C200.597 124.855 200.597 125.086 200.655 125.298C200.79 125.799 200.963 126.301 201.175 126.802C200.809 126.397 200.52 125.934 200.327 125.414C200.212 125.125 200.173 124.816 200.25 124.508C200.366 124.161 200.674 123.91 201.04 123.853C201.407 123.795 201.619 123.833 201.869 123.775C202.1 123.737 202.351 123.66 202.563 123.563C203.026 123.351 203.45 123.043 203.816 122.677C203.604 123.197 203.199 123.641 202.698 123.93Z" fill="#D35E3E"/>
<path d="M205.754 124.699C205.839 124.358 205.673 124.023 205.384 123.951C205.095 123.879 204.791 124.097 204.706 124.437C204.621 124.778 204.787 125.113 205.076 125.185C205.365 125.257 205.669 125.04 205.754 124.699Z" fill="#201D1E"/>
<path d="M205.646 122.935C206.821 123.208 207.806 124.101 208.346 125.322C207.965 123.154 206.154 122.571 205.678 122.461C205.615 122.443 205.551 122.48 205.519 122.553L205.503 122.589C205.44 122.735 205.519 122.899 205.646 122.935Z" fill="#201D1E"/>
<path d="M213.048 129.173L213.125 130.04L213.164 130.464C213.164 130.541 213.183 130.599 213.183 130.695C213.164 130.792 213.106 130.869 213.048 130.927C212.817 131.119 212.585 131.273 212.316 131.408C212.181 131.466 212.046 131.524 211.911 131.563C211.776 131.601 211.602 131.601 211.487 131.524C211.622 131.582 211.776 131.563 211.911 131.524C212.046 131.486 212.181 131.408 212.296 131.331C212.547 131.177 212.759 130.984 212.971 130.792C213.009 130.753 213.029 130.695 213.048 130.657C213.048 130.618 213.029 130.522 213.029 130.464L212.952 130.04L212.797 129.192L213.048 129.173Z" fill="#D35E3E"/>
<path d="M214.398 129.385C214.301 129.23 214.205 129.095 214.089 128.999C213.954 128.903 213.819 128.864 213.685 128.883C213.55 128.903 213.415 128.98 213.28 129.076C213.145 129.173 213.01 129.269 212.875 129.365C212.74 129.462 212.605 129.558 212.47 129.674C212.335 129.77 212.22 129.866 212.143 129.982C211.988 130.233 211.95 130.599 212.181 130.869C212.027 130.792 211.93 130.618 211.873 130.445C211.834 130.271 211.853 130.059 211.93 129.886C211.969 129.789 212.027 129.712 212.085 129.654C212.162 129.577 212.22 129.539 212.277 129.481C212.412 129.365 212.547 129.269 212.682 129.153C212.817 129.057 212.971 128.96 213.106 128.864C213.26 128.787 213.434 128.671 213.646 128.671C213.858 128.671 214.051 128.768 214.166 128.903C214.282 129.038 214.359 129.211 214.398 129.385Z" fill="#D35E3E"/>
<path d="M220.761 150.916C220.761 150.916 212.502 151.661 213.629 146.523C214.756 141.385 214.562 141.538 214.562 141.538L209.84 138.692L205.098 138.979L200.706 142.13C200.706 142.13 200.939 141.958 202.863 141.232C204.787 140.507 208.071 140.182 208.849 141.863C209.626 143.544 209.606 145.091 209.296 146.409C208.985 147.727 207.43 150.095 207.43 150.095C207.43 150.095 204.573 153.762 204.126 155.348C203.699 156.914 205.195 157.315 205.195 157.315C205.195 157.315 215.164 154.335 220.761 150.916Z" fill="#201D1E"/>
<path d="M160.205 118.864C160.205 118.864 159.466 118.11 159.392 121.059C159.318 124.007 158.801 139.55 158.801 139.55C158.801 139.55 158.653 140.83 159.401 141.859C160.149 142.887 170.158 143.71 170.158 143.71C170.158 143.71 170.472 143.961 170.573 143.047C170.675 142.133 171.672 123.367 171.672 123.367C171.672 123.367 171.774 122.133 170.989 121.859C170.213 121.584 160.205 118.864 160.205 118.864Z" fill="#161F3D"/>
<path d="M165.154 133.904C165.695 133.904 166.133 132.82 166.133 131.481C166.133 130.143 165.695 129.059 165.154 129.059C164.614 129.059 164.176 130.143 164.176 131.481C164.176 132.82 164.614 133.904 165.154 133.904Z" fill="#A6A8AB"/>
<path d="M169.733 124.16C170.03 124.16 170.271 123.919 170.271 123.622C170.271 123.324 170.03 123.083 169.733 123.083C169.435 123.083 169.194 123.324 169.194 123.622C169.194 123.919 169.435 124.16 169.733 124.16Z" fill="white"/>
<path d="M171.58 125.287C171.58 125.287 170.326 125.391 170.271 126.671C170.215 127.951 169.374 138.691 169.374 138.691C169.374 138.691 170.777 139.87 170.814 139.321C170.841 138.75 171.58 125.287 171.58 125.287Z" fill="#A6A8AB"/>
<path opacity="0.77" d="M149.151 141.483L145.354 141.599V141.618C145.411 142.08 146.818 142.408 148.534 142.35C150.269 142.293 151.676 141.868 151.656 141.387L149.151 141.483Z" fill="#7880BC"/>
<path opacity="0.77" d="M149.151 141.483L151.657 141.406C151.637 140.924 150.211 140.596 148.476 140.635C146.742 140.693 145.334 141.117 145.354 141.599V141.618V141.599L149.151 141.483Z" fill="#7880BC"/>
<path d="M144.872 140.885C145.566 139.902 146.934 139.633 147.936 140.269C147.994 140.192 148.11 140.057 148.11 140.057C146.953 139.247 145.373 139.517 144.544 140.673C143.734 141.83 144.004 143.41 145.161 144.239L145.315 144.008C144.39 143.256 144.178 141.888 144.872 140.885Z" fill="#FFD26A"/>
<path d="M147.185 141.367L147.435 141.02L147.917 140.326C147.898 140.326 147.917 140.307 147.937 140.269C147.474 139.979 146.954 139.883 146.472 139.941L147.031 141.579L147.185 141.367Z" fill="#FFF1D4"/>
<path d="M146.78 141.946L146.934 141.733L146.336 139.96C145.797 140.057 145.315 140.346 144.949 140.789L146.722 142.042L146.78 141.946Z" fill="#FFF1D4"/>
<path d="M147.03 141.618L147.049 141.599L146.49 139.96C146.433 139.96 146.394 139.979 146.336 139.979L146.934 141.753L147.03 141.618Z" fill="#FFD26A"/>
<path d="M146.703 142.042L144.929 140.789C144.91 140.808 144.891 140.847 144.871 140.885C144.871 140.885 144.871 140.905 144.852 140.905L146.625 142.158L146.703 142.042Z" fill="#FFD26A"/>
<path d="M146.24 142.717L144.525 142.755C144.64 143.237 144.91 143.661 145.334 143.989L146.24 142.717Z" fill="#FFF1D4"/>
<path d="M146.433 142.427L146.625 142.158L144.852 140.905C144.505 141.425 144.39 142.023 144.486 142.601L146.336 142.562L146.433 142.427Z" fill="#FFF1D4"/>
<path d="M146.337 142.562L144.486 142.601C144.486 142.659 144.505 142.716 144.525 142.755L146.24 142.716L146.337 142.562Z" fill="#FFD26A"/>
<path opacity="0.45" d="M148.534 142.37C146.818 142.427 145.431 142.1 145.354 141.637L145.932 160.739C145.932 160.739 148.804 161.876 152.235 160.546L151.656 141.425C151.656 141.888 150.269 142.312 148.534 142.37Z" fill="#7880BC"/>
<path d="M151.059 147.67L151.367 157.867C149.305 159.197 146.587 158.021 146.587 158.021L146.182 145.01C146.163 144.509 146.549 144.085 147.05 144.066C147.435 144.046 147.936 144.124 148.457 144.413C149.729 145.126 150.905 144.181 150.905 144.181C150.905 144.181 151.02 147.632 151.059 147.67Z" fill="white"/>
<path fill-rule="evenodd" clip-rule="evenodd" d="M153.27 132.458C153.443 132.657 153.421 132.959 153.222 133.132L150.794 135.233L150.225 148.212C150.214 148.475 149.991 148.679 149.727 148.668C149.464 148.656 149.259 148.433 149.271 148.17L149.858 134.78L152.597 132.41C152.796 132.237 153.098 132.259 153.27 132.458Z" fill="#221F1F"/>
<path d="M146.587 142.235L147.686 140.693C147.686 140.693 148.341 140.654 148.476 140.654L146.587 142.235Z" fill="#221F1F"/>
<path d="M180.646 160.244L170.739 141.99C170.777 141.913 167.115 142.511 166.093 143.185C166.286 143.34 166.402 143.417 166.402 143.417L176.463 172.792L177.774 172.83C183.73 176.955 180.646 160.244 180.646 160.244Z" fill="#FBD9D4"/>
<path d="M170.701 142.395C171.857 140.718 171.048 137.345 171.086 136.073C171.125 134.801 171.356 133.625 171.587 133.239C171.799 132.854 172.127 130.869 170.431 132.546C168.869 134.088 169.178 135.726 169.178 135.726C163.839 134.338 162.663 131.042 162.663 131.042C160.6 131.563 161.757 133.105 161.506 134.396C161.256 135.687 162.123 135.263 161.969 136.574C161.815 137.885 162.721 138.02 162.605 138.656C162.489 139.311 162.971 140.371 162.971 140.371C163.241 141.219 166.865 143.879 166.865 143.879C166.865 143.879 169.64 145.132 170.701 142.395Z" fill="#FBD9D4"/>
<path d="M204.065 140.66C204.065 140.66 207.94 138.714 209.077 143.571C210.214 148.428 202.813 151.743 203.044 155.367C203.198 157.815 198.938 158.875 198.688 160.282C198.437 161.689 195.372 167.838 193.329 169.149C191.286 170.46 190.496 170.305 188.877 171.018C185.986 172.31 185.484 171.577 184.309 171.963C183.133 172.348 180.781 175.49 178.198 173.659C178.198 173.659 176.02 174.18 176.097 172.021C176.097 172.021 176.984 173.042 177.832 171.597C178.68 170.151 181.321 159.261 180.434 157.468C180.434 157.468 181.417 157.063 181.861 157.468C181.861 157.468 184.906 149.758 190.033 145.325C195.16 140.892 198.803 140.448 204.065 140.66Z" fill="#F8A263"/>
<path d="M182.169 159.241C182.169 159.241 185.33 156.138 187.393 153.71C189.436 151.3 190.496 150.124 190.669 149.141C190.843 148.178 191.151 147.021 192.828 146.751C194.505 146.481 200.461 141.489 200.461 141.489C200.461 141.489 194.023 144.496 191.672 145.306C189.32 146.115 188.877 147.137 188.511 148.332C188.144 149.527 179.625 153.594 176.946 153.343L180.222 159.415L182.169 159.357V159.241Z" fill="#221F1F"/>
<path d="M190.881 148.12C190.881 148.12 188.741 151.743 189.821 155.483L190.881 148.12Z" fill="#221F1F"/>
<path d="M181.841 158.779C181.841 158.779 183.133 160.649 181.456 166.123L181.841 158.779Z" fill="#221F1F"/>
<path d="M184.212 171.809C184.212 171.809 185.599 170.19 186.91 169.978C188.221 169.766 187.623 171.539 186.274 171.655C184.963 171.789 184.828 171.597 184.212 171.809Z" fill="#221F1F"/>
<path d="M180.55 157.642C180.531 157.526 178.353 168.571 175.693 170.691C175.693 170.691 175.905 172.252 176.599 172.368C177.293 172.483 177.505 172.811 178.777 169.187C180.049 165.564 180.801 158.894 180.55 157.642Z" fill="#221F1F"/>
<path fill-rule="evenodd" clip-rule="evenodd" d="M162.425 137.128C162.348 136.878 162.084 136.736 161.832 136.81C161.58 136.885 161.435 137.151 161.51 137.404L161.968 137.268C161.51 137.404 161.511 137.404 161.511 137.404L161.511 137.405L161.511 137.406L161.512 137.409L161.514 137.415C161.516 137.42 161.518 137.427 161.52 137.434C161.525 137.449 161.532 137.468 161.541 137.491C161.558 137.539 161.585 137.602 161.621 137.68C161.695 137.836 161.81 138.047 161.985 138.291C162.336 138.78 162.921 139.391 163.869 139.937C164.098 140.069 164.39 139.99 164.522 139.761C164.653 139.533 164.575 139.241 164.346 139.109C163.521 138.634 163.036 138.118 162.761 137.734C162.623 137.541 162.536 137.381 162.485 137.273C162.46 137.219 162.443 137.179 162.434 137.154C162.43 137.142 162.427 137.134 162.425 137.13C162.425 137.129 162.425 137.129 162.425 137.128Z" fill="#221F1F"/>
<path fill-rule="evenodd" clip-rule="evenodd" d="M161.332 134.613C161.584 134.538 161.85 134.682 161.925 134.935L161.468 135.071C161.925 134.935 161.925 134.934 161.925 134.934L161.925 134.934L161.925 134.933L161.924 134.932L161.924 134.93C161.924 134.93 161.924 134.931 161.925 134.933C161.926 134.937 161.929 134.945 161.934 134.957C161.943 134.981 161.959 135.022 161.984 135.076C162.035 135.183 162.122 135.344 162.26 135.537C162.536 135.92 163.021 136.437 163.845 136.912C164.074 137.044 164.152 137.336 164.021 137.564C163.889 137.793 163.597 137.871 163.369 137.74C162.42 137.193 161.835 136.582 161.484 136.094C161.31 135.85 161.194 135.639 161.121 135.483C161.084 135.405 161.058 135.341 161.04 135.294C161.031 135.271 161.024 135.251 161.019 135.237C161.017 135.229 161.015 135.223 161.013 135.218L161.011 135.211L161.01 135.209L161.01 135.208L161.01 135.207C161.01 135.207 161.01 135.206 161.468 135.071L161.01 135.206C160.935 134.954 161.079 134.688 161.332 134.613Z" fill="#221F1F"/>
<path fill-rule="evenodd" clip-rule="evenodd" d="M161.866 132.753C161.79 132.502 161.525 132.36 161.274 132.435C161.021 132.51 160.877 132.776 160.952 133.028L161.41 132.893C160.952 133.028 160.952 133.029 160.952 133.029L160.952 133.029L160.952 133.031L160.953 133.033L160.955 133.04C160.957 133.045 160.959 133.051 160.961 133.059C160.966 133.073 160.973 133.093 160.982 133.116C161 133.163 161.026 133.227 161.063 133.305C161.136 133.461 161.252 133.672 161.427 133.916C161.777 134.404 162.362 135.015 163.311 135.561C163.539 135.693 163.831 135.615 163.963 135.386C164.095 135.158 164.016 134.866 163.787 134.734C162.963 134.259 162.478 133.742 162.202 133.358C162.064 133.166 161.977 133.005 161.926 132.898C161.901 132.844 161.885 132.803 161.876 132.779C161.871 132.767 161.868 132.759 161.867 132.755C161.867 132.754 161.866 132.753 161.866 132.753Z" fill="#221F1F"/>
<path fill-rule="evenodd" clip-rule="evenodd" d="M170.603 135.292C170.725 135.526 170.635 135.814 170.402 135.937C169.694 136.308 168.988 136.309 168.477 136.226C168.22 136.185 168.006 136.121 167.854 136.067C167.778 136.04 167.717 136.015 167.673 135.996C167.651 135.986 167.633 135.978 167.62 135.972L167.604 135.965L167.599 135.962L167.597 135.961L167.596 135.961L167.596 135.96C167.596 135.96 167.595 135.96 167.808 135.535L167.595 135.96C167.359 135.842 167.264 135.556 167.382 135.32C167.499 135.084 167.785 134.989 168.02 135.105L168.021 135.105L168.025 135.107C168.03 135.11 168.039 135.114 168.052 135.119C168.078 135.131 168.12 135.148 168.174 135.167C168.283 135.206 168.441 135.253 168.63 135.284C169.01 135.345 169.489 135.337 169.958 135.091C170.191 134.969 170.48 135.059 170.603 135.292Z" fill="#221F1F"/>
<path fill-rule="evenodd" clip-rule="evenodd" d="M162.602 130.926C162.847 130.829 163.125 130.949 163.222 131.194C163.362 131.55 163.588 131.89 163.789 132.15C163.888 132.277 163.977 132.381 164.041 132.452C164.073 132.487 164.098 132.514 164.115 132.532C164.123 132.541 164.129 132.547 164.133 132.551L164.137 132.555C164.137 132.555 164.137 132.555 164.137 132.555M164.137 132.555C164.323 132.741 164.323 133.044 164.137 133.23C163.95 133.417 163.648 133.417 163.462 133.23L163.799 132.893C163.462 133.23 163.462 133.23 163.462 133.23L163.461 133.23L163.46 133.229L163.458 133.226L163.45 133.218C163.443 133.212 163.434 133.202 163.423 133.19C163.401 133.167 163.369 133.133 163.331 133.091C163.254 133.005 163.149 132.884 163.034 132.734C162.806 132.439 162.521 132.018 162.334 131.545C162.237 131.3 162.357 131.023 162.602 130.926" fill="#221F1F"/>
<path d="M221.914 127.303C221.953 127.862 221.953 128.382 221.914 128.922C221.876 129.462 221.799 129.982 221.702 130.502C221.49 131.543 221.143 132.565 220.642 133.529C220.392 134.011 220.103 134.454 219.794 134.878C219.467 135.302 219.139 135.707 218.83 136.112C218.503 136.516 218.194 136.94 217.886 137.364C217.578 137.788 217.288 138.212 217.038 138.656C216.98 138.771 216.922 138.887 216.884 138.983C216.864 139.041 216.845 139.099 216.826 139.138C216.826 139.157 216.826 139.176 216.826 139.196C216.826 139.215 216.826 139.196 216.807 139.176C216.768 139.157 216.826 139.176 216.864 139.157C216.922 139.138 216.961 139.118 217.019 139.099C217.134 139.061 217.25 138.983 217.346 138.926C217.79 138.675 218.214 138.367 218.638 138.058C219.467 137.422 220.295 136.786 221.124 136.131C221.529 135.803 221.953 135.475 222.377 135.167C222.801 134.859 223.225 134.55 223.688 134.28C224.15 134.03 224.652 133.837 225.172 133.76C225.692 133.683 226.213 133.702 226.733 133.741C226.213 133.721 225.692 133.721 225.172 133.799C224.652 133.876 224.17 134.088 223.726 134.357C223.283 134.627 222.859 134.936 222.454 135.263C222.049 135.591 221.645 135.919 221.24 136.246C220.43 136.921 219.621 137.576 218.811 138.232C218.406 138.559 217.982 138.868 217.52 139.157C217.404 139.234 217.288 139.292 217.154 139.35C217.096 139.388 217.019 139.408 216.941 139.427C216.903 139.427 216.864 139.446 216.807 139.446C216.749 139.446 216.691 139.446 216.614 139.388C216.556 139.33 216.517 139.253 216.517 139.196C216.517 139.138 216.517 139.099 216.517 139.061C216.537 138.983 216.556 138.906 216.575 138.849C216.633 138.714 216.691 138.598 216.749 138.463C216.999 137.981 217.288 137.557 217.597 137.114C217.886 136.67 218.194 136.246 218.503 135.822L219.428 134.57C219.736 134.165 219.987 133.721 220.218 133.259C220.681 132.353 221.009 131.37 221.182 130.368C221.278 129.866 221.336 129.346 221.375 128.845C221.394 128.344 221.413 127.804 221.355 127.322L221.914 127.303Z" fill="#201D1E"/>
<path d="M217.167 136.606C217.167 136.606 215.551 138.327 215.196 140.125C214.842 141.903 218.409 140.813 217.148 142.955C215.906 145.078 212.161 145.881 214.073 148.559C215.965 151.217 212.023 153.531 211.373 149.075C210.722 144.619 212.22 141.808 212.595 140.737C212.969 139.666 215.177 136.491 215.393 136.338C215.61 136.185 217.167 136.606 217.167 136.606Z" fill="#201D1E"/>
<path d="M200.706 158.747L203.253 158.023L203.571 154.927C203.571 154.908 202.079 158.042 200.706 158.747Z" fill="#201D1E"/>
<path d="M201.183 133.293C201.183 133.293 205.13 134.241 206.043 133.945C206.957 133.649 208.648 132.879 208.823 132.484C208.823 132.484 206.238 135.563 203.477 137.259C203.477 137.279 202.039 133.866 201.183 133.293Z" fill="#FAD8D3"/>
<path d="M200.346 128.305C200.481 128.421 200.635 128.517 200.77 128.575C200.905 128.652 201.059 128.71 201.213 128.748C201.368 128.806 201.522 128.845 201.676 128.903C201.753 128.922 201.83 128.96 201.927 128.98C202.004 128.999 202.1 129.038 202.177 129.076C202.1 129.115 202.004 129.134 201.907 129.172C201.811 129.192 201.734 129.192 201.638 129.211C201.445 129.211 201.271 129.192 201.079 129.134C200.905 129.076 200.732 128.98 200.597 128.826C200.442 128.691 200.327 128.498 200.346 128.305Z" fill="#201D1E"/>
<path d="M230.886 92.3823C230.886 98.3919 226.295 99.8942 224 99.8942C229.509 99.8942 230.886 104.902 230.886 107.406C230.886 101.397 235.477 99.8942 237.772 99.8942C232.263 98.8927 230.886 94.469 230.886 92.3823Z" fill="#3F99DD"/>
<path d="M54 95C54 98.6 51.3333 99.5 50 99.5C53.2 99.5 54 102.5 54 104C54 100.4 56.6667 99.5 58 99.5C54.8 98.9 54 96.25 54 95Z" fill="#3F99DD"/>
</svg>
