<svg width="57" height="48" viewBox="0 0 57 48" fill="none" xmlns="http://www.w3.org/2000/svg">
<path d="M46.6978 33.5918C46.4625 30.1975 51.5435 28.0604 54.1134 27.4162C57.7465 27.2666 56.8482 32.0429 54.0935 34.4299C52.0885 36.1671 46.9919 37.8347 46.6978 33.5918Z" fill="#DAFEEF"/>
<path d="M51.6052 14.0627C31.7393 -6.73728 13.7167 -0.701245 8.08458 8.25419C-7.22316 32.5946 6.03656 35.0839 8.08458 36.1903C10.1326 37.2967 25.4928 37.8499 41.621 30.1052C54.5236 23.9095 53.6532 16.8286 51.6052 14.0627Z" fill="#DAFEEF"/>
<path fill-rule="evenodd" clip-rule="evenodd" d="M25.9095 9.11287C26.3102 8.96238 26.7518 8.96238 27.1525 9.11287L41.3119 14.431C42.0028 14.6905 42.4604 15.3519 42.4604 16.0909V28.5C42.4604 34.6095 38.4219 39.4914 34.7762 42.6863C32.9162 44.3164 31.0646 45.5905 29.6815 46.4563C28.9881 46.8904 28.4077 47.2247 27.9966 47.4527C27.791 47.5667 27.6273 47.6543 27.5127 47.7145C27.4554 47.7447 27.4103 47.768 27.3784 47.7844L27.3403 47.8038L27.3288 47.8096L27.325 47.8115C27.3245 47.8118 27.3225 47.8128 26.531 46.2272C25.7394 47.8128 25.7389 47.8125 25.7384 47.8122L25.7331 47.8096L25.7217 47.8038L25.6836 47.7844C25.6516 47.768 25.6066 47.7447 25.5492 47.7145C25.4346 47.6543 25.271 47.5667 25.0654 47.4527C24.6543 47.2247 24.0739 46.8904 23.3805 46.4563C21.9974 45.5905 20.1457 44.3164 18.2857 42.6863C14.6401 39.4914 10.6016 34.6095 10.6016 28.5V16.0909C10.6016 15.3519 11.0592 14.6905 11.75 14.431L25.9095 9.11287ZM26.531 46.2272L25.7384 47.8122C26.2366 48.0617 26.8242 48.0623 27.3225 47.8128L26.531 46.2272ZM26.531 44.2112C26.8702 44.0186 27.3039 43.7637 27.8053 43.4498C29.0771 42.6537 30.7653 41.4903 32.4452 40.0181C35.8793 37.0085 38.9205 33.0267 38.9205 28.5V17.3194L26.531 12.666L14.1414 17.3194V28.5C14.1414 33.0267 17.1826 37.0085 20.6168 40.0181C22.2966 41.4903 23.9849 42.6537 25.2566 43.4498C25.7581 43.7637 26.1918 44.0186 26.531 44.2112Z" fill="#22C34F"/>
<circle cx="26.0602" cy="27.8376" r="7.79703" fill="#22C34F"/>
<path d="M21.6167 27.2373C21.452 27.4156 21.3696 27.6322 21.3696 27.8872C21.3696 28.1422 21.452 28.3589 21.6167 28.5372L24.1023 31.1639C24.267 31.3422 24.4713 31.4314 24.7151 31.4314C24.9523 31.4314 25.1532 31.3422 25.318 31.1639L30.4325 25.7394C30.6038 25.561 30.6895 25.3453 30.6895 25.0921C30.6895 24.8388 30.6038 24.6249 30.4325 24.4501C30.2612 24.2718 30.0578 24.1826 29.8222 24.1826C29.5867 24.1826 29.3832 24.2718 29.2119 24.4501L24.7151 29.2273L22.8373 27.2373C22.666 27.0589 22.4625 26.9698 22.227 26.9698C21.9914 26.9698 21.788 27.0589 21.6167 27.2373Z" fill="white"/>
</svg>
