<svg width="24" height="24" viewBox="0 0 24 24" fill="none" xmlns="http://www.w3.org/2000/svg">
<path d="M18.5 11.5C18.9 7.5 15 5.16667 13 4.5H16L19 6L21 10.5L20.5 15.5L16.5 19.5H13C14.6667 18.5 18.1 15.5 18.5 11.5Z" fill="#DEDFE5"/>
<path d="M5.39286 11.3385C5.73214 8.7847 7.83571 3.74368 13.5357 4.01016C19.2357 4.27665 21 8.5 21 11.3385C21 14.1771 19.5071 19.7335 13.5357 20H3L4.5 16.5" stroke="#B3B7C6" stroke-width="1.5" stroke-linecap="round" stroke-linejoin="round"/>
<circle cx="10" cy="12" r="1" fill="#B3B7C6"/>
<circle cx="13" cy="12" r="1" fill="#B3B7C6"/>
<circle cx="16" cy="12" r="1" fill="#B3B7C6"/>
</svg>
