<svg width="24" height="24" viewBox="0 0 24 24" fill="none" xmlns="http://www.w3.org/2000/svg">
<path d="M13.5 5C13.5 4.36324 13.8379 3.86164 14.1264 3.49519C14.362 3.19597 14.7406 3 15.1214 3H15.4808C16.1302 3 16.5175 3.72374 16.1573 4.26406C16.0554 4.41684 16.0083 4.5996 16.0235 4.78258L16.4069 9.38221C16.4678 10.1133 16.1924 10.9023 15.4892 10.6934C15.2872 10.6335 15.0723 10.5441 14.8589 10.4375C13.9097 9.9637 13.5 8.90414 13.5 7.84328V5Z" fill="#DEDFE5"/>
<path d="M10.0385 16.3724C10.4903 12.8009 15.0886 12.3074 17.0519 12.7237L12.1482 15.6313L12.701 19.2291L15.9224 21.6526C13.4421 21.3388 9.47376 20.8368 10.0385 16.3724Z" fill="#DEDFE5"/>
<path d="M18 3H5.72727C5.00396 3 4.31026 3.26271 3.7988 3.73033C3.28734 4.19795 3 4.83219 3 5.49351L3 17.7532C3 18.0839 3.14367 18.401 3.3994 18.6348C3.65513 18.8686 4.00198 19 4.36364 19C4.36364 19 7.886 19 8.39545 19" stroke="#B3B7C6" stroke-width="1.5" stroke-linecap="round" stroke-linejoin="round"/>
<path d="M19.9594 17.6274C19.8601 18.4123 19.5303 19.1501 19.0117 19.7475C18.4931 20.345 17.809 20.7752 17.0459 20.9838C16.2827 21.1924 15.4749 21.1701 14.7245 20.9196C13.9741 20.6691 13.3148 20.2017 12.83 19.5765C12.3452 18.9513 12.0567 18.1964 12.001 17.4072C11.9452 16.6181 12.1248 15.8301 12.5168 15.143C12.9089 14.4559 13.496 13.9004 14.2037 13.5469C14.9115 13.1934 15.7082 13.0577 16.493 13.157" stroke="#B3B7C6" stroke-width="1.5" stroke-linecap="round" stroke-linejoin="round"/>
<path d="M20.7856 12.8601L17.0218 17.1202C16.9633 17.1601 16.897 17.1884 16.8268 17.2033C16.7567 17.2182 16.684 17.2195 16.613 17.2071C16.542 17.1947 16.4741 17.1689 16.4131 17.1311C16.3522 17.0932 16.2994 17.0442 16.2578 16.9867L15 16" stroke="#B3B7C6" stroke-width="1.5" stroke-linecap="round" stroke-linejoin="round"/>
<path d="M6 7H11" stroke="#B3B7C6" stroke-width="1.5" stroke-linecap="round" stroke-linejoin="round"/>
<path d="M6 10H11" stroke="#B3B7C6" stroke-width="1.5" stroke-linecap="round" stroke-linejoin="round"/>
<path d="M6 13H9" stroke="#B3B7C6" stroke-width="1.5" stroke-linecap="round" stroke-linejoin="round"/>
<path d="M16 10V4.75C16.0021 4.28631 16.2661 3.84203 16.7345 3.51415C17.2029 3.18627 17.8376 3.00144 18.5 3C19.1625 3.00123 19.7974 3.186 20.2658 3.51392C20.7343 3.84185 20.9982 4.28625 21 4.75V5.91667H16" stroke="#B3B7C6" stroke-width="1.5" stroke-linecap="round" stroke-linejoin="round"/>
</svg>
