<svg width="24" height="24" viewBox="0 0 24 24" fill="none" xmlns="http://www.w3.org/2000/svg">
<path fill-rule="evenodd" clip-rule="evenodd" d="M23.25 15C22.4544 15 21.6913 14.6839 21.1287 14.1213C20.5661 13.5587 20.25 12.7956 20.25 12C20.25 11.2044 20.5661 10.4413 21.1287 9.87868C21.6913 9.31607 22.4544 9 23.25 9V6C23.25 5.60218 23.092 5.22064 22.8107 4.93934C22.5294 4.65804 22.1478 4.5 21.75 4.5H2.25C1.85218 4.5 1.47064 4.65804 1.18934 4.93934C0.908035 5.22064 0.75 5.60218 0.75 6V9C1.54565 9 2.30871 9.31607 2.87132 9.87868C3.43393 10.4413 3.75 11.2044 3.75 12C3.75 12.7956 3.43393 13.5587 2.87132 14.1213C2.30871 14.6839 1.54565 15 0.75 15V18C0.75 18.3978 0.908035 18.7794 1.18934 19.0607C1.47064 19.342 1.85218 19.5 2.25 19.5H21.75C22.1478 19.5 22.5294 19.342 22.8107 19.0607C23.092 18.7794 23.25 18.3978 23.25 18V15ZM9.75 9C9.75 9.82843 9.07843 10.5 8.25 10.5C7.42157 10.5 6.75 9.82843 6.75 9C6.75 8.17157 7.42157 7.5 8.25 7.5C9.07843 7.5 9.75 8.17157 9.75 9ZM16.5 16.5C17.3284 16.5 18 15.8284 18 15C18 14.1716 17.3284 13.5 16.5 13.5C15.6716 13.5 15 14.1716 15 15C15 15.8284 15.6716 16.5 16.5 16.5ZM16.2803 8.78033C16.5732 8.48744 16.5732 8.01256 16.2803 7.71967C15.9874 7.42678 15.5126 7.42678 15.2197 7.71967L7.71967 15.2197C7.42678 15.5126 7.42678 15.9874 7.71967 16.2803C8.01256 16.5732 8.48744 16.5732 8.78033 16.2803L16.2803 8.78033Z" fill="#67C2EE"/>
</svg>
