<svg width="24" height="24" viewBox="0 0 24 24" fill="none" xmlns="http://www.w3.org/2000/svg">
<path d="M2.96999 2.771L13.908 5.88C14.6491 6.12343 15.2964 6.59082 15.7607 7.21771C16.225 7.8446 16.4833 8.6001 16.5 9.38V19.89C16.5312 20.2218 16.4811 20.5562 16.354 20.8643C16.227 21.1724 16.0268 21.445 15.7708 21.6583C15.5148 21.8717 15.2106 22.0195 14.8847 22.089C14.5587 22.1584 14.2207 22.1475 13.9 22.057L4.85199 19.597C4.11073 19.3664 3.4608 18.9084 2.99419 18.288C2.52757 17.6676 2.26792 16.9161 2.25199 16.14V4.688C2.23556 3.96162 2.50706 3.25822 3.00725 2.73124C3.50744 2.20426 4.19574 1.89646 4.92199 1.875H18.75C19.5456 1.875 20.3087 2.19107 20.8713 2.75368C21.4339 3.31629 21.75 4.07935 21.75 4.875V13.828C21.7465 14.2325 21.6632 14.6322 21.5048 15.0044C21.3465 15.3766 21.1163 15.7139 20.8274 15.997C20.5385 16.28 20.1965 16.5033 19.8212 16.654C19.4458 16.8046 19.0444 16.8798 18.64 16.875H16.5" stroke="#5EC5F8" stroke-width="2" stroke-linecap="round" stroke-linejoin="round"/>
<path d="M12.375 13.125C12.4492 13.125 12.5217 13.147 12.5833 13.1882C12.645 13.2294 12.6931 13.288 12.7215 13.3565C12.7498 13.425 12.7573 13.5004 12.7428 13.5732C12.7283 13.6459 12.6926 13.7127 12.6402 13.7652C12.5877 13.8176 12.5209 13.8533 12.4482 13.8678C12.3754 13.8823 12.3 13.8748 12.2315 13.8465C12.163 13.8181 12.1044 13.77 12.0632 13.7083C12.022 13.6467 12 13.5742 12 13.5C12 13.4005 12.0395 13.3052 12.1098 13.2348C12.1802 13.1645 12.2755 13.125 12.375 13.125" stroke="#5EC5F8" stroke-width="2" stroke-linecap="round" stroke-linejoin="round"/>
<path d="M21.75 9.375H16.5" stroke="#5EC5F8" stroke-width="2" stroke-linecap="round" stroke-linejoin="round"/>
</svg>
