<svg width="208" height="168" viewBox="0 0 208 168" fill="none" xmlns="http://www.w3.org/2000/svg" xmlns:xlink="http://www.w3.org/1999/xlink">
<path d="M23.318 151.012H31.0907V143.239L23.318 151.012Z" fill="#231F20"/>
<path d="M31.6353 145.34C29.7783 151.655 25.6332 150.992 25.6332 150.992H0L13.4301 128.804H36.6426L31.6353 145.34Z" fill="#E2F2FC"/>
<path d="M34.959 102.868L31.0907 146.57L35.4278 145.46L44.4153 89.9409L34.959 102.868Z" fill="#AEE0FF"/>
<path d="M149.901 21.0973H57.7397V79.9475H149.901V21.0973Z" fill="#565E96"/>
<path d="M156.661 89.9409H110.723H94.6977H48.7593L31.0907 128.804H94.6977H110.723H174.33L156.661 89.9409Z" fill="#393458"/>
<path d="M156.564 109.227L174.166 154.343L174.33 130.076L156.564 89.9409V109.227Z" fill="#9FDFFF"/>
<g style="mix-blend-mode:multiply">
<path d="M156.564 109.227L174.166 154.343L174.33 130.076L156.564 89.9409V109.227Z" fill="#8B98D8"/>
</g>
<g style="mix-blend-mode:multiply">
<path d="M156.564 109.227L174.166 154.343L174.33 130.076L156.564 89.9409V109.227Z" fill="#13121B"/>
</g>
<path d="M49.9672 109.227L31.0907 154.343V130.076L49.9672 89.9409" fill="#9FDFFF"/>
<path d="M49.9672 109.227L31.0907 154.343V130.076L49.9672 89.9409" fill="#8B98D8"/>
<g style="mix-blend-mode:multiply">
<path d="M49.9672 109.227L31.0907 154.343V130.076L49.9672 89.9409" fill="#231F20"/>
</g>
<path d="M174.33 128.804H31.0907V154.343H174.33V128.804Z" fill="#BEC8ED"/>
<g style="mix-blend-mode:multiply">
<path d="M174.33 128.804H31.0907V133.246H174.33V128.804Z" fill="#8B98D8"/>
</g>
<g style="mix-blend-mode:multiply">
<path d="M48.8567 11.1039L59.9605 20.4728V78.8894L48.8567 86.6098V11.1039Z" fill="#9FDFFF"/>
</g>
<path d="M48.8567 11.1039L59.9605 20.4728V78.8894L48.8567 86.6098V11.1039Z" fill="#8B98D8"/>
<g style="mix-blend-mode:multiply">
<path d="M156.564 11.1039L145.46 20.587V78.8894L156.564 86.6098V11.1039Z" fill="#9FDFFF"/>
</g>
<path d="M156.564 11.1039L145.46 20.587V78.8894L156.564 86.6098V11.1039Z" fill="#8B98D8"/>
<path d="M156.564 11.1039H48.8567L59.8655 21.0973H145.555L156.564 11.1039Z" fill="#9FDFFF"/>
<path d="M156.564 11.1039H48.8567L59.8655 21.0973H145.555L156.564 11.1039Z" fill="#BEC8ED"/>
<path d="M59.8648 79.9474H145.556L156.564 86.6097H48.8567L59.8648 79.9474Z" fill="#9FDFFF"/>
<path d="M59.9605 78.837L145.46 78.5657L156.564 86.6096H48.8567L59.9605 78.837Z" fill="#6877C9"/>
<path d="M156.564 89.9409H49.9672V107.707H156.564V89.9409Z" fill="#BEC8ED"/>
<path d="M83.7304 85.4993H72.8332C71.8563 85.4993 71.0643 86.3812 71.0643 87.4691V87.9709C71.0643 89.0588 71.8563 89.9408 72.8332 89.9408H83.7304C84.7073 89.9408 85.4993 89.0588 85.4993 87.9709V87.4691C85.4993 86.3812 84.7073 85.4993 83.7304 85.4993Z" fill="#231F20"/>
<path d="M132.723 85.4993H122.664C121.763 85.4993 121.031 86.3812 121.031 87.4691V87.9709C121.031 89.0588 121.763 89.9408 122.664 89.9408H132.723C133.625 89.9408 134.356 89.0588 134.356 87.9709V87.4691C134.356 86.3812 133.625 85.4993 132.723 85.4993Z" fill="#231F20"/>
<path d="M78.5903 0H77.9734C76.6106 0 75.5059 1.03417 75.5059 2.30988V7.68355C75.5059 8.95926 76.6106 9.99343 77.9734 9.99343H78.5903C79.953 9.99343 81.0578 8.95926 81.0578 7.68355V2.30988C81.0578 1.03417 79.953 0 78.5903 0Z" fill="white"/>
<path d="M131.272 0H130.778C129.688 0 128.804 1.03417 128.804 2.30988V7.68355C128.804 8.95926 129.688 9.99343 130.778 9.99343H131.272C132.362 9.99343 133.246 8.95926 133.246 7.68355V2.30988C133.246 1.03417 132.362 0 131.272 0Z" fill="white"/>
<g style="mix-blend-mode:multiply">
<path d="M83.2786 141.018H73.2852V146.57H83.2786V141.018Z" fill="#8B98D8"/>
</g>
<g style="mix-blend-mode:multiply">
<path d="M116.59 141.018H106.597V146.57H116.59V141.018Z" fill="#8B98D8"/>
</g>
<path d="M180.437 167.112L170.443 154.343H131.025L121.031 167.112H180.437Z" fill="#231F20"/>
<path d="M112.397 162.116H78.2809C77.5229 162.119 76.7744 161.939 76.0936 161.59C75.4129 161.24 74.8183 160.731 74.3561 160.102C73.8705 159.443 73.5375 158.674 73.3831 157.857C73.2287 157.04 73.2572 156.197 73.4663 155.393L76.3741 143.912C76.5301 143.301 76.9115 142.78 77.4344 142.463C77.9574 142.146 78.5791 142.06 79.1628 142.223C79.7465 142.386 80.2443 142.786 80.5468 143.333C80.8492 143.881 80.9316 144.532 80.7756 145.143L77.8678 156.625C77.8385 156.723 77.8319 156.827 77.8485 156.928C77.8651 157.029 77.9044 157.125 77.9631 157.207C77.9959 157.26 78.0404 157.305 78.0929 157.337C78.1454 157.369 78.2044 157.387 78.265 157.39H112.397C112.515 157.389 112.631 157.356 112.734 157.295C112.836 157.234 112.923 157.146 112.985 157.041C113.073 156.903 113.129 156.744 113.145 156.579C113.162 156.413 113.139 156.246 113.08 156.092L108.996 145.393C108.773 144.806 108.781 144.15 109.02 143.57C109.258 142.989 109.707 142.532 110.267 142.298C110.828 142.064 111.454 142.073 112.008 142.323C112.563 142.572 113 143.042 113.223 143.629L117.307 154.328C117.641 155.206 117.765 156.157 117.668 157.096C117.571 158.036 117.256 158.937 116.75 159.72C116.266 160.46 115.616 161.066 114.857 161.483C114.099 161.901 113.254 162.118 112.397 162.116Z" fill="#231F20"/>
<g style="mix-blend-mode:multiply">
<path d="M174.33 146.57C172.857 146.57 171.445 147.389 170.404 148.847C169.363 150.304 168.778 152.281 168.778 154.343H174.33V146.57Z" fill="#9FDFFF"/>
</g>
<g style="mix-blend-mode:multiply">
<path d="M31.0907 146.57C33.1521 146.57 35.1292 147.389 36.5868 148.847C38.0445 150.304 38.8634 152.281 38.8634 154.343H31.0907V146.57Z" fill="#9FDFFF"/>
</g>
<path d="M133.669 126.583C133.183 126.775 132.776 127.09 132.503 127.487C132.23 127.884 132.104 128.344 132.142 128.804H169.888C169.888 128.804 169.536 126.583 168.21 126.583" fill="white"/>
<path d="M133.587 126.583H167.31L170.999 154.343H129.915L133.587 126.583Z" fill="white"/>
<path d="M170.999 154.343L177.661 165.447H123.252L129.914 154.343H170.999Z" fill="white"/>
<g style="mix-blend-mode:multiply">
<g style="mix-blend-mode:multiply">
<path d="M138.093 163.207H123.814C123.597 163.207 123.389 163.12 123.236 162.967C123.083 162.814 122.997 162.606 122.997 162.389C122.997 162.172 123.083 161.964 123.236 161.811C123.389 161.657 123.597 161.571 123.814 161.571H138.093C138.204 161.573 138.314 161.545 138.411 161.49C138.509 161.434 138.589 161.354 138.644 161.257C138.699 161.16 138.727 161.05 138.725 160.938C138.723 160.826 138.691 160.717 138.632 160.622L134.593 153.655C134.509 153.471 134.497 153.262 134.559 153.069C134.621 152.876 134.752 152.713 134.927 152.611C135.102 152.51 135.308 152.476 135.506 152.518C135.704 152.56 135.88 152.674 135.999 152.837L140.039 159.805C140.241 160.148 140.348 160.538 140.351 160.936C140.353 161.334 140.25 161.725 140.053 162.07C139.855 162.416 139.57 162.703 139.226 162.902C138.881 163.102 138.491 163.207 138.093 163.207Z" fill="white"/>
</g>
</g>
<path d="M85.4993 6.66223H71.0643V11.1038H85.4993V6.66223Z" fill="#231F20"/>
<path d="M136.577 6.66223H123.252V11.1038H136.577V6.66223Z" fill="#231F20"/>
<path d="M34.9771 104.376C37.1978 103.043 39.6036 102.895 41.0841 103.821C42.1945 100.49 36.6426 101.045 36.0874 101.6C35.0238 102.664 34.9771 103.821 34.9771 104.376Z" fill="#13121B"/>
<path d="M44.268 90.1778C48.2918 88.9183 49.9672 93.0913 49.9672 93.0913L42.114 106.597C41.4109 101.422 35.5322 102.287 35.5322 102.287L44.268 90.1778Z" fill="#6DB7E4"/>
<path d="M67.7333 125.184V107.707H138.798V125.473L67.7333 125.184Z" fill="#231F20"/>
<path d="M67.9835 81.2165L67.2712 81.2991C66.3129 81.3222 64.9652 81.2458 64.1996 80.6649C62.9373 79.7033 61.0915 78.0798 57.5911 78.5127C54.0908 78.9457 52.7618 80.961 51.8262 82.1908C51.2686 82.9165 49.9911 83.3226 49.0366 83.5468L48.3242 83.6294C47.0219 83.7943 46.1058 84.9837 46.2931 86.2703L49.8384 111.119C50.0256 112.406 51.2464 113.327 52.5488 113.162L72.2077 110.729C73.5101 110.564 74.4261 109.375 74.2388 108.088L70.6935 83.2397C70.5067 81.9732 69.3063 81.0516 67.9835 81.2165Z" fill="#FF4E4E"/>
<g opacity="0.55">
<rect width="135.232" height="133.363" transform="matrix(0.239999 -0.00072845 0.00449221 0.239958 44.3878 81.2622)" fill="url(#pattern0)"/>
</g>
<path d="M61.0554 104.276C65.0094 104.264 68.1556 101.094 68.0826 97.1955C68.0096 93.2968 64.7451 90.1461 60.7911 90.1581C56.8372 90.1701 53.691 93.3403 53.764 97.239C53.837 101.138 57.1015 104.288 61.0554 104.276Z" fill="white"/>
<path d="M61.0328 103.03C64.2886 103.021 66.8793 100.41 66.8192 97.1998C66.7591 93.9895 64.071 91.3951 60.8151 91.405C57.5593 91.4148 54.9686 94.0253 55.0287 97.2356C55.0888 100.446 57.7769 103.04 61.0328 103.03Z" fill="#FF8731"/>
<path d="M58.8237 98.3702L58.7829 98.3704C58.3757 98.4118 58.0032 98.1313 57.9345 97.7293L57.7461 96.3822C57.6977 95.98 57.9765 95.6171 58.3834 95.5555L58.4242 95.5554C58.8314 95.514 59.2039 95.7944 59.2726 96.1965L59.461 97.5436C59.5093 97.9457 59.2305 98.3086 58.8237 98.3702Z" fill="white"/>
<path d="M61.4612 100.877L61.4204 100.877C61.0132 100.918 60.6408 100.638 60.572 100.236L60.1737 97.4812C60.1254 97.079 60.4042 96.7161 60.811 96.6545L60.8518 96.6544C61.259 96.613 61.6315 96.8934 61.7002 97.2955L62.0986 100.05C62.1473 100.472 61.8685 100.835 61.4612 100.877Z" fill="white"/>
<path d="M63.3011 97.8135L63.2603 97.8136C62.8531 97.8551 62.4806 97.5746 62.4119 97.1725L62.0135 94.4181C61.9652 94.0159 62.244 93.653 62.6508 93.5914L62.6916 93.5913C63.0989 93.5498 63.4713 93.8303 63.54 94.2324L63.9384 96.9869C63.9867 97.389 63.7079 97.7519 63.3011 97.8135Z" fill="white"/>
<path opacity="0.21" d="M61.0777 105.463C65.6963 105.449 69.3713 101.746 69.286 97.1917C69.2008 92.6377 65.3875 88.9573 60.769 88.9713C56.1504 88.9853 52.4754 92.6885 52.5606 97.2425C52.6459 101.796 56.4591 105.477 61.0777 105.463Z" fill="white"/>
<path d="M60.0983 81.6227L56.0684 82.1177C55.7428 82.1589 55.4323 81.9184 55.3855 81.5968C55.3387 81.2751 55.5778 80.9726 55.9034 80.9314L59.9333 80.4364C60.2589 80.3952 60.5694 80.6356 60.6163 80.9573C60.6631 81.279 60.424 81.5815 60.0983 81.6227Z" fill="#6877C9"/>
<path d="M77.4588 65.5774L125.496 65.5126L136.577 125.473L67.7333 125.149L77.4588 65.5774Z" fill="white"/>
<path d="M145.46 95.1992C145.46 95.1992 159.783 63.2169 179.012 41.0842L207.641 65.2723C207.641 65.2723 174.5 101.3 167.953 121.032L145.46 95.1992Z" fill="#E2F2FC"/>
<path d="M148.791 93.7203L167.516 114.369C167.516 114.369 178.156 95.3162 186.544 85.6757L163.474 66.6228C163.474 66.6228 152.418 84.6498 148.791 93.7203Z" fill="#2CAEFF"/>
<path d="M14.3205 131.025H26.6492L25.6704 133.246H13.3246L14.3205 131.025Z" fill="#FF8731"/>
<path d="M12.9267 134.356H16.6558L15.9585 135.466H12.2142L12.9267 134.356Z" fill="#FF8731"/>
<path d="M11.0434 136.577H19.9868L18.9549 137.687H9.99341L11.0434 136.577Z" fill="#FF8731"/>
<path d="M9.58365 138.798H11.1038L10.4297 141.018H8.88306L9.58365 138.798Z" fill="#FF8731"/>
<path d="M8.77513 142.129H18.8765L17.9358 143.239H7.77271L8.77513 142.129Z" fill="#FF8731"/>
<path d="M7.55131 144.35H14.4349L13.6132 145.46H6.66223L7.55131 144.35Z" fill="#FF8731"/>
<path d="M133.605 153.912L128.804 162.116H172.109L167.62 153.878L166.587 144.35H134.473L133.605 153.912Z" fill="#FFD36A"/>
<path d="M133.246 158.784L137.916 153.511L139.884 149.456L141.609 153.384L145.303 156.836L147.158 154.112L150.412 158.088L155.342 153.384L156.498 148.791L158.727 153.447L163.82 158.484L165.447 156.045" stroke="white" stroke-width="0.5" stroke-miterlimit="10" stroke-linecap="round"/>
<path d="M139.908 151.012C140.521 151.012 141.018 150.515 141.018 149.901C141.018 149.288 140.521 148.791 139.908 148.791C139.295 148.791 138.798 149.288 138.798 149.901C138.798 150.515 139.295 151.012 139.908 151.012Z" fill="white"/>
<path d="M147.125 155.453C148.045 155.453 148.791 154.956 148.791 154.343C148.791 153.73 148.045 153.232 147.125 153.232C146.206 153.232 145.46 153.73 145.46 154.343C145.46 154.956 146.206 155.453 147.125 155.453Z" fill="white"/>
<path d="M145.46 158.784C146.073 158.784 146.57 158.287 146.57 157.674C146.57 157.061 146.073 156.564 145.46 156.564C144.847 156.564 144.349 157.061 144.349 157.674C144.349 158.287 144.847 158.784 145.46 158.784Z" fill="white"/>
<path d="M151.012 158.784C151.625 158.784 152.122 158.287 152.122 157.674C152.122 157.061 151.625 156.564 151.012 156.564C150.399 156.564 149.901 157.061 149.901 157.674C149.901 158.287 150.399 158.784 151.012 158.784Z" fill="white"/>
<path d="M154.898 155.453C155.818 155.453 156.564 154.956 156.564 154.343C156.564 153.73 155.818 153.232 154.898 153.232C153.978 153.232 153.233 153.73 153.233 154.343C153.233 154.956 153.978 155.453 154.898 155.453Z" fill="white"/>
<path d="M156.564 151.012C157.79 151.012 158.784 150.266 158.784 149.346C158.784 148.426 157.79 147.681 156.564 147.681C155.337 147.681 154.343 148.426 154.343 149.346C154.343 150.266 155.337 151.012 156.564 151.012Z" fill="white"/>
<path d="M165.447 157.674C166.06 157.674 166.557 157.177 166.557 156.564C166.557 155.95 166.06 155.453 165.447 155.453C164.833 155.453 164.336 155.95 164.336 156.564C164.336 157.177 164.833 157.674 165.447 157.674Z" fill="white"/>
<path d="M156.564 132.135C155.386 132.135 154.256 132.486 153.423 133.111C152.59 133.736 152.122 134.583 152.122 135.467H156.564V132.135Z" fill="#231F20"/>
<path d="M157.119 132.135V136.577H152.122C152.122 137.455 152.415 138.314 152.964 139.044C153.513 139.775 154.294 140.344 155.207 140.68C156.12 141.016 157.124 141.104 158.094 140.933C159.063 140.762 159.953 140.339 160.652 139.718C161.351 139.096 161.827 138.305 162.02 137.443C162.212 136.582 162.113 135.689 161.735 134.877C161.357 134.066 160.717 133.372 159.895 132.884C159.073 132.396 158.107 132.135 157.119 132.135Z" fill="#2CAEFF"/>
<path d="M173.219 84.5948C171.6 82.5733 169.286 81.3137 166.788 81.0927C164.29 80.8717 161.81 81.7075 159.895 83.4162L166.007 91.0513L173.219 84.5948Z" fill="#231F20"/>
<path d="M173.058 87.7233L165.422 93.8243L158.999 86.6096C157.488 87.8149 156.39 89.4163 155.843 91.2113C155.296 93.0063 155.325 94.9142 155.926 96.6937C156.527 98.4732 157.673 100.044 159.22 101.208C160.766 102.372 162.643 103.077 164.613 103.232C166.583 103.388 168.558 102.989 170.287 102.084C172.017 101.179 173.423 99.81 174.329 98.1497C175.235 96.4894 175.599 94.6126 175.376 92.7567C175.153 90.9007 174.352 89.1491 173.075 87.7233H173.058Z" fill="white"/>
<path d="M176.801 47.7465L200.979 69.1562L198.491 72.1748L174.33 50.643L176.801 47.7465Z" fill="#FF8731"/>
<path d="M173.522 54.4087L178.771 58.393L176.434 61.071L170.999 57.2173C170.999 57.2173 172.26 55.7803 173.522 54.4087Z" fill="#FF8731"/>
<path d="M168.942 59.9606L179.882 68.3893L177.352 71.0644L166.557 62.8748C166.557 62.8748 167.685 61.4401 168.942 59.9606Z" fill="#FF8731"/>
<path d="M74.3955 121.032H80.408L82.1682 105.486H76.8179L74.3955 121.032Z" fill="#FFD36A"/>
<path d="M84.3889 121.032L87.3539 89.9409H92.1616L89.8331 121.032H84.3889Z" fill="#FFD36A"/>
<path d="M94.3823 121.031L95.541 94.3823H99.9342L99.6285 121.031H94.3823Z" fill="#FFD36A"/>
<path d="M104.376 89.9409V121.032H109.928L108.898 89.9409H104.376Z" fill="#FFD36A"/>
<path d="M113.259 112.148L113.593 121.031H119.921L119.067 112.148H113.259Z" fill="#FFD36A"/>
<path d="M122.142 103.265L123.83 121.031H128.804L126.524 103.265H122.142Z" fill="#FFD36A"/>
<path d="M80.8608 66.6228L78.837 86.6097H124.363L121.74 66.6228H80.8608Z" fill="#2CAEFF"/>
<path d="M82.4999 83.2786C82.4272 83.2743 82.3576 83.2484 82.3007 83.2043C82.2438 83.1602 82.2024 83.1002 82.1821 83.0325C82.1619 82.9647 82.1638 82.8926 82.1875 82.8259C82.2113 82.7592 82.2558 82.7013 82.315 82.6601L92.4054 76.2962L96.5762 79.4049L104.632 73.3665L108.348 75.5312L110.905 73.2852L117.194 80.4628L119.229 76.0032C119.244 75.9565 119.268 75.9133 119.301 75.8765C119.334 75.8397 119.375 75.8101 119.42 75.7897C119.466 75.7694 119.516 75.7587 119.566 75.7584C119.616 75.7582 119.666 75.7683 119.712 75.7882C119.758 75.8081 119.799 75.8373 119.833 75.8738C119.866 75.9103 119.891 75.9532 119.906 75.9998C119.92 76.0463 119.925 76.0954 119.918 76.1437C119.912 76.1921 119.895 76.2385 119.868 76.2799L117.363 81.651L110.804 74.2129L108.399 76.3288L104.649 74.1315L96.5425 80.2024L92.3382 77.0775L82.6849 83.1809C82.635 83.2309 82.5704 83.265 82.4999 83.2786Z" fill="white"/>
<path d="M92.1617 77.7266C92.7749 77.7266 93.272 77.2295 93.272 76.6162C93.272 76.003 92.7749 75.5059 92.1617 75.5059C91.5484 75.5059 91.0513 76.003 91.0513 76.6162C91.0513 77.2295 91.5484 77.7266 92.1617 77.7266Z" fill="white"/>
<path d="M104.376 74.3956C104.989 74.3956 105.486 73.8984 105.486 73.2852C105.486 72.6719 104.989 72.1748 104.376 72.1748C103.763 72.1748 103.265 72.6719 103.265 73.2852C103.265 73.8984 103.763 74.3956 104.376 74.3956Z" fill="white"/>
<path d="M108.817 76.6161C109.431 76.6161 109.928 76.119 109.928 75.5058C109.928 74.8925 109.431 74.3954 108.817 74.3954C108.204 74.3954 107.707 74.8925 107.707 75.5058C107.707 76.119 108.204 76.6161 108.817 76.6161Z" fill="white"/>
<path d="M111.038 74.3956C111.651 74.3956 112.148 73.8984 112.148 73.2852C112.148 72.6719 111.651 72.1748 111.038 72.1748C110.425 72.1748 109.928 72.6719 109.928 73.2852C109.928 73.8984 110.425 74.3956 111.038 74.3956Z" fill="white"/>
<path d="M119.921 76.6161C120.534 76.6161 121.032 76.119 121.032 75.5058C121.032 74.8925 120.534 74.3954 119.921 74.3954C119.308 74.3954 118.811 74.8925 118.811 75.5058C118.811 76.119 119.308 76.6161 119.921 76.6161Z" fill="white"/>
<rect x="138.798" y="133.246" width="8.88305" height="1.11038" fill="#C4C4C4"/>
<rect x="138.798" y="135.467" width="8.88305" height="1.11038" fill="#C4C4C4"/>
<rect x="138.798" y="138.798" width="8.88305" height="1.11038" fill="#C4C4C4"/>
<path d="M168.223 126.583C167.779 126.583 167.667 128.064 167.667 128.804H169.888C169.888 127.694 169.333 126.583 168.223 126.583Z" fill="#A19F9F"/>
<path d="M133.801 126.583C134.245 126.583 133.246 128.064 133.246 128.804H132.135C132.135 127.694 132.691 126.583 133.801 126.583Z" fill="#A19F9F"/>
<path d="M30.9922 80.2333C30.2859 85.231 25.6953 88.7145 20.739 88.014C15.7826 87.3135 12.3373 82.6942 13.0437 77.6965C13.75 72.6989 18.3406 69.2153 23.2969 69.9159C28.2533 70.6164 31.6986 75.2357 30.9922 80.2333Z" fill="#FFA84A"/>
<path d="M28.9972 79.9521C28.2908 84.9498 23.7346 88.4382 18.8206 87.7436C13.9066 87.0491 10.4956 82.4347 11.202 77.437C11.9083 72.4393 16.4645 68.951 21.3785 69.6455C26.2926 70.34 29.7035 74.9545 28.9972 79.9521Z" fill="#FFE288"/>
<path d="M26.9927 79.7474C26.4386 83.668 22.8643 86.4046 19.0094 85.8598C15.1544 85.3149 12.4786 81.695 13.0327 77.7744C13.5868 73.8538 17.1611 71.1172 21.016 71.6621C24.871 72.2069 27.5468 75.8269 26.9927 79.7474Z" fill="#FFC64A"/>
<path d="M19.7358 81.3039L18.6474 80.9169L18.3269 78.8016C18.2976 78.6015 18.2301 78.4441 18.1245 78.3294C18.0188 78.2147 17.8675 78.1224 17.6705 78.0523L16.9087 77.7814L16.1285 80.0211L15.1412 79.67L17.0846 74.0905L19.5101 74.953C20.1321 75.1742 20.5541 75.4844 20.7762 75.8836C21.0053 76.2793 21.027 76.7436 20.8414 77.2765C20.6926 77.7039 20.4503 78.015 20.1145 78.2099C19.7857 78.4013 19.3915 78.4627 18.9319 78.3942C19.1946 78.5765 19.3552 78.8679 19.4138 79.2682L19.7358 81.3039ZM18.4798 77.4596C18.8582 77.5941 19.1603 77.6215 19.3861 77.5417C19.6138 77.4566 19.78 77.2637 19.8847 76.963C19.9913 76.657 19.9804 76.404 19.852 76.2042C19.7254 75.9991 19.4729 75.8292 19.0945 75.6947L17.7885 75.2302L17.1738 76.9951L18.4798 77.4596Z" fill="#FFE288"/>
<path d="M24.0268 78.3737C24.3533 78.4898 24.6141 78.6774 24.8092 78.9366C25.0096 79.1976 25.1255 79.5086 25.157 79.8697C25.1955 80.2273 25.145 80.6066 25.0053 81.0076C24.8657 81.4086 24.6709 81.7337 24.421 81.9828C24.1763 82.2338 23.8985 82.3959 23.5876 82.4691C23.2767 82.5424 22.9554 82.52 22.6237 82.4021C22.3542 82.3062 22.1334 82.1625 21.9613 81.9709C21.7893 81.7792 21.682 81.5602 21.6397 81.3139L20.9368 83.3321L19.965 82.9865L21.8091 77.6918L22.7654 78.0319L22.5614 78.6175C22.7507 78.4417 22.9719 78.3336 23.2248 78.2931C23.4848 78.2491 23.7521 78.276 24.0268 78.3737ZM22.6345 81.5432C22.9403 81.6519 23.2155 81.6312 23.46 81.4809C23.7064 81.3254 23.8976 81.0525 24.0335 80.662C24.1732 80.261 24.1961 79.9193 24.1023 79.6369C24.0084 79.3545 23.8086 79.1589 23.5028 79.0502C23.1919 78.9396 22.9132 78.962 22.6668 79.1175C22.4256 79.2749 22.2352 79.554 22.0955 79.955C21.9577 80.3508 21.934 80.6863 22.0245 80.9616C22.1202 81.2387 22.3235 81.4326 22.6345 81.5432Z" fill="#FFE288"/>
<path d="M37.5454 47.3163C39.229 51.0067 37.6268 55.3518 33.967 57.0215C30.3071 58.6911 25.9754 57.053 24.2919 53.3626C22.6083 49.6723 24.2104 45.3271 27.8703 43.6575C31.5301 41.9879 35.8618 43.626 37.5454 47.3163Z" fill="#FFA84A"/>
<path d="M36.0723 47.988C37.7558 51.6783 36.1791 56.0119 32.5505 57.6673C28.9219 59.3227 24.6156 57.673 22.932 53.9826C21.2485 50.2923 22.8252 45.9587 26.4538 44.3033C30.0824 42.648 34.3887 44.2976 36.0723 47.988Z" fill="#FFE288"/>
<path d="M34.6264 48.7172C35.9472 51.6122 34.7102 55.0118 31.8637 56.3104C29.0171 57.609 25.6389 56.3149 24.3181 53.4199C22.9974 50.5249 24.2343 47.1252 27.0809 45.8266C29.9275 44.528 33.3057 45.8222 34.6264 48.7172Z" fill="#FFC64A"/>
<path d="M30.3847 52.9106L29.4801 53.1193L28.3481 51.8253C28.2416 51.7024 28.1278 51.625 28.0066 51.5931C27.8855 51.5611 27.743 51.564 27.5793 51.6018L26.9461 51.7479L27.3867 53.6023L26.5661 53.7916L25.4686 49.172L27.4845 48.7069C28.0014 48.5877 28.4214 48.6152 28.7445 48.7895C29.0709 48.9584 29.2865 49.2634 29.3913 49.7047C29.4754 50.0585 29.4458 50.374 29.3027 50.6513C29.1628 50.9232 28.9224 51.1353 28.5815 51.2877C28.8383 51.2975 29.0731 51.4254 29.286 51.6712L30.3847 52.9106ZM27.871 50.8502C28.1855 50.7777 28.4019 50.6656 28.5204 50.5138C28.6378 50.3577 28.6669 50.1552 28.6077 49.9062C28.5475 49.6528 28.4307 49.4862 28.2573 49.4064C28.0828 49.3223 27.8383 49.3165 27.5239 49.389L26.4384 49.6394L26.7856 51.1007L27.871 50.8502Z" fill="#FFE288"/>
<path d="M32.0233 49.0698C32.2946 49.0072 32.5525 49.0214 32.7967 49.1125C33.0453 49.2026 33.2584 49.3631 33.4359 49.594C33.6167 49.8196 33.7466 50.0984 33.8254 50.4304C33.9043 50.7624 33.913 51.0668 33.8516 51.3436C33.7944 51.6194 33.6764 51.8494 33.4975 52.0335C33.3186 52.2176 33.0913 52.3415 32.8157 52.4051C32.5917 52.4568 32.38 52.4549 32.1805 52.3996C31.9811 52.3442 31.8137 52.2423 31.6785 52.0938L32.0755 53.7647L31.2678 53.951L30.2264 49.5673L31.0211 49.384L31.1363 49.8688C31.1885 49.6679 31.2915 49.499 31.4453 49.3621C31.6023 49.2199 31.795 49.1225 32.0233 49.0698ZM32.4514 51.8187C32.7056 51.76 32.883 51.627 32.9836 51.4194C33.0832 51.2075 33.0946 50.9399 33.0178 50.6167C32.9389 50.2847 32.8066 50.0433 32.6209 49.8927C32.4351 49.742 32.2152 49.696 31.9611 49.7546C31.7026 49.8142 31.5236 49.95 31.424 50.1619C31.3287 50.3728 31.3205 50.6442 31.3994 50.9762C31.4772 51.3039 31.6063 51.5413 31.7867 51.6886C31.9714 51.835 32.193 51.8783 32.4514 51.8187Z" fill="#FFE288"/>
<path d="M56.9062 126.506C58.322 129.609 56.9747 133.263 53.8971 134.667C50.8194 136.071 47.1768 134.694 45.7611 131.59C44.3453 128.487 45.6926 124.833 48.7702 123.429C51.8479 122.025 55.4905 123.403 56.9062 126.506Z" fill="#FFA84A"/>
<path d="M55.6673 127.071C57.083 130.174 55.7571 133.818 52.7058 135.21C49.6544 136.602 46.0331 135.215 44.6174 132.112C43.2016 129.009 44.5276 125.364 47.5789 123.972C50.6303 122.58 54.2516 123.967 55.6673 127.071Z" fill="#FFE288"/>
<path d="M54.4514 127.684C55.562 130.118 54.5219 132.977 52.1281 134.069C49.7344 135.161 46.8936 134.073 45.7829 131.638C44.6723 129.204 45.7125 126.345 48.1062 125.253C50.4999 124.161 53.3408 125.249 54.4514 127.684Z" fill="#FFC64A"/>
<path d="M50.8845 131.21L50.1238 131.385L49.1719 130.297C49.0824 130.194 48.9867 130.129 48.8848 130.102C48.7829 130.075 48.6631 130.078 48.5254 130.109L47.993 130.232L48.3634 131.792L47.6734 131.951L46.7505 128.066L48.4457 127.675C48.8804 127.575 49.2336 127.598 49.5053 127.744C49.7797 127.886 49.961 128.143 50.0492 128.514C50.1199 128.812 50.095 129.077 49.9746 129.31C49.857 129.539 49.6549 129.717 49.3682 129.845C49.5841 129.853 49.7816 129.961 49.9606 130.168L50.8845 131.21ZM48.7707 129.477C49.0352 129.416 49.2172 129.322 49.3168 129.194C49.4155 129.063 49.44 128.893 49.3902 128.683C49.3396 128.47 49.2414 128.33 49.0955 128.263C48.9488 128.192 48.7432 128.188 48.4788 128.249L47.566 128.459L47.8579 129.688L48.7707 129.477Z" fill="#FFE288"/>
<path d="M52.2624 127.98C52.4906 127.927 52.7074 127.939 52.9129 128.016C53.1219 128.092 53.3011 128.227 53.4504 128.421C53.6024 128.611 53.7116 128.845 53.7779 129.124C53.8442 129.403 53.8516 129.659 53.7999 129.892C53.7518 130.124 53.6526 130.318 53.5022 130.472C53.3517 130.627 53.1606 130.731 52.9288 130.785C52.7404 130.828 52.5624 130.827 52.3947 130.78C52.2269 130.734 52.0862 130.648 51.9725 130.523L52.3063 131.928L51.6272 132.085L50.7514 128.398L51.4197 128.244L51.5165 128.652C51.5605 128.483 51.6471 128.341 51.7764 128.226C51.9084 128.106 52.0705 128.024 52.2624 127.98ZM52.6225 130.292C52.8362 130.242 52.9854 130.13 53.07 129.956C53.1537 129.778 53.1633 129.553 53.0987 129.281C53.0324 129.002 52.9212 128.799 52.765 128.672C52.6088 128.545 52.4238 128.507 52.2101 128.556C51.9928 128.606 51.8422 128.72 51.7585 128.898C51.6784 129.076 51.6715 129.304 51.7378 129.583C51.8032 129.859 51.9118 130.058 52.0635 130.182C52.2188 130.305 52.4051 130.342 52.6225 130.292Z" fill="#FFE288"/>
<path d="M184.695 37.0812C185.541 40.2377 183.689 43.4765 180.559 44.3153C177.428 45.1541 174.205 43.2752 173.359 40.1187C172.513 36.9623 174.365 33.7235 177.496 32.8847C180.626 32.0459 183.85 33.9248 184.695 37.0812Z" fill="#FFA84A"/>
<path d="M183.435 37.4188C184.281 40.5753 182.451 43.8083 179.347 44.6399C176.243 45.4715 173.042 43.5869 172.196 40.4304C171.35 37.2739 173.181 34.0409 176.284 33.2093C179.388 32.3777 182.59 34.2624 183.435 37.4188Z" fill="#FFE288"/>
<path d="M182.189 37.8054C182.853 40.2816 181.417 42.8178 178.982 43.4702C176.547 44.1226 174.036 42.6441 173.372 40.1679C172.709 37.6917 174.145 35.1555 176.58 34.5031C179.014 33.8507 181.526 35.3292 182.189 37.8054Z" fill="#FFC64A"/>
<path d="M178.26 40.5718L177.514 40.6171L176.787 39.4381C176.719 39.3263 176.639 39.2496 176.547 39.2081C176.455 39.1665 176.341 39.1498 176.206 39.158L175.683 39.1897L175.786 40.7218L175.109 40.7628L174.853 36.9462L176.516 36.8453C176.943 36.8195 177.273 36.8973 177.507 37.0789C177.743 37.2566 177.874 37.5277 177.898 37.8922C177.918 38.1845 177.853 38.4313 177.702 38.6325C177.555 38.8299 177.335 38.9664 177.044 39.042C177.247 39.0841 177.416 39.2169 177.553 39.4406L178.26 40.5718ZM176.538 38.5998C176.797 38.584 176.984 38.5238 177.099 38.419C177.213 38.3106 177.263 38.1536 177.249 37.9479C177.235 37.7385 177.164 37.5906 177.037 37.5041C176.91 37.414 176.716 37.3768 176.457 37.3925L175.561 37.4468L175.642 38.6541L176.538 38.5998Z" fill="#FFE288"/>
<path d="M180.074 37.7386C180.298 37.725 180.501 37.7707 180.683 37.8756C180.869 37.9803 181.016 38.1363 181.127 38.3434C181.24 38.5467 181.306 38.7855 181.325 39.0598C181.343 39.3341 181.31 39.5771 181.224 39.7888C181.142 40.0004 181.017 40.1674 180.851 40.2898C180.684 40.4123 180.487 40.4804 180.259 40.4942C180.074 40.5054 179.906 40.4757 179.755 40.4051C179.604 40.3346 179.485 40.2313 179.397 40.0952L179.49 41.4757L178.823 41.5161L178.58 37.8944L179.236 37.8546L179.263 38.2552C179.331 38.1025 179.436 37.982 179.576 37.8938C179.72 37.8017 179.886 37.75 180.074 37.7386ZM180.048 39.9797C180.258 39.967 180.416 39.8849 180.524 39.7334C180.631 39.5783 180.676 39.3673 180.658 39.1002C180.64 38.8259 180.567 38.6165 180.439 38.472C180.312 38.3275 180.143 38.2617 179.934 38.2744C179.72 38.2873 179.56 38.3713 179.453 38.5264C179.349 38.6813 179.306 38.8959 179.324 39.1701C179.343 39.4408 179.414 39.6467 179.537 39.7878C179.664 39.9287 179.835 39.9926 180.048 39.9797Z" fill="#FFE288"/>
<path d="M168.201 12.0466C168.617 15.9365 165.827 19.4243 161.969 19.8371C158.112 20.2498 154.647 17.431 154.231 13.5412C153.815 9.65137 156.605 6.16348 160.462 5.75078C164.32 5.33807 167.785 8.15683 168.201 12.0466Z" fill="#FFA84A"/>
<path d="M166.648 12.2132C167.064 16.103 164.301 19.5881 160.476 19.9972C156.652 20.4064 153.214 17.5848 152.798 13.695C152.382 9.80517 155.145 6.32015 158.969 5.91097C162.794 5.5018 166.232 8.32341 166.648 12.2132Z" fill="#FFE288"/>
<path d="M165.103 12.4393C165.429 15.4908 163.262 18.2248 160.261 18.5458C157.261 18.8668 154.564 16.6533 154.238 13.6018C153.911 10.5503 156.079 7.81632 159.079 7.49533C162.08 7.17434 164.777 9.38785 165.103 12.4393Z" fill="#FFC64A"/>
<path d="M159.944 14.9842L159.053 14.8995L158.411 13.3706C158.351 13.2257 158.271 13.1202 158.169 13.054C158.068 12.9879 157.937 12.9471 157.776 12.9318L157.152 12.8726L156.99 14.7037L156.181 14.6269L156.585 10.0653L158.571 10.254C159.08 10.3023 159.456 10.4555 159.699 10.7134C159.946 10.9674 160.05 11.3122 160.012 11.7479C159.981 12.0973 159.858 12.377 159.642 12.5871C159.432 12.7933 159.147 12.9141 158.789 12.9497C159.021 13.037 159.196 13.2255 159.316 13.5153L159.944 14.9842ZM158.272 12.333C158.582 12.3624 158.814 12.3257 158.968 12.223C159.123 12.1159 159.212 11.9394 159.233 11.6936C159.256 11.4434 159.199 11.2553 159.065 11.1295C158.931 10.9993 158.709 10.9195 158.399 10.8901L157.33 10.7885L157.202 12.2314L158.272 12.333Z" fill="#FFE288"/>
<path d="M162.614 11.9689C162.881 11.9943 163.113 12.0859 163.308 12.2437C163.508 12.4019 163.655 12.6136 163.747 12.879C163.843 13.1405 163.877 13.4351 163.848 13.763C163.819 14.0908 163.734 14.372 163.594 14.6066C163.458 14.8416 163.279 15.0161 163.06 15.13C162.84 15.244 162.594 15.2881 162.323 15.2623C162.102 15.2413 161.909 15.1751 161.743 15.0637C161.577 14.9523 161.455 14.808 161.377 14.6309L161.231 16.2808L160.435 16.2053L160.818 11.8766L161.601 11.951L161.559 12.4298C161.668 12.2618 161.813 12.1386 161.996 12.0603C162.183 11.978 162.389 11.9475 162.614 11.9689ZM162.168 14.6147C162.418 14.6385 162.621 14.5708 162.777 14.4115C162.932 14.248 163.024 14.0066 163.052 13.6874C163.081 13.3596 163.034 13.0984 162.91 12.9039C162.786 12.7095 162.599 12.6003 162.348 12.5766C162.093 12.5524 161.888 12.6221 161.733 12.7856C161.581 12.9496 161.491 13.1955 161.462 13.5233C161.433 13.8468 161.479 14.1034 161.599 14.2932C161.724 14.4834 161.913 14.5905 162.168 14.6147Z" fill="#FFE288"/>
<defs>
<pattern id="pattern0" patternContentUnits="objectBoundingBox" width="1" height="1">
<use xlink:href="#image0"/>
</pattern>
<image id="image0" xlink:href="data:image/png;base64,iVBORw0KGgoAAAANSUhEUgAAApsAAAKbCAYAAAC6kkFkAAAACXBIWXMAAC4jAAAuIwF4pT92AAAA"/>
</defs>
</svg>
