<svg width="58" height="51" viewBox="0 0 58 51" fill="none" xmlns="http://www.w3.org/2000/svg">
<rect x="12.4" y="5.40002" width="43.2" height="43.2" rx="12" fill="url(#paint0_linear)"/>
<path d="M51.9387 33.48C51.9387 33.9411 51.7555 34.3833 51.4294 34.7094C51.1033 35.0355 50.6611 35.2187 50.2 35.2187C50.6611 35.2187 51.1033 35.4018 51.4294 35.7279C51.7555 36.054 51.9387 36.4962 51.9387 36.9573C51.9387 36.4962 52.1218 36.054 52.4479 35.7279C52.774 35.4018 53.2162 35.2187 53.6773 35.2187C53.2162 35.2187 52.774 35.0355 52.4479 34.7094C52.1218 34.3833 51.9387 33.9411 51.9387 33.48Z" fill="white"/>
<path d="M17.26 18.3601C17.26 19.0762 16.9755 19.7629 16.4692 20.2693C15.9628 20.7756 15.2761 21.0601 14.56 21.0601C15.2761 21.0601 15.9628 21.3446 16.4692 21.8509C16.9755 22.3573 17.26 23.044 17.26 23.7601C17.26 23.044 17.5444 22.3573 18.0508 21.8509C18.5571 21.3446 19.2439 21.0601 19.96 21.0601C19.2439 21.0601 18.5571 20.7756 18.0508 20.2693C17.5444 19.7629 17.26 19.0762 17.26 18.3601Z" fill="white"/>
<mask id="mask0" mask-type="alpha" maskUnits="userSpaceOnUse" x="12" y="5" width="44" height="44">
<rect x="12.4" y="5.40002" width="43.2" height="43.2" rx="8" fill="#E2F2FC"/>
</mask>
<g mask="url(#mask0)">
<path d="M21.6109 15.6498C21.6109 13.5678 23.2986 11.88 25.3806 11.88H42.3445C44.4264 11.88 46.1142 13.5678 46.1142 15.6498V50.5199C46.1142 52.6019 44.4264 54.2897 42.3445 54.2897H25.3806C23.2986 54.2897 21.6109 52.6019 21.6109 50.5199V15.6498Z" fill="#51AAF4"/>
<path d="M23.0244 18.9482C23.0244 18.4277 23.4463 18.0057 23.9668 18.0057H43.758C44.2785 18.0057 44.7005 18.4277 44.7005 18.9482V48.1637C44.7005 48.6842 44.2785 49.1062 43.758 49.1062H23.9668C23.4463 49.1062 23.0244 48.6842 23.0244 48.1637V18.9482Z" fill="white"/>
<path d="M44.7005 18.9483C45.1717 13.0581 43.4439 12.1942 42.8156 11.88C45.0774 12.257 46.1141 14.0005 46.1141 15.6498V50.7555C45.8785 53.1116 44.3078 53.8185 43.5224 54.0541C44.4648 52.7347 44.9361 51.9336 44.7005 48.6351V18.9483Z" fill="#2886CE"/>
<path d="M30.5641 15.1785C30.5641 15.699 30.1421 16.121 29.6216 16.121C29.1011 16.121 28.6792 15.699 28.6792 15.1785C28.6792 14.658 29.1011 14.2361 29.6216 14.2361C30.1421 14.2361 30.5641 14.658 30.5641 15.1785Z" fill="#E2F2FC"/>
<path d="M31.5064 15.1785C31.5064 14.9182 31.7174 14.7073 31.9776 14.7073H38.1035C38.3637 14.7073 38.5747 14.9182 38.5747 15.1785C38.5747 15.4387 38.3637 15.6497 38.1035 15.6497H31.9776C31.7174 15.6497 31.5064 15.4387 31.5064 15.1785Z" fill="#E2F2FC"/>
<rect x="24.6208" y="20.9102" width="24.0803" height="8.02677" rx="1" fill="#FFE6CE"/>
<rect x="25.624" y="20.9102" width="23.077" height="7.02343" rx="1" fill="#FFB245"/>
<circle cx="31.1427" cy="24.4218" r="1.50502" fill="#FFE6CE"/>
<rect x="24.6208" y="30.9436" width="24.0803" height="15.0502" rx="1" fill="#FFE6CE"/>
<rect x="25.6241" y="30.9436" width="23.077" height="14.0469" rx="1" fill="#FFB245"/>
<path fill-rule="evenodd" clip-rule="evenodd" d="M32.648 37.5895C32.648 35.1478 34.6711 33.1624 37.1591 33.1624C39.6546 33.1624 41.6781 35.1475 41.6781 37.5895V42.0243H36.8749V42.0084C34.5152 41.8678 32.648 39.9394 32.648 37.5895ZM37.4278 41.4817H41.1252V37.5895C41.1252 35.4478 39.3499 33.7049 37.1591 33.7049C34.9765 33.7049 33.2008 35.4475 33.2008 37.5895C33.2008 39.7321 34.9694 41.4741 37.1514 41.4741H37.4278V41.4817Z" fill="#FFE6CE"/>
<path d="M38.2747 36.4538L37.7298 35.919L36.8891 36.7517L37.434 37.2865L38.2747 36.4538Z" fill="#FFE6CE"/>
<path d="M34.8106 35.9114C34.4292 36.2933 34.2502 36.9427 34.2502 36.9427L37.0993 39.7464L39.3567 37.5539L38.8196 37.0191L37.4184 38.44L34.8106 35.9114Z" fill="#FFE6CE"/>
<path d="M37.4184 40.0137L39.6292 40.1436V37.8289L37.4184 40.0137Z" fill="#FFE6CE"/>
<ellipse cx="35.1558" cy="24.4218" rx="1.50502" ry="1.50502" fill="#FFE6CE"/>
</g>
<path fill-rule="evenodd" clip-rule="evenodd" d="M13.0525 3.14457C11.5752 2.48633 9.92469 2.32326 8.34714 2.67968C6.76959 3.03611 5.34951 3.89294 4.29871 5.12238C3.2479 6.35182 2.62267 7.888 2.51625 9.50181C2.40984 11.1156 2.82795 12.7206 3.70822 14.0774C4.58849 15.4341 5.88376 16.47 7.40085 17.0305C8.91794 17.591 10.5756 17.6461 12.1265 17.1875C13.6775 16.7289 15.0386 15.7813 16.007 14.4859C16.9754 13.1906 17.4991 11.6169 17.5 9.99957V9.23338C17.5 8.77315 17.8731 8.40005 18.3333 8.40005C18.7936 8.40005 19.1667 8.77315 19.1667 9.23338V10.0001C19.1655 11.9768 18.5255 13.9006 17.3419 15.4839C16.1583 17.0671 14.4947 18.2253 12.5991 18.7858C10.7035 19.3462 8.67748 19.2789 6.82326 18.5939C4.96904 17.9089 3.38593 16.6428 2.31004 14.9845C1.23416 13.3262 0.723137 11.3646 0.853199 9.39215C0.98326 7.41971 1.74743 5.54216 3.03175 4.03951C4.31607 2.53686 6.05171 1.48963 7.97984 1.05399C9.90796 0.618361 11.9252 0.817669 13.7308 1.62219C14.1512 1.80951 14.3402 2.30216 14.1529 2.72255C13.9655 3.14294 13.4729 3.33189 13.0525 3.14457Z" fill="#22C34F"/>
<path fill-rule="evenodd" clip-rule="evenodd" d="M18.9223 2.74378C19.2479 3.06906 19.2481 3.59669 18.9229 3.92229L10.5895 12.264C10.4333 12.4204 10.2213 12.5083 10.0002 12.5083C9.77911 12.5084 9.56707 12.4206 9.41073 12.2643L6.91073 9.76426C6.5853 9.43882 6.5853 8.91118 6.91073 8.58574C7.23617 8.26031 7.76381 8.26031 8.08925 8.58574L9.9997 10.4962L17.7438 2.74437C18.069 2.41877 18.5967 2.41851 18.9223 2.74378Z" fill="#22C34F"/>
<defs>
<linearGradient id="paint0_linear" x1="34" y1="5.40002" x2="34" y2="48.6" gradientUnits="userSpaceOnUse">
<stop stop-color="#D0EDFF" stop-opacity="0.24"/>
<stop offset="1" stop-color="#9CD5FF"/>
</linearGradient>
</defs>
</svg>
