<svg width="152" height="163" viewBox="0 0 152 163" fill="none" xmlns="http://www.w3.org/2000/svg">
<path d="M107.671 117.478L38.5166 79.86C33.5957 77.1338 31.9055 75.648 26.344 76.3023L1.65802 79.2193C1.28575 79.2638 0.935261 79.4185 0.651526 79.6635C0.367791 79.9086 0.163757 80.2329 0.0656062 80.5947C-0.0325441 80.9565 -0.0203332 81.3394 0.100673 81.6943C0.22168 82.0491 0.44596 82.3597 0.744733 82.5862L49.8975 125.812L107.671 117.478Z" fill="#231F20"/>
<path d="M93.9583 0.139803C91.9456 -0.145955 89.8948 0.00750312 87.947 0.58963L53.024 11.0583C51.5572 11.4961 50.271 12.3962 49.3572 13.6244C48.4435 14.8525 47.951 16.3431 47.9533 17.8739V122.684C47.9535 123.326 48.1238 123.957 48.4471 124.513C48.7703 125.068 49.2348 125.528 49.7935 125.846L60.453 131.871L57.495 18.1193C61.6525 18.7599 68.0319 19.4824 70.5128 18.8417C74.3159 17.7512 99.8742 8.50932 101.769 7.93681C103.664 7.3643 102.505 1.3666 102.505 1.3666L93.9583 0.139803Z" fill="#179BDD"/>
<path d="M56.2137 126.555V19.51C56.2194 18.3665 56.5843 17.2538 57.257 16.3291C57.9297 15.4045 58.8761 14.7147 59.9623 14.3574L99.847 1.51687C100.656 1.26475 101.512 1.2045 102.348 1.3409C103.184 1.4773 103.977 1.8066 104.663 2.30268C105.35 2.79876 105.911 3.44798 106.303 4.19886C106.695 4.94974 106.907 5.78163 106.922 6.62855L107.671 112.583C107.672 113.715 107.321 114.819 106.667 115.742C106.012 116.666 105.086 117.362 104.018 117.736L63.3837 131.667C62.5694 131.937 61.7027 132.012 60.8542 131.884C60.0057 131.756 59.1993 131.43 58.5007 130.932C57.802 130.434 57.2307 129.778 56.8333 129.017C56.436 128.257 56.2237 127.413 56.2137 126.555Z" fill="#9FDFFF"/>
<path d="M61.639 120.544V23.6401C61.6182 22.6049 61.919 21.5888 62.5001 20.7318C63.0812 19.8749 63.9138 19.2193 64.8832 18.8556L98.2386 7.29638C101.237 6.26041 104.168 7.09191 104.182 10.4861L104.945 108.767C104.973 109.808 104.675 110.832 104.093 111.697C103.512 112.562 102.676 113.224 101.701 113.592L67.7458 125.328C67.0176 125.548 66.2473 125.589 65.4998 125.449C64.7523 125.308 64.0496 124.99 63.4509 124.521C62.8522 124.052 62.375 123.445 62.0597 122.753C61.7444 122.061 61.6001 121.303 61.639 120.544Z" fill="white"/>
<path d="M66.9142 73.2979L67.1187 82.8397C67.1379 83.4414 67.2997 84.0299 67.5907 84.5569C67.8818 85.0839 68.2938 85.5342 68.7928 85.8709C69.2918 86.2076 69.8637 86.421 70.4613 86.4936C71.0589 86.5662 71.6652 86.4958 72.2303 86.2884L98.6066 77.1964C99.3686 76.9337 100.028 76.4357 100.488 75.7741C100.949 75.1126 101.187 74.3219 101.169 73.516L100.856 61.5888" fill="#179BDD"/>
<path d="M70.7991 81.2449L72.6256 82.1173C73.2896 82.4334 74.0095 82.6155 74.744 82.6529C75.4785 82.6903 76.2131 82.5824 76.9058 82.3354L97.666 74.9746C97.8235 74.9429 97.9651 74.8577 98.0669 74.7335C98.1686 74.6092 98.2242 74.4536 98.2242 74.293C98.2242 74.1324 98.1686 73.9768 98.0669 73.8525C97.9651 73.7283 97.8235 73.6431 97.666 73.6114L95.4033 72.7799L70.7991 81.2449Z" fill="#E0E3F0"/>
<path d="M70.7991 79.7999V81.2448L74.3841 80.8631C74.4104 80.7776 74.4157 80.6869 74.3997 80.5988C74.3836 80.5108 74.3466 80.4279 74.2919 80.357C74.2371 80.2862 74.1661 80.2296 74.0849 80.192C74.0037 80.1543 73.9146 80.1367 73.8252 80.1407C73.0891 80.0998 70.7991 79.7999 70.7991 79.7999Z" fill="#E0E3F0"/>
<path d="M98.1295 72.7799L98.1431 74.2521L97.3116 74.2657L96.8618 73.4206L98.1295 72.7799Z" fill="#E0E3F0"/>
<path d="M70.7991 79.8L72.6256 80.6724C73.2896 80.9886 74.0095 81.1706 74.744 81.208C75.4785 81.2455 76.2131 81.1376 76.9058 80.8905L97.666 73.5024C97.8235 73.4708 97.9651 73.3856 98.0669 73.2614C98.1686 73.1371 98.2242 72.9815 98.2242 72.8209C98.2242 72.6603 98.1686 72.5046 98.0669 72.3804C97.9651 72.2561 97.8235 72.171 97.666 72.1393L95.4033 71.3351L70.7991 79.8Z" fill="white"/>
<path d="M98.1431 17.778C99.2723 17.778 100.188 16.4415 100.188 14.7928C100.188 13.1441 99.2723 11.8076 98.1431 11.8076C97.0138 11.8076 96.0984 13.1441 96.0984 14.7928C96.0984 16.4415 97.0138 17.778 98.1431 17.778Z" fill="#179BDD"/>
<path d="M71.8214 79.4458L76.4696 81.1088C76.8171 81.4308 77.0392 81.8654 77.0967 82.3356L79.4003 121.321L104.877 113.319L94.6536 78.0418L82.222 77.3602L75.1474 78.1917L71.8214 79.4458Z" fill="#231F20"/>
<path d="M99.2335 140.799L121.152 162.527L151.141 146.879C151.141 146.879 123.279 130.412 119.462 124.551C115.645 118.69 99.2335 140.799 99.2335 140.799Z" fill="#E2F2FC"/>
<path d="M114.078 100.479C113.056 122.861 123.62 128.654 123.62 128.654L99.4245 140.922C99.4245 140.922 88.9694 131.285 90.7414 110.443L114.078 100.479Z" fill="#E2F2FC"/>
<path d="M71.1943 78.5999L96.8618 69.5216C96.8618 69.5216 114.078 76.3372 114.078 100.423L90.7277 110.633C90.7277 110.633 94.7626 82.294 71.1943 78.5999Z" fill="#E2F2FC"/>
<path d="M71.1943 78.6005C71.1943 78.6005 74.3704 79.2412 75.7744 79.7319L98.5929 70.4355L96.9435 69.2359L71.1943 78.6005Z" fill="#231F20"/>
<path d="M70.7991 76.9917L72.6256 77.8641C73.2896 78.1803 74.0095 78.3623 74.744 78.3998C75.4785 78.4372 76.2131 78.3293 76.9058 78.0822L97.666 70.6942C97.8235 70.6625 97.9651 70.5773 98.0669 70.4531C98.1686 70.3288 98.2242 70.1732 98.2242 70.0126C98.2242 69.852 98.1686 69.6964 98.0669 69.5721C97.9651 69.4479 97.8235 69.3627 97.666 69.331L95.4033 68.5268L70.7991 76.9917Z" fill="#E0E3F0"/>
<path d="M70.7991 75.5334V76.9783L74.3841 76.5967C74.4104 76.5111 74.4157 76.4205 74.3997 76.3324C74.3836 76.2443 74.3466 76.1614 74.2919 76.0906C74.2371 76.0198 74.1661 75.9632 74.0849 75.9255C74.0037 75.8879 73.9146 75.8703 73.8252 75.8742C73.0891 75.8333 70.7991 75.5334 70.7991 75.5334Z" fill="#E0E3F0"/>
<path d="M98.1295 68.513L98.1431 69.9851L97.3116 70.0124L96.8618 69.1537L98.1295 68.513Z" fill="#E0E3F0"/>
<path d="M70.7991 75.5336L72.6256 76.4059C73.2896 76.7221 74.0095 76.9042 74.744 76.9416C75.4785 76.979 76.2131 76.8711 76.9058 76.624L97.666 69.2496C97.8235 69.218 97.9651 69.1328 98.0669 69.0085C98.1686 68.8843 98.2242 68.7286 98.2242 68.568C98.2242 68.4074 98.1686 68.2518 98.0669 68.1276C97.9651 68.0033 97.8235 67.9181 97.666 67.8865L94.9398 66.5234L70.7991 75.5336Z" fill="white"/>
<path d="M99.6378 137.674C99.6378 137.674 92.3078 130.46 92.6916 114.151L111.88 106.323C111.88 106.323 112.034 122.831 119.939 128.581L99.6378 137.674Z" fill="#2CAEFF"/>
<path d="M99.9336 134.947C99.8056 134.934 99.6878 134.869 99.6057 134.768C99.5236 134.666 99.4836 134.536 99.4944 134.404L100.257 125.406L104.584 127.417C104.357 124.393 104.292 121.358 104.39 118.327L104.481 117.228L110.333 123.54L110.062 120.272L114.221 122.402C114.278 122.432 114.329 122.472 114.37 122.522C114.412 122.572 114.443 122.629 114.463 122.691C114.483 122.753 114.49 122.819 114.485 122.884C114.481 122.949 114.463 123.012 114.434 123.07C114.406 123.129 114.366 123.181 114.317 123.223C114.269 123.265 114.213 123.298 114.152 123.318C114.092 123.338 114.028 123.346 113.964 123.341C113.901 123.336 113.839 123.318 113.782 123.289L111.198 121.966L111.573 126.306L105.346 119.584C105.269 122.826 105.644 128.145 105.644 128.211V129.045L101.109 126.888L100.463 134.484C100.458 134.55 100.441 134.614 100.411 134.673C100.382 134.733 100.342 134.785 100.293 134.828C100.243 134.871 100.186 134.904 100.125 134.924C100.063 134.945 99.9981 134.952 99.9336 134.947Z" fill="white"/>
<path d="M100.447 127.632C101.2 127.632 101.81 127.022 101.81 126.269C101.81 125.516 101.2 124.906 100.447 124.906C99.6939 124.906 99.0836 125.516 99.0836 126.269C99.0836 127.022 99.6939 127.632 100.447 127.632Z" fill="white"/>
<path d="M104.931 129.322C105.684 129.322 106.295 128.712 106.295 127.959C106.295 127.206 105.684 126.596 104.931 126.596C104.179 126.596 103.568 127.206 103.568 127.959C103.568 128.712 104.179 129.322 104.931 129.322Z" fill="white"/>
<path d="M104.686 119.18C105.439 119.18 106.049 118.57 106.049 117.817C106.049 117.064 105.439 116.454 104.686 116.454C103.933 116.454 103.323 117.064 103.323 117.817C103.323 118.57 103.933 119.18 104.686 119.18Z" fill="white"/>
<path d="M111.283 126.214C112.036 126.214 112.647 125.603 112.647 124.85C112.647 124.098 112.036 123.487 111.283 123.487C110.531 123.487 109.92 124.098 109.92 124.85C109.92 125.603 110.531 126.214 111.283 126.214Z" fill="white"/>
<path d="M96.1666 80.4271C95.937 80.5214 95.7139 80.6307 95.4987 80.7542C92.4453 82.5263 91.6002 86.7928 93.3586 90.6232L100.856 87.7879C99.4234 85.2534 97.8582 82.7964 96.1666 80.4271Z" fill="#FF8731"/>
<path d="M105.667 84.6393C103.486 80.8908 99.3835 79.1869 96.1256 80.4818C97.8296 82.8325 99.4084 85.2713 100.856 87.7881L93.3176 90.6779C93.4539 90.9642 93.563 91.2504 93.7266 91.523C96.0575 95.5442 100.542 97.2617 103.882 95.3534C107.221 93.445 107.985 88.606 105.667 84.6393Z" fill="white"/>
<path d="M141.94 148.297L144.83 146.797C144.83 146.797 127.723 135.892 125.746 134.066L123.647 135.047L141.94 148.297Z" fill="#FF8731"/>
<path d="M124.274 153.654L127 156.08L129.195 154.949L126.469 152.536L124.274 153.654Z" fill="#FF8731"/>
<path d="M131.212 144.712L138.3 150.164L140.808 148.801L133.461 143.458L131.212 144.712Z" fill="#FF8731"/>
<path d="M123.47 143.539L134.375 152.263L137.251 150.764L126.128 142.176L123.47 143.539Z" fill="#FF8731"/>
<path d="M113.464 148.705L123.006 158.097L125.814 156.638L115.673 147.546L113.464 148.705Z" fill="#FF8731"/>
<path d="M116.722 142.258L130.231 154.376L133.189 152.835L118.74 141.208L116.722 142.258Z" fill="#FF8731"/>
<path d="M140.577 86.9144C139.829 92.2054 134.969 95.8935 129.722 95.1518C124.475 94.4102 120.827 89.5197 121.575 84.2287C122.323 78.9376 127.183 75.2496 132.43 75.9913C137.677 76.7329 141.325 81.6234 140.577 86.9144Z" fill="#FFA84A"/>
<path d="M138.465 86.6169C137.717 91.9079 132.893 95.6011 127.691 94.8658C122.488 94.1305 118.877 89.2452 119.625 83.9541C120.373 78.6631 125.196 74.9699 130.399 75.7052C135.601 76.4405 139.213 81.3259 138.465 86.6169Z" fill="#FFE288"/>
<path d="M136.343 86.4001C135.756 90.5509 131.972 93.4481 127.891 92.8713C123.809 92.2944 120.976 88.462 121.563 84.3113C122.15 80.1605 125.934 77.2633 130.015 77.8401C134.096 78.417 136.929 82.2494 136.343 86.4001Z" fill="#FFC64A"/>
<path d="M128.66 88.0478L127.507 87.6381L127.168 85.3987C127.137 85.1867 127.066 85.0201 126.954 84.8987C126.842 84.7773 126.682 84.6795 126.473 84.6054L125.667 84.3185L124.841 86.6897L123.795 86.318L125.853 80.4109L128.421 81.3241C129.079 81.5583 129.526 81.8866 129.761 82.3093C130.004 82.7282 130.027 83.2198 129.83 83.784C129.673 84.2365 129.416 84.5658 129.061 84.7721C128.713 84.9748 128.295 85.0398 127.809 84.9673C128.087 85.1603 128.257 85.4688 128.319 85.8926L128.66 88.0478ZM127.33 83.9778C127.731 84.1202 128.05 84.1492 128.29 84.0647C128.531 83.9747 128.707 83.7705 128.817 83.4521C128.93 83.1281 128.919 82.8603 128.783 82.6487C128.649 82.4316 128.381 82.2517 127.981 82.1093L126.598 81.6176L125.947 83.4861L127.33 83.9778Z" fill="#FFE288"/>
<path d="M133.203 84.9456C133.548 85.0685 133.824 85.2672 134.031 85.5415C134.243 85.8178 134.366 86.1471 134.399 86.5294C134.44 86.908 134.386 87.3096 134.239 87.7341C134.091 88.1586 133.885 88.5028 133.62 88.7665C133.361 89.0323 133.067 89.2039 132.738 89.2814C132.408 89.359 132.068 89.3353 131.717 89.2104C131.432 89.109 131.198 88.9568 131.016 88.7539C130.834 88.551 130.72 88.3192 130.675 88.0584L129.931 90.195L128.902 89.8291L130.855 84.2237L131.867 84.5837L131.651 85.2037C131.852 85.0176 132.086 84.9031 132.354 84.8602C132.629 84.8137 132.912 84.8422 133.203 84.9456ZM131.729 88.3011C132.052 88.4162 132.344 88.3943 132.603 88.2352C132.863 88.0706 133.066 87.7816 133.21 87.3682C133.358 86.9437 133.382 86.5819 133.283 86.2829C133.183 85.9839 132.972 85.7769 132.648 85.6617C132.319 85.5447 132.024 85.5684 131.763 85.7331C131.507 85.8997 131.306 86.1952 131.158 86.6198C131.012 87.0387 130.987 87.3939 131.083 87.6854C131.184 87.9788 131.399 88.184 131.729 88.3011Z" fill="#FFE288"/>
<path d="M130.54 61.9286C131.334 65.8499 128.825 69.6673 124.936 70.4551C121.047 71.2428 117.251 68.7026 116.457 64.7813C115.662 60.86 118.171 57.0426 122.06 56.2548C125.949 55.4671 129.745 58.0073 130.54 61.9286Z" fill="#FFA84A"/>
<path d="M128.974 62.2454C129.769 66.1667 127.287 69.9786 123.431 70.7597C119.576 71.5407 115.806 68.995 115.012 65.0737C114.217 61.1524 116.699 57.3404 120.555 56.5594C124.41 55.7784 128.18 58.3241 128.974 62.2454Z" fill="#FFE288"/>
<path d="M127.422 62.6241C128.045 65.7003 126.099 68.6907 123.074 69.3034C120.049 69.9161 117.092 67.9191 116.469 64.8429C115.846 61.7667 117.793 58.7763 120.817 58.1636C123.842 57.5509 126.799 59.5479 127.422 62.6241Z" fill="#FFC64A"/>
<path d="M122.411 65.7061L121.496 65.7048L120.697 64.209C120.622 64.0672 120.53 63.9675 120.42 63.9097C120.311 63.852 120.174 63.823 120.008 63.8228L119.367 63.8219L119.377 65.7019L118.546 65.7007L118.522 61.0173L120.563 61.0202C121.086 61.0209 121.483 61.1411 121.755 61.3806C122.031 61.6157 122.17 61.9569 122.172 62.4042C122.174 62.7629 122.075 63.0595 121.876 63.294C121.681 63.524 121.402 63.6742 121.041 63.7445C121.285 63.8113 121.483 63.9865 121.632 64.2701L122.411 65.7061ZM120.456 63.1658C120.774 63.1662 121.007 63.1067 121.155 62.9874C121.302 62.8636 121.376 62.6755 121.374 62.423C121.373 62.1662 121.298 61.98 121.149 61.8647C121 61.7449 120.767 61.6848 120.448 61.6844L119.349 61.6828L119.357 63.1642L120.456 63.1658Z" fill="#FFE288"/>
<path d="M124.843 62.3814C125.117 62.3818 125.362 62.453 125.576 62.595C125.795 62.737 125.964 62.9388 126.083 63.2002C126.206 63.4572 126.269 63.7541 126.271 64.0906C126.272 64.4272 126.213 64.7216 126.092 64.9739C125.975 65.2262 125.811 65.4208 125.598 65.5578C125.385 65.6948 125.139 65.7631 124.86 65.7627C124.633 65.7624 124.43 65.7134 124.251 65.6157C124.072 65.518 123.933 65.3828 123.837 65.2099L123.845 66.9039L123.028 66.9027L123.005 62.4585L123.81 62.4597L123.812 62.9512C123.907 62.7698 124.044 62.6305 124.222 62.5333C124.405 62.4317 124.611 62.3811 124.843 62.3814ZM124.641 65.118C124.898 65.1184 125.098 65.0301 125.241 64.8531C125.384 64.6718 125.455 64.4172 125.453 64.0895C125.451 63.7529 125.378 63.4915 125.233 63.3053C125.088 63.1191 124.887 63.0258 124.63 63.0255C124.368 63.0251 124.166 63.1156 124.023 63.297C123.884 63.4784 123.816 63.7373 123.818 64.0739C123.819 64.4061 123.891 64.663 124.031 64.8448C124.176 65.0266 124.379 65.1177 124.641 65.118Z" fill="#FFE288"/>
<path d="M38.0044 107.224C39.0555 112.412 35.736 117.464 30.5901 118.506C25.4442 119.548 20.4206 116.187 19.3696 110.998C18.3185 105.81 21.638 100.758 26.7839 99.7159C31.9297 98.6735 36.9534 102.035 38.0044 107.224Z" fill="#FFA84A"/>
<path d="M35.9332 107.643C36.9842 112.832 33.7004 117.876 28.5985 118.909C23.4966 119.943 18.5086 116.574 17.4576 111.385C16.4065 106.197 19.6903 101.152 24.7922 100.119C29.8941 99.0855 34.8821 102.454 35.9332 107.643Z" fill="#FFE288"/>
<path d="M33.8797 108.144C34.7042 112.214 32.1281 116.171 28.1258 116.982C24.1234 117.793 20.2105 115.15 19.3859 111.08C18.5614 107.009 21.1375 103.052 25.1398 102.242C29.1422 101.431 33.0552 104.073 33.8797 108.144Z" fill="#FFC64A"/>
<path d="M27.2491 112.222L26.0374 112.221L24.9801 110.242C24.8811 110.054 24.7592 109.922 24.6146 109.845C24.47 109.769 24.288 109.731 24.0688 109.73L23.2206 109.729L23.2333 112.217L22.1342 112.215L22.1025 106.018L24.8028 106.022C25.4951 106.023 26.021 106.182 26.3803 106.499C26.7454 106.81 26.9294 107.261 26.9325 107.853C26.9349 108.328 26.8042 108.72 26.5404 109.031C26.2823 109.335 25.9141 109.534 25.4357 109.627C25.7592 109.715 26.02 109.947 26.2181 110.322L27.2491 112.222ZM24.6615 108.861C25.0827 108.862 25.391 108.783 25.5863 108.625C25.7816 108.461 25.8785 108.212 25.8768 107.878C25.875 107.538 25.7757 107.292 25.5787 107.139C25.3817 106.981 25.0727 106.901 24.6515 106.901L23.1975 106.899L23.2075 108.859L24.6615 108.861Z" fill="#FFE288"/>
<path d="M30.4661 107.823C30.8295 107.824 31.1531 107.918 31.4368 108.106C31.7262 108.294 31.9497 108.561 32.1073 108.907C32.2706 109.247 32.3534 109.639 32.3556 110.085C32.3579 110.53 32.2791 110.92 32.1193 111.254C31.9652 111.587 31.7473 111.845 31.4655 112.026C31.1837 112.207 30.8582 112.298 30.4889 112.297C30.1889 112.297 29.9203 112.232 29.6831 112.103C29.4458 111.974 29.2632 111.795 29.1351 111.566L29.1465 113.807L28.0647 113.806L28.0347 107.925L29.0992 107.927L29.1025 108.577C29.2282 108.337 29.409 108.153 29.6449 108.024C29.8865 107.89 30.1603 107.823 30.4661 107.823ZM30.199 111.444C30.5394 111.445 30.8042 111.328 30.9934 111.094C31.1826 110.854 31.276 110.517 31.2738 110.083C31.2715 109.638 31.1746 109.292 30.9829 109.046C30.7913 108.799 30.5252 108.676 30.1848 108.675C29.8386 108.675 29.571 108.795 29.3818 109.035C29.1984 109.275 29.1078 109.617 29.1101 110.063C29.1123 110.502 29.2064 110.842 29.3922 111.083C29.5839 111.323 29.8528 111.444 30.199 111.444Z" fill="#FFE288"/>
</svg>
