<svg width="307" height="201" viewBox="0 0 307 201" fill="none" xmlns="http://www.w3.org/2000/svg">
<mask id="mask0" mask-type="alpha" maskUnits="userSpaceOnUse" x="0" y="0" width="307" height="201">
<rect width="307" height="201" fill="#C4C4C4"/>
</mask>
<g mask="url(#mask0)">
<path opacity="0.3" d="M312.005 154.465C303.681 134.194 271.995 108.197 211.838 166.378C136.641 239.104 61.396 127.428 118.5 72.0402C175.603 16.6524 188.738 -8.14393 264.121 50.9399C278.298 65.3215 310.809 86.4143 327.438 55.7324C344.066 25.0505 361.092 37.0493 367.527 46.8839" stroke="white" stroke-width="4"/>
<path d="M39.9667 184.967L83.2673 178.529L71.8375 171.439C71.8375 171.439 71.4936 170.775 67.4861 173.727C63.4785 176.679 55.4634 178.529 52.3095 178.446C49.1557 178.363 44.4367 178.695 41.8164 181.315C39.1961 183.936 36.1726 183.556 39.9667 184.967Z" fill="#221F1F"/>
<path d="M118.766 141.762L206.217 121.724L211.464 125.514L117.865 145.9L118.766 141.762Z" fill="#116282"/>
<path d="M215.253 128.72L115.268 152.076L132.828 169.541L185.507 161.076L244.695 149.999" fill="#221F1F"/>
<path d="M136.835 36.7114C136.835 36.7114 133.847 39.2724 134.072 46.588C134.285 53.9035 129.519 56.1444 135.104 62.962C140.688 69.7915 130.717 68.5465 134.428 78.1385C138.554 88.8214 145.751 71.8664 145.751 71.8664C145.751 71.8664 149.889 62.3099 149.96 61.0768C150.031 59.8437 144.53 50.4769 144.15 49.0067C143.771 47.5365 145.099 39.4977 144.779 38.0274C144.447 36.5572 136.835 36.7114 136.835 36.7114Z" fill="#221F1F"/>
<path d="M130.872 138.24V108.053H134.772V138.501H130.872V138.24Z" fill="white"/>
<path d="M130.872 138.501L128.738 137.979V108.527L130.872 108.053V138.501Z" fill="#7880BC"/>
<path d="M55.369 116.708L176.177 156.214C176.177 156.214 165.921 150.855 164.237 149.017C162.553 147.18 72.3597 118.048 72.3597 118.048L55.369 114.266V116.708Z" fill="#221F1F"/>
<path d="M73.0588 119.197L58.2498 116.613C58.2498 116.613 59.3406 110.803 59.6489 110.424C59.9571 110.044 76.0348 112.19 76.0348 112.19L73.0588 119.197Z" fill="#5C659B"/>
<path d="M76.0817 187.137L258.688 160.785L251.109 155.538L76.0817 183.354V187.137Z" fill="#221F1F"/>
<path d="M143.737 173.11L114.059 144.465L107.657 146.765L136.955 174.841L143.737 173.11Z" fill="#221F1F"/>
<path d="M49.7483 156.416L103.483 145.034L134.144 138.465L135.709 141.939L102.036 149.112L48.9777 160.661L49.7483 156.416Z" fill="#221F1F"/>
<path d="M212.919 22.151C212.919 22.151 189.953 50.1683 189.87 49.943C189.798 49.7177 188.186 41.4418 189.407 39.3787C190.628 37.3157 197.754 27.3561 198.513 26.4431C199.272 25.5302 203.03 23.23 204.489 22.151C205.947 21.0839 206.635 20.5978 208.236 20.5978C209.836 20.6096 214.057 20.5978 214.057 20.5978L212.919 22.151Z" fill="#475084"/>
<path d="M177.054 24.0958L105.273 107.128C104.194 108.658 103.341 109.926 102.736 110.887C99.5703 115.938 100.234 119.495 102.297 121.961L188.626 22.5189C184.073 23.1473 179.935 23.7757 177.054 24.0958Z" fill="#F48B8D"/>
<path d="M173.65 24.2972C169.203 23.9889 168.136 25.7556 168.136 25.7556C168.136 25.7556 119.05 87.5525 105.272 107.128L177.052 24.0956C175.535 24.2616 174.349 24.3446 173.65 24.2972Z" fill="white"/>
<path d="M188.625 22.5189L102.285 121.961C104.218 124.285 107.372 125.648 109.707 126.395C143.665 89.9359 189.776 34.0673 200.435 21.0843C196.522 21.4518 192.42 21.9854 188.625 22.5189Z" fill="white"/>
<path d="M200.435 21.0845C189.776 34.0676 143.654 89.948 109.708 126.395C111.451 126.953 112.755 127.154 112.755 127.154C126.888 129.514 131.394 114.254 131.394 114.254L193.558 42.6162C193.558 42.6162 203.897 29.1708 206.304 25.7086C209.849 20.6102 212.541 20.7407 212.541 20.7407C209.233 20.4561 204.953 20.6577 200.435 21.0845Z" fill="#F48B8D"/>
<path opacity="0.16" d="M162.114 78.85C162.849 77.854 181.867 57.3302 186.503 42.7702C191.139 28.2102 173.295 28.4473 173.295 28.4473L145.123 61.0294L162.114 78.85Z" fill="#252628"/>
<path d="M81.904 175.754L49.3456 160.661L47.5552 164.633L78.181 179.786L81.904 175.754Z" fill="white"/>
<path d="M49.5464 162.333L83.2312 124.356L78.4055 122.482L49.7479 156.416L49.5464 162.333Z" fill="white"/>
<path d="M50.7792 154.934L50.0678 152.266L76.0339 122.482H78.4052" fill="white"/>
<path d="M176.175 155.444V67.2419H180.076V156.202H176.175V155.444Z" fill="white"/>
<path d="M176.176 156.202L174.03 154.673V68.6292L176.176 67.2419V156.202Z" fill="#7880BC"/>
<path d="M140.582 58.1361C141.021 55.0534 140.582 52.4923 140.582 52.4923C142.515 54.176 156.719 51.8995 156.719 51.8995C154.881 59.5589 158.13 64.7284 158.13 64.7284C158.13 64.7284 161.402 69.0798 156.541 67.242C151.68 65.4042 139.29 61.5745 139.29 61.5745L140.582 58.1361Z" fill="#FFEBE9"/>
<path d="M140.808 55.1958C140.808 55.1958 141.164 58.4564 139.077 61.0056C138.01 62.298 145.041 67.0407 152.997 64.4322C152.997 64.4322 153.305 57.2352 154.17 55.1958C155.048 53.1565 145.906 57.0929 140.808 55.1958Z" fill="#FBD9D4"/>
<path d="M124.813 121.131C124.813 124.949 127.552 111.574 136.385 108.053C143.262 105.314 148.277 94.7378 151.479 88.3945C151.301 82.644 151.526 69.0088 157.241 65.8075C157.241 65.8075 158.865 63.9697 161.557 63.7207C161.557 63.7207 161.557 63.7207 161.545 63.7207C160.739 63.7682 157.371 62.2149 156.34 62.2031C150.803 64.2661 133.599 69.9811 133.599 69.9811C134.583 67.4912 138.235 62.3809 139.752 60.3179C138.294 60.6261 136.207 60.1163 132.65 60.4602C128.975 60.8159 132.389 63.0568 124.599 67.7994C116.798 72.5421 118.209 81.0315 116.549 83.4384C112.091 89.9121 100.412 97.6071 100.483 96.8245C100.483 96.8245 101.159 104.128 111.118 106.571C111.095 106.594 124.813 107.756 124.813 121.131Z" fill="#1479CB"/>
<path d="M155.023 62.6538C151.442 63.7683 149.723 63.1281 149.723 63.1281C138.601 62.9265 139.882 60.2943 139.882 60.2943C139.834 60.3062 139.787 60.318 139.739 60.3299C138.222 62.3929 134.57 67.5032 133.586 69.9931C133.586 69.9931 149.485 64.7168 155.023 62.6538Z" fill="#FBD9D4"/>
<path d="M163.288 65.76C162.553 64.7641 161.07 65.2265 160.146 65.3095C163.394 65.1079 160.323 68.819 157.774 71.7832C156.328 73.4669 154.277 81.6361 150.067 89.9832C150.115 91.572 150.198 92.5561 150.198 92.5561C150.198 92.5561 160.893 82.8455 161.912 81.6717C162.932 80.4979 165.173 68.3211 163.288 65.76Z" fill="#1479CB"/>
<path d="M161.546 63.7322C158.854 63.9812 157.23 65.819 157.23 65.819C151.515 69.0203 151.29 82.6554 151.467 88.4059C155.677 80.0707 157.728 71.8896 159.174 70.2059C161.723 67.2536 164.806 63.5425 161.546 63.7322Z" fill="#2CAEFF"/>
<path d="M158.034 63.9816C158.034 63.9816 156.54 67.2421 155.129 68.416L151.726 67.6808L150.908 70.9177L133.585 69.9929" stroke="#084360" stroke-miterlimit="10" stroke-linecap="round"/>
<path d="M133.374 70.1824C133.374 70.1824 133.931 64.4911 135.603 62.3925L137.951 61.527L137.156 60.199C137.156 60.199 139.824 60.5785 140.061 60.2939" stroke="#084360" stroke-miterlimit="10" stroke-linecap="round"/>
<path d="M121.896 112.523C121.896 112.523 123.129 117.159 122.429 121.901C122.429 121.901 119.157 125.992 115.078 126.17C111.011 126.348 111.924 114.787 113.003 113.4C114.082 112.037 121.528 112.238 121.896 112.523Z" fill="#FBBDBE"/>
<path d="M209.601 162.724L74.8853 113.258C74.3161 113.044 73.6996 113.365 73.5336 113.946L72.7629 116.613L209.304 166.222L210.205 164.111C210.431 163.554 210.158 162.925 209.601 162.724Z" fill="white"/>
<path d="M72.762 116.613L72.347 118.083C72.1929 118.617 72.4774 119.174 72.9991 119.364L207.549 167.822C208.07 168.012 208.651 167.763 208.865 167.241L209.291 166.221L72.762 116.613Z" fill="#7880BC"/>
<path d="M147.756 57.5312C151.408 55.6934 152.653 52.4921 152.653 52.4921C152.653 52.4921 155.392 45.722 154.455 41.5247C153.53 37.3274 147.069 34.1617 144.555 34.3514C144.555 34.3514 140.381 34.7545 138.2 38.2048C135.615 42.2598 136.943 50.8678 137.524 52.5395C138.117 54.2113 139.397 55.895 139.966 57.0451C140.536 58.1952 141.282 59.6773 143.215 59.6535C145.148 59.6298 147.756 57.5312 147.756 57.5312Z" fill="#FBD9D4"/>
<path d="M158.663 39.4497C158.663 39.4497 160.857 42.2361 160.394 47.7138C159.932 53.2035 157.537 54.4128 159.636 56.7605C161.734 59.1081 169.026 68.9965 164.497 74.1898C164.497 74.1898 161.331 65.3684 155.189 67.0402L152.711 46.7179C152.711 46.7179 153.968 40.5524 153.921 39.9951C153.873 39.4379 152.557 38.2878 152.557 38.2878C152.557 38.2878 156.162 38.3471 158.663 39.4497Z" fill="#221F1F"/>
<path d="M146.688 36.6636C146.688 36.6636 148.751 38.6318 149.889 41.4419C152.509 47.88 151.371 77.9723 145.537 85.5961C145.537 85.5961 155.201 88.3113 161.911 77.1897C163.441 74.6524 163.737 69.6015 161.876 61.9776C161.295 59.5944 158.177 57.3298 157.631 54.8399C155.675 45.8407 156.683 37.0312 156.683 37.0312L146.688 36.6636Z" fill="#221F1F"/>
<path d="M164.793 64.9656C164.793 64.9656 160.691 56.903 158.225 55.1008" stroke="#656666" stroke-width="0.5" stroke-miterlimit="10" stroke-linecap="round"/>
<path d="M141.862 53.0023C139.965 53.7374 137.273 52.7058 138.625 51.3067L141.305 48.5323L141.862 53.0023Z" fill="url(#paint0_linear)"/>
<path d="M141.862 53.0262C140.558 52.3741 138.163 51.1529 139.953 49.8249C141.032 49.0068 141.649 47.7145 141.601 46.3628" fill="#FBD9D4"/>
<path d="M141.507 48.6391C141.353 48.9948 141.139 49.3268 140.879 49.6232C140.606 49.8959 140.321 50.1449 140.025 50.3702C139.811 50.5836 139.669 50.8089 139.764 51.0104C139.871 51.295 140.037 51.544 140.274 51.7456C140.831 52.208 141.412 52.6467 142.017 53.0379C141.294 52.8482 140.606 52.54 139.977 52.125C139.622 51.8878 139.337 51.5559 139.195 51.1527C139.053 50.6666 139.195 50.1449 139.574 49.8011C139.942 49.4572 140.203 49.3268 140.44 49.0659C140.677 48.8288 140.89 48.568 141.068 48.2834C141.436 47.6787 141.685 47.0029 141.803 46.3033C141.958 47.1215 141.851 47.9277 141.507 48.6391Z" fill="#D45E3F"/>
<path d="M145.003 47.9019C145.289 47.7704 145.396 47.3938 145.242 47.0607C145.089 46.7276 144.733 46.5641 144.448 46.6956C144.162 46.827 144.055 47.2036 144.208 47.5367C144.362 47.8699 144.718 48.0333 145.003 47.9019Z" fill="#201D1E"/>
<path d="M139.488 47.1272C139.774 46.9958 139.881 46.6192 139.728 46.2861C139.574 45.953 139.218 45.7895 138.933 45.9209C138.647 46.0524 138.54 46.429 138.694 46.7621C138.847 47.0952 139.203 47.2587 139.488 47.1272Z" fill="#201D1E"/>
<path d="M140.203 44.4178C138.413 43.6945 136.385 43.825 134.702 44.7972C136.907 42.6037 139.812 43.5523 140.547 43.8487C140.654 43.8842 140.701 43.9909 140.689 44.0977L140.678 44.1688C140.63 44.3822 140.405 44.5008 140.203 44.4178Z" fill="#201D1E"/>
<path d="M143.677 44.9989C145.551 44.5365 147.543 44.9515 149.072 46.149C147.199 43.671 144.187 44.2045 143.428 44.3824C143.322 44.4061 143.25 44.5009 143.25 44.6077V44.6788C143.262 44.9041 143.464 45.0582 143.677 44.9989Z" fill="#201D1E"/>
<path d="M143.761 53.844C143.761 53.844 144.116 55.6699 142.717 55.9664C140.962 56.3458 140.144 54.176 140.144 54.176C141.389 54.6147 142.871 54.1049 143.761 53.6899C143.761 53.7373 143.761 53.7847 143.761 53.844Z" fill="#91293C"/>
<path d="M140.132 54.1758C141.721 55.5275 143.796 54.1758 143.772 54.0217C143.749 53.8676 143.748 53.6779 143.748 53.6779C141.472 54.7331 140.132 54.164 140.132 54.1758Z" fill="white"/>
<path d="M62.7553 140.41L59.8742 150.571L83.5519 124.462L78.4061 122.482L62.7553 140.41Z" fill="#7880BC"/>
<path d="M176.175 94.6788C176.175 94.6788 180.135 91.857 180.135 91.8214C180.55 87.6834 180.076 65.6182 180.076 65.6182L176.175 70.9418V94.6788Z" fill="#7880BC"/>
<path d="M98.645 157.566L92.9538 158.55L114.711 133.248L117.865 135.228L98.645 157.566Z" fill="#7880BC"/>
<path d="M56.7321 113.626C60.4551 109.571 64.1781 110.934 64.1781 110.934L56.7321 113.626Z" fill="#221F1F"/>
<path d="M133.089 70.1824C133.089 70.1824 127.73 76.6087 126.141 84.9203" stroke="white" stroke-width="2" stroke-miterlimit="10" stroke-linecap="round"/>
<path d="M131.358 61.5271C131.37 61.6101 131.596 62.5823 131.596 62.5823C131.596 62.5823 132.639 62.8788 132.627 62.2503C132.615 61.5745 132.449 60.3296 132.283 60.1161C132.141 59.9027 131.335 61.3374 131.358 61.5271Z" fill="#FBD9D4"/>
<path d="M114.225 83.9834C114.225 83.9834 115.825 81.8136 117.722 81.0311C119.619 80.2485 121.896 81.3749 123.058 82.5013" fill="#221F1F"/>
<path d="M138.069 88.0622C138.069 88.0622 133.563 88.5839 130.291 84.9202L138.069 88.0622Z" fill="#221F1F"/>
<path d="M126.58 57.0454C126.58 57.0454 125.608 63.6139 126.853 65.8786L127.268 66.4833C128.311 68.0602 128.679 68.7242 128.679 68.7242C129.603 75.7908 132.828 82.549 136.03 89.0109C137.642 92.2122 141.851 96.3739 143.997 99.267C144.982 100.725 144.14 99.6227 145.61 100.607C146.57 101.093 149.772 100.856 152.617 98.4963C155.463 96.1487 149.285 88.7857 146.879 86.4618C145.764 85.4065 139.587 78.5415 137.121 74.6407C134.642 70.7042 133.469 67.8823 133.469 67.8823C133.469 67.8823 133.575 66.424 133.765 64.5269C134.05 62.3334 134.192 61.9066 134.038 59.6894C133.611 58.7764 128.003 55.4921 128.003 55.4921" fill="#FBD9D4"/>
<path d="M129.52 56.8319L129.46 54.8637C129.449 54.3776 129.247 53.927 128.891 53.5951L126.745 53.0259C126.745 53.0259 127.065 53.4291 126.745 54.1642C126.235 55.338 127.623 56.085 127.623 56.085L127.812 57.1995C127.836 57.1876 129.306 57.7093 129.52 56.8319Z" fill="#FBD9D4"/>
<path d="M134.038 59.7129L133.137 60.2702C132.9 60.4125 132.745 60.6615 132.722 60.9342L132.556 62.3214C132.52 62.5704 132.247 62.7245 132.022 62.5941C131.773 62.44 131.5 62.1198 131.429 61.444C131.275 60.0924 131.69 59.2505 131.69 59.2505L132.757 58.5154C132.9 58.4206 133.077 58.3969 133.232 58.468C133.457 58.5629 133.777 58.7407 133.943 59.0253C134.05 59.2031 134.109 59.4284 134.038 59.7129Z" fill="#FBD9D4"/>
<path d="M132.483 58.5512L131.736 59.1085C131.535 59.2626 131.404 59.4879 131.369 59.7369L131.167 61.4205C131.12 61.7881 130.657 61.9304 130.42 61.6458C130.242 61.4324 130.088 61.0648 130.041 60.4839C129.91 58.8951 130.349 57.8991 130.349 57.8991L131.286 57.1403C131.535 56.9387 131.89 56.915 132.163 57.1047C132.436 57.2944 132.72 57.5908 132.744 58.0414C132.744 58.2192 132.625 58.4445 132.483 58.5512Z" fill="#FBD9D4"/>
<path d="M132.483 58.5512L131.736 59.1085C131.535 59.2626 131.404 59.4879 131.369 59.7369L131.167 61.4205C131.12 61.7881 130.657 61.9304 130.42 61.6458C130.242 61.4324 130.088 61.0648 130.041 60.4839C129.91 58.8951 130.349 57.8991 130.349 57.8991L131.286 57.1403C131.535 56.9387 131.89 56.915 132.163 57.1047C132.436 57.2944 132.72 57.5908 132.744 58.0414C132.744 58.2192 132.625 58.4445 132.483 58.5512Z" stroke="#221F1F" stroke-width="0.5" stroke-miterlimit="10" stroke-linecap="round"/>
<path d="M130.73 57.3893L130.244 57.7569C129.876 58.0296 129.639 58.4446 129.58 58.907L129.425 60.2468C129.378 60.6262 128.904 60.7685 128.667 60.4721C128.489 60.2468 128.346 59.903 128.299 59.322C128.169 57.7332 128.607 56.7372 128.607 56.7372L129.544 55.9784C129.793 55.7768 130.149 55.7531 130.421 55.9428C130.694 56.1325 130.979 56.429 131.002 56.8795C130.991 57.0455 130.872 57.2826 130.73 57.3893Z" fill="#FBD9D4"/>
<path d="M130.73 57.3893L130.244 57.7569C129.876 58.0296 129.639 58.4446 129.58 58.907L129.425 60.2468C129.378 60.6262 128.904 60.7685 128.667 60.4721C128.489 60.2468 128.346 59.903 128.299 59.322C128.169 57.7332 128.607 56.7372 128.607 56.7372L129.544 55.9784C129.793 55.7768 130.149 55.7531 130.421 55.9428C130.694 56.1325 130.979 56.429 131.002 56.8795C130.991 57.0455 130.872 57.2826 130.73 57.3893Z" stroke="#221F1F" stroke-width="0.5" stroke-miterlimit="10" stroke-linecap="round"/>
<path d="M128.37 68.2139C128.37 68.2139 129.342 70.1584 132.591 68.5696C132.591 68.5696 129.946 70.1821 130.195 71.8539C130.433 73.5139 139.965 94.6424 148.502 94.678L144.222 99.5511C144.21 99.5392 131.334 91.6664 128.37 68.2139Z" fill="#E98961"/>
<path d="M122.537 57.3177L121.387 59.1199L122.655 58.7405L123.331 58.8235L126.663 59.2029L126.699 55.7882L126.663 55.6934L122.537 57.3177Z" fill="#221F1F"/>
<path d="M120.403 49.3387L120.486 55.6464C120.735 55.35 120.995 55.0773 121.292 54.8283C121.292 54.8283 125.169 53.4648 126.592 53.8679L126.532 53.038L120.403 49.3387Z" fill="#221F1F"/>
<path d="M121.387 48.8167L120.38 49.374L126.533 53.0258L126.581 53.9151C126.758 53.9506 126.924 54.0455 127.031 54.1996C127.636 55.326 126.782 55.6462 126.782 55.6462L126.664 55.6817L126.711 55.8121L126.664 59.2269L127.411 59.3099L127.873 59.6063L127.754 52.5041L121.387 48.8167Z" fill="#4F4F4F"/>
<path d="M74.1963 185.987C76.1408 188.109 77.2079 186.556 77.4687 186.212C78.2631 185.181 207.821 34.1385 218.741 21.4755C219.144 21.0131 219.097 20.3136 218.646 19.8986C218.172 19.4718 217.437 19.5192 217.022 19.9935L74.1963 185.987Z" fill="#7880BC"/>
<path d="M214.877 18.0488L72.6443 181.955C72.0396 182.655 72.0514 183.686 72.6798 184.362L74.1856 186.01L217.058 19.9577C217.462 19.4953 217.414 18.7958 216.964 18.3808L216.489 17.954C216.015 17.5271 215.292 17.5627 214.877 18.0488Z" fill="white"/>
<path d="M149.581 56.2747L147.625 57.5315C146.119 58.8476 144.874 59.1559 143.167 59.559C141.459 59.9621 140.641 58.1244 140.641 58.1244C140.641 58.1244 140.582 58.978 140.582 62.8789C140.57 62.8907 146.024 60.4601 149.581 56.2747Z" fill="#E98961"/>
<path d="M207.608 34.3519L218.469 138.845C218.469 138.845 218.421 142.07 220.745 141.441L209.268 32.5023L207.608 34.3519Z" fill="#7880BC"/>
<path d="M150.933 42.2599C151.087 44.6194 151.134 46.8603 151.123 49.208C151.111 51.5437 151.016 53.8795 150.814 56.2152C150.601 58.5392 150.293 60.8631 149.724 63.1395C149.439 64.2778 149.107 65.4042 148.633 66.4713C148.17 67.5384 147.589 68.5817 146.783 69.4236C147.542 68.5343 148.052 67.4791 148.467 66.4001C148.87 65.3212 149.143 64.1948 149.368 63.0565C149.807 60.7919 149.996 58.468 150.091 56.1678C150.174 53.8558 150.15 51.5437 150.044 49.2317C149.937 46.9196 149.759 44.6076 149.498 42.3311L150.933 42.2599Z" fill="#221F1F"/>
<path d="M42.0059 104.104C41.7688 104.009 42.5869 101.187 32.1293 98.7922C21.6718 96.3972 13.3247 92.3185 13.2417 92.2592C13.1587 92.1999 17.3559 94.7491 24.0787 96.8951C30.8014 99.0412 36.3385 104.353 37.2159 104.638C38.0814 104.922 42.0059 104.104 42.0059 104.104Z" fill="#404B77"/>
<path d="M60.4669 148.389C61.0123 143.445 66.0869 135.904 69.4779 113.969C70.4739 107.744 103.542 124.581 113.917 125.446C124.303 126.312 117.592 121.356 119.24 116.684C120.888 112.013 122.714 103.665 112.186 104.246C101.657 104.827 96.8787 94.7256 81.8919 92.2594C80.3624 92.0104 78.987 90.3149 77.5879 90.1252C65.5653 88.489 57.5264 88.323 55.4397 90.5757C50.8156 95.5793 51.3728 137.279 49.0489 153.724L51.9657 156.665L60.4669 148.389Z" fill="#FBD9D4"/>
<path d="M51.7995 89.082C63.7985 88.8686 70.9599 86.6395 70.9599 86.6395C96.7481 78.5059 95.2779 70.0402 95.2779 70.0402C95.2779 61.2781 88.8516 61.954 88.6263 61.9658C82.7217 63.2582 48.7168 80.8179 41.2234 84.2089C33.6588 87.6355 20.6046 92.5442 13.0875 89.2006C12.637 88.999 12.1271 88.9279 11.6291 89.0227C10.894 89.1532 10.1233 89.6393 10.6925 91.1688C11.6054 93.6231 18.3756 96.3383 21.6006 97.2394C25.6556 98.3658 30.6591 98.0457 34.0027 100.547C45.4681 106.037 37.3581 89.3429 51.7995 89.082Z" fill="#FBD9D4"/>
<path d="M97.0441 68.9848C97.0441 68.9848 95.6806 61.3728 89.0764 61.8945C88.9579 61.9063 88.8037 61.93 88.6377 61.9656C88.863 61.9419 95.2893 61.2661 95.2893 70.04C95.2893 70.04 96.7477 78.5057 70.9713 86.6393C70.9713 86.6393 63.8099 88.8803 51.8109 89.0818C37.3695 89.3308 45.4795 106.025 34.0378 100.559C34.4172 100.844 34.7729 101.164 35.1049 101.519C38.2706 104.97 41.875 103.274 42.7406 98.8399C43.6061 94.4173 46.7956 92.2001 49.2736 91.2042C51.7516 90.2082 74.3979 88.6313 79.8519 85.2758L81.7253 91.4887L97.8741 102.077C97.8741 102.077 99.2494 74.9605 97.0441 68.9848Z" fill="#E98961"/>
<path d="M105.996 99.3378C101.799 99.2429 98.4079 97.0376 95.7758 94.1446C93.4044 91.5361 93.0013 101.697 94.7324 102.539C96.4635 103.381 100.163 107.554 103.435 105.468C106.708 103.381 104.609 106.333 107.858 102.219C111.106 98.1166 105.996 99.3378 105.996 99.3378Z" fill="#FBBDBE"/>
<path d="M79.9351 91.2992L79.1644 86.2838C79.1644 86.2838 94.8033 83.8651 98.6212 80.6875C98.6212 80.6875 99.546 95.3186 100.364 99.836C100.993 103.31 80.7532 92.2122 79.9351 91.2992Z" fill="#535C9D"/>
<path d="M49.3217 151.602C48.3139 160.246 46.2271 175.849 39.4214 181.161C39.0064 181.481 38.6981 181.92 38.5321 182.417C38.295 183.164 38.3661 184.113 40.0498 184.338C42.765 184.706 48.6222 179.785 51.0528 177.248C54.4438 173.703 56.7558 168.166 61.6645 166.897C66.419 165.676 65.8618 160.898 62.7197 157.364C59.7319 153.997 60.1468 151.163 60.4551 148.377C60.4788 148.27 49.4403 150.57 49.3217 151.602Z" fill="#FBD9D4"/>
<path d="M125.678 114.562C127.516 120.479 125.892 122.553 120.509 126.597C117.07 129.169 112.541 126.952 106.055 124.498C85.4011 116.673 74.4456 113.839 74.4456 113.839C74.4456 113.839 76.3426 101.579 72.6671 89.0939C72.6671 89.0939 93.1435 91.489 115.292 103.986C120.675 107.021 122.714 110.033 123.864 111.278C125.18 112.701 125.05 112.546 125.678 114.562Z" fill="#535C9D"/>
<path d="M124.813 119.743C124.623 106.677 117.415 103.203 112.885 99.8829C112.707 99.7525 107.739 98.8277 107.526 98.7803C106.103 98.4957 105.119 98.7803 105.119 98.7803C105.119 98.7803 105.167 99.5035 104.586 99.5984" fill="#535C9D"/>
<path d="M79.7928 90.386C79.7928 90.386 93.0248 92.2238 102.095 96.8479L79.1644 86.2954L79.7928 90.386Z" fill="#221F1F"/>
<path d="M99.368 90.7775C99.368 90.7775 99.8423 93.9551 99.8067 95.5676L99.368 90.7775Z" fill="#221F1F"/>
<path d="M72.7978 89.5446C72.7978 89.5446 73.9123 105.954 71.7307 112.724C71.7307 112.724 73.1772 112.831 74.5051 113.128C74.5051 113.116 75.7382 98.9351 72.7978 89.5446Z" fill="#221F1F"/>
<path d="M44.7444 94.4525C44.7444 94.4525 47.1039 91.0734 54.3958 89.0815" stroke="#D45E3F" stroke-width="2" stroke-miterlimit="10" stroke-linecap="round"/>
<path d="M126.995 117.882C125.038 110.471 118.304 103.784 118.304 103.784C126.129 112.333 125.24 122.245 125.24 122.245C125.24 122.245 126.236 120.799 126.995 117.882Z" fill="#221F1F"/>
<path d="M76.5087 86.6396C76.5087 86.6396 81.0023 85.9638 82.9113 82.6202L76.5087 86.6396Z" fill="#221F1F"/>
<path d="M69.7268 113.115C69.7268 113.115 67.6163 130.533 62.2571 142.211C62.2571 142.211 58.7831 151.128 61.0596 154.934C61.0596 154.934 58.0243 151.59 58.961 145.65C59.8976 139.71 65.7074 117.609 64.8656 115.095C64.8656 115.107 68.7309 112.688 69.7268 113.115Z" fill="#E98961"/>
<path d="M111.948 99.6583C111.948 99.6583 112.66 99.7294 112.873 99.8835C112.873 99.8835 110.763 100.725 110.134 101.389" stroke="#221F1F" stroke-miterlimit="10" stroke-linecap="round"/>
<path d="M99.3802 76.4308L102.748 98.5554L96.3212 96.0892L99.3802 76.4308Z" fill="#535C9D"/>
<path d="M47.4006 149.693C55.8781 149.8 62.1503 149.29 62.7194 145.662L70.6159 113.245L76.734 114.194C76.734 114.194 76.319 91.1683 73.9358 89.2713C73.9358 89.2713 57.4669 87.2319 55.2971 89.9827C53.8743 91.773 51.3252 105.064 51.005 116.506C50.6968 127.924 47.4006 149.693 47.4006 149.693Z" fill="#535C9D"/>
<path d="M44.3063 79.9048C44.3063 79.9048 46.4049 89.817 48.7881 92.5085C48.7881 92.5085 50.614 91.0027 54.503 90.9197C58.392 90.8367 79.7458 86.1533 79.7458 86.1533C79.7458 86.1533 94.0568 84.6949 99.9852 80.6755C99.9852 80.6755 98.8232 69.72 95.8828 64.8232C92.8 59.6774 86.4567 62.3926 85.5082 62.8075" fill="#535C9D"/>
<path d="M70.628 113.234C70.628 113.234 65.8142 111.811 61.6288 112.606L70.628 113.234Z" fill="#221F1F"/>
<path d="M70.5569 113.53C70.5569 113.53 65.0672 113.246 61.6288 117.953L70.5569 113.53Z" fill="#221F1F"/>
<path d="M79.1644 86.2839C79.1644 86.2839 85.235 85.9757 90.9499 80.8417L79.1644 86.2839Z" fill="#221F1F"/>
<path d="M78.9279 86.2839C78.9279 86.2839 81.7379 85.2405 83.5876 78.5652L78.9279 86.2839Z" fill="#221F1F"/>
<path d="M60.5973 148.247C60.5973 148.247 56.4356 152.148 49.0607 153.713L49.5231 149.717C49.5231 149.705 56.3881 149.895 60.5973 148.247Z" fill="#221F1F"/>
<path d="M48.2423 91.7736C48.2423 91.7736 43.0253 89.8647 41.4247 84.126L44.8987 82.4305C44.8987 82.4305 46.7365 89.0703 48.2423 91.7736Z" fill="#221F1F"/>
<path d="M42.9425 97.9389C32.7576 98.0101 18.1739 92.722 16.6326 91.2281C15.0793 89.7341 15.2809 90.1373 18.4111 90.3151C21.5294 90.493 24.8255 89.746 24.8255 89.746C21.3989 90.5285 14.0122 88.9753 11.5579 88.7619C9.38814 88.5722 9.72013 90.3625 9.82684 90.8131C9.85055 91.9632 11.5105 93.6705 11.5105 93.6705C12.542 94.8681 15.0912 96.8363 21.233 98.4725C25.2761 99.5514 29.2836 101.97 38.4607 106.286C39.2669 106.665 40.1918 106.665 40.9032 106.286C40.9624 106.31 40.998 106.322 40.998 106.322C41.0692 106.25 41.1284 106.179 41.1877 106.12C41.4841 105.907 41.7331 105.622 41.8991 105.254C41.9465 105.16 41.9821 105.077 42.0058 104.982C42.0177 104.946 42.0177 104.911 42.0177 104.863C43.0255 102.622 42.9425 97.9389 42.9425 97.9389Z" fill="#221F1F"/>
<path d="M62.1264 156.416C57.4193 166.174 45.5507 177.639 43.3928 178.41C41.2349 179.192 41.721 179.192 43.3573 176.288C44.9816 173.383 45.8235 169.897 45.8235 169.897C44.9579 173.537 40.0255 179.856 38.6739 182.109C37.4882 184.089 39.3497 184.611 39.824 184.706C40.9385 185.227 49.0603 184.113 52.4869 177.402C54.5144 173.43 59.7313 171.118 68.9439 165.486C70.8291 164.336 68.363 160.554 68.3274 160.542C66.6437 158.526 62.1264 156.416 62.1264 156.416Z" fill="#221F1F"/>
<path d="M99.2972 96.5637C99.2972 96.5637 111.877 100.133 118.303 111.361L99.2972 96.5637Z" fill="#221F1F"/>
<path d="M136.029 37.7191C136.029 37.7191 140.974 31.1742 145.918 30.8066C150.862 30.4391 157.229 31.933 159.992 42.5092" fill="#221F1F"/>
<path d="M150.743 38.1342C151.68 38.6915 161.426 45.9004 152.783 45.1771C144.139 44.4657 141.009 38.5729 141.009 38.5729C141.009 38.5729 146.214 35.4428 150.743 38.1342Z" fill="#221F1F"/>
<path d="M141.009 38.5842C141.009 38.5842 137.499 40.422 136.74 43.398C135.981 46.3741 135.993 40.9437 136.017 40.4457C136.041 39.9359 138.934 36.7583 139.289 36.7465C139.645 36.7346 141.009 38.5842 141.009 38.5842Z" fill="#221F1F"/>
<path d="M161.911 77.1897C161.911 77.1897 164.733 72.6486 161.911 64.5031" stroke="#656666" stroke-width="0.5" stroke-miterlimit="10" stroke-linecap="round"/>
<path d="M120.38 49.386L126.533 53.0379V67.586L120.403 64.776L120.38 49.386Z" fill="#221F1F"/>
<path d="M120.38 49.3858L121.387 48.8286L127.766 52.5041V66.412L126.533 67.5858V53.0377L120.38 49.3858Z" fill="#4F4F4F"/>
<path d="M120.923 58.0303C120.283 58.7654 119.714 59.548 119.216 60.3898C119.062 60.6269 118.896 60.8878 118.718 61.1723L119.643 61.7652L121.492 61.2079L121.658 61.1486L122.666 59.5717L126.271 58.1607L126.52 58.0659C126.52 58.0659 127.219 57.7576 126.626 56.7972C126.531 56.6668 126.389 56.5719 126.235 56.5482C125.049 56.2281 121.611 57.39 121.611 57.39C121.35 57.6035 121.113 57.8406 120.911 58.1014L120.923 58.0303Z" fill="#FBD9D4"/>
<path d="M121.516 61.1842L119.666 61.7415L118.742 61.1487C117.342 63.4963 115.434 67.2193 114.876 68.6184C114.319 70.0174 113.821 70.9185 113.821 70.9185C113.821 70.9185 108.675 82.0994 108.794 90.1619C108.829 92.3673 108.948 89.3082 110.015 90.7429L110.667 91.9286C113.252 89.1897 115.896 89.9603 117.947 87.2926L116.702 86.6523C116.88 85.0636 117.283 83.4629 117.224 81.8504C117.212 81.3406 117.236 80.7833 117.283 80.2379C117.331 79.6925 117.354 79.2656 117.402 78.7795C117.663 76.3608 118.172 74.1554 118.172 74.1554C118.516 73.5626 118.955 73.0409 119.477 72.614C120.022 72.0449 120.461 71.3928 120.793 70.6933C120.982 70.3969 121.16 70.1123 121.291 69.804C121.457 69.5313 121.694 69.2942 121.967 69.1163C122.476 68.8081 123.046 68.6065 123.638 68.5472C123.638 68.5472 125.298 68.6658 126.65 68.5946C126.982 68.5828 127.326 68.5472 127.646 68.4879C127.753 68.4761 127.847 68.4524 127.954 68.4286C129.092 68.0848 128.227 67.2667 128.12 67.0888C128.262 67.0888 128.405 67.0651 128.535 67.0058C128.915 66.8517 129.211 66.5672 129.353 66.1996L126.887 64.5989L123.188 63.271L123.354 60.8285L122.761 60.7574L121.658 61.0894L121.492 61.1487L121.516 61.1842Z" fill="#FBD9D4"/>
<path d="M126.212 61.1842L123.307 60.8522L123.141 63.2947C123.141 63.2947 126.567 63.8046 128.049 63.9824C128.607 64.1247 129.152 63.7927 129.271 63.2473C129.306 63.0932 129.294 62.939 129.259 62.7849L126.864 61.2554L126.212 61.1842Z" fill="#FBD9D4"/>
<path d="M108.592 91.5726C108.592 91.5726 108.628 90.1023 108.628 89.8652C108.616 88.1223 109.161 80.4036 114.046 70.195C114.046 70.195 114.544 72.5308 117.354 73.9061C117.354 73.9061 116.038 74.1196 114.781 73.4319C113.525 72.7442 112.505 85.5494 114.094 87.482C115.706 89.4147 108.592 91.5726 108.592 91.5726Z" fill="#E98961"/>
<path d="M114.047 70.1953C114.047 70.1953 116.027 65.334 118.291 61.9075C118.291 61.9075 113.098 70.7407 116.406 73.3492C116.406 73.3492 114.58 73.029 114.39 72.1872C114.201 71.3572 114.047 70.1953 114.047 70.1953Z" fill="#E98961"/>
<path d="M122.144 60.9824C122.144 60.9824 120.425 61.2551 119.666 61.7412C119.666 61.7412 121.598 59.5714 122.144 59.1683C122.144 59.1683 126.045 58.4095 126.317 57.4728C126.543 56.7258 126.211 56.5836 126.211 56.5836C126.211 56.5836 127.005 56.7021 126.768 57.7337C126.744 57.8522 126.661 57.9471 126.554 58.0064C126.448 58.0656 126.305 58.1368 126.187 58.1724C125.985 58.2435 122.677 59.5477 122.677 59.5477C122.677 59.5477 121.836 60.7097 122.144 60.9824Z" fill="#E98961"/>
<path d="M119.678 61.7412C119.678 61.7412 120.983 61.0654 122.761 60.769L126.863 61.2551L129.259 62.7846C129.259 62.7846 129.342 63.2589 129.128 63.579C128.915 63.8991 128.606 64.0177 128.203 64.0058C128.203 64.0058 123.579 63.1996 122.654 63.4249" stroke="#221F1F" stroke-width="0.5" stroke-miterlimit="10" stroke-linecap="round"/>
<path d="M123.638 63.4014L126.887 64.6108L129.353 66.1877C129.353 66.1877 129.258 67.0177 128.12 67.077L125.488 66.3893C125.488 66.3893 123.662 66.0336 122.594 66.7924" stroke="#221F1F" stroke-width="0.5" stroke-miterlimit="10" stroke-linecap="round"/>
<path d="M128.12 67.0769C128.12 67.0769 128.903 67.7527 128.345 68.2151C127.788 68.6894 123.958 68.476 123.638 68.5234C123.318 68.5708 121.919 68.8317 121.291 69.7921" stroke="#221F1F" stroke-width="0.5" stroke-miterlimit="10" stroke-linecap="round"/>
<path d="M118.434 63.0925C118.434 63.0925 118.339 63.6379 118.6 63.8277" stroke="#221F1F" stroke-width="0.5" stroke-miterlimit="10" stroke-linecap="round"/>
<path d="M119.631 64.7645C119.631 64.7645 119.477 65.6419 119.916 65.962" stroke="#221F1F" stroke-width="0.5" stroke-miterlimit="10" stroke-linecap="round"/>
<path d="M120.401 67.5986C120.401 67.5986 120.413 68.4997 120.899 68.725" stroke="#221F1F" stroke-width="0.5" stroke-miterlimit="10" stroke-linecap="round"/>
<path d="M117.059 84.138C117.059 84.138 111.783 89.6513 105.392 93.813C99.0017 97.9866 109.127 95.8405 112.305 95.9235C115.482 96.0065 120.498 97.3108 120.628 93.7063C120.747 90.1138 121.316 88.0033 119.941 86.699C118.577 85.4067 117.059 84.138 117.059 84.138Z" fill="#1479CB"/>
<path d="M106.34 92.1649C106.34 92.1649 113.478 90.3627 118.991 90.8014L106.34 92.1649Z" fill="#1479CB"/>
<path opacity="0.16" d="M173.295 28.4472C173.295 28.4472 167.509 27.6054 164.794 29.9767L158.391 38.0748C158.391 38.0748 159.85 41.6318 160.229 43.5526L173.295 28.4472Z" fill="#252628"/>
<path d="M133.137 60.2703C132.9 60.4125 132.745 60.6615 132.722 60.9342L132.556 62.3215C132.52 62.5705 132.247 62.7246 132.022 62.5942C131.773 62.44 131.5 62.1199 131.429 61.4441C131.275 60.0924 131.69 59.2506 131.69 59.2506L132.757 58.5155C132.757 58.5155 133.184 58.1598 133.872 58.9186" stroke="#221F1F" stroke-width="0.5" stroke-miterlimit="10" stroke-linecap="round"/>
<path d="M133.942 59.0256C133.942 59.0256 134.072 59.4761 133.871 59.8674" stroke="#221F1F" stroke-width="0.5" stroke-miterlimit="10" stroke-linecap="round"/>
<path d="M129.495 55.9899C129.495 55.9899 129.507 54.8516 129.377 54.3537C129.246 53.8438 128.903 53.5948 128.903 53.5948L128.12 53.3814" stroke="#221F1F" stroke-width="0.5" stroke-miterlimit="10" stroke-linecap="round"/>
<path d="M115.553 71.6055C112.529 70.3013 103.898 66.3174 101.882 65.3926C101.621 65.274 101.455 65.0132 101.443 64.7286L100.981 44.098C100.969 43.5408 101.55 43.1614 102.06 43.3985C105.154 44.8806 113.833 49.0067 116.098 49.813C116.394 49.9197 116.596 50.2042 116.596 50.5244V70.906C116.596 71.4514 116.039 71.8189 115.553 71.6055Z" fill="#68C7C8"/>
<path d="M157.051 105.622C153.719 104.188 144.246 99.8126 142.041 98.7929C141.756 98.6625 141.566 98.3779 141.566 98.0578L141.057 75.3997C141.045 74.7832 141.685 74.3682 142.242 74.6409C145.645 76.2653 155.178 80.8064 157.668 81.6956C158 81.8142 158.213 82.1225 158.213 82.4663V104.864C158.201 105.468 157.597 105.86 157.051 105.622Z" fill="#FFD36A"/>
<path d="M93.7002 77.2372C89.4555 75.3995 77.3973 69.8387 74.5754 68.5463C74.2078 68.3803 73.9707 68.0128 73.9707 67.6215L73.3305 38.7624C73.3186 37.9798 74.1248 37.4581 74.8362 37.7901C79.1639 39.865 91.317 45.6392 94.4827 46.7775C94.8977 46.9316 95.1823 47.3229 95.1823 47.7616V76.2769C95.1704 77.0238 94.3997 77.5337 93.7002 77.2372Z" fill="#FF8731"/>
<path d="M109.885 54.9346C107.739 53.7134 105.486 54.0454 104.775 55.7171C104.04 57.4601 105.237 60.0093 107.455 61.3965C108.486 62.0486 109.565 62.3332 110.49 62.2739L108.51 58.1715L109.885 54.9346Z" fill="white"/>
<path d="M110.94 62.2143C111.794 62.0484 112.47 61.5504 112.814 60.756C113.525 59.0723 112.446 56.6536 110.383 55.2308L109.079 58.3016L110.94 62.2143Z" fill="white"/>
<path d="M79.1056 62.9854V50.109L81.9867 51.354V64.2896L79.1056 62.9854Z" fill="white"/>
<path d="M83.1133 64.7284L85.8048 65.9022V58.3495L83.1133 56.986V64.7284Z" fill="white"/>
<path d="M86.8362 66.3525V61.6454L89.1483 62.8311V67.3604L86.8362 66.3525Z" fill="white"/>
<path d="M143.961 93.1843L154.573 97.7373" stroke="white" stroke-width="2" stroke-miterlimit="10" stroke-linecap="round"/>
<path d="M144.72 94.6907V82.0989" stroke="white" stroke-width="2" stroke-miterlimit="10" stroke-linecap="round"/>
<path d="M148.798 93.1724C149.132 93.1724 149.403 92.9017 149.403 92.5677C149.403 92.2337 149.132 91.963 148.798 91.963C148.464 91.963 148.194 92.2337 148.194 92.5677C148.194 92.9017 148.464 93.1724 148.798 93.1724Z" fill="white"/>
<path d="M147.98 91.1803C148.314 91.1803 148.585 90.9096 148.585 90.5756C148.585 90.2417 148.314 89.9709 147.98 89.9709C147.646 89.9709 147.375 90.2417 147.375 90.5756C147.375 90.9096 147.646 91.1803 147.98 91.1803Z" fill="white"/>
<path d="M152.118 89.7812C152.452 89.7812 152.723 89.5105 152.723 89.1765C152.723 88.8426 152.452 88.5718 152.118 88.5718C151.784 88.5718 151.513 88.8426 151.513 89.1765C151.513 89.5105 151.784 89.7812 152.118 89.7812Z" fill="white"/>
<path d="M153.328 92.8289C153.662 92.8289 153.933 92.5582 153.933 92.2243C153.933 91.8903 153.662 91.6196 153.328 91.6196C152.994 91.6196 152.724 91.8903 152.724 92.2243C152.724 92.5582 152.994 92.8289 153.328 92.8289Z" fill="white"/>
<path d="M155.012 90.9311L153.376 92.3302L152.084 89.1763L148.871 92.6266L147.993 90.6347L144.875 93.5751" stroke="white" stroke-miterlimit="10" stroke-linecap="round"/>
<path d="M154.11 90.7302H155.296L155.011 92.1293" stroke="white" stroke-miterlimit="10" stroke-linecap="round"/>
</g>
<defs>
<linearGradient id="paint0_linear" x1="137.222" y1="53.7359" x2="140.758" y2="51.2898" gradientUnits="userSpaceOnUse">
<stop offset="0.22" stop-color="#D7916B" stop-opacity="0"/>
<stop offset="0.99" stop-color="#A5525B"/>
</linearGradient>
</defs>
</svg>
