<svg width="362" height="44" viewBox="0 0 362 44" fill="none" xmlns="http://www.w3.org/2000/svg">
<mask id="mask0" mask-type="alpha" maskUnits="userSpaceOnUse" x="0" y="0" width="362" height="44">
<rect width="362" height="44" fill="#C4C4C4"/>
</mask>
<g mask="url(#mask0)">
<path opacity="0.6" d="M2 1.69873V29.5082V45.0229H419.28V29.5082C409.677 23.7511 396.804 12.1475 355.668 12.1475C319.276 12.1475 283.142 39.7537 180.563 38.8755C98.5 38.173 27.3281 13.7983 2 1.69873Z" fill="white"/>
<path d="M2 12.1222V29.8952V39.8106L209.989 45.9998L419.28 39.8106V29.8952L419.171 29.8533C409.531 26.1599 390.322 18.8 355.668 18.8C326.137 18.8 276.572 40.3718 173.994 39.8106C91.9307 39.3616 27.3281 19.855 2 12.1222Z" fill="white"/>
</g>
</svg>
