<svg width="270" height="270" viewBox="0 0 270 270" fill="none" xmlns="http://www.w3.org/2000/svg">
<g clip-path="url(#clip0)">
<path d="M25.7094 201.444C23.1575 201.949 17.6286 204.183 15.1831 205.236H128.101C128.845 205.236 130.908 203.846 133.205 198.283C136.076 191.329 130.653 182.163 119.808 175.842C108.962 169.52 117.256 164.463 117.256 155.613C117.256 146.763 109.281 151.504 105.135 154.349C100.988 157.194 103.859 167.94 99.3931 162.883C94.9275 157.826 97.1603 153.401 87.272 154.349C77.3837 155.297 85.0392 148.028 81.2114 138.229C77.3837 128.431 73.8749 144.867 73.237 153.401C72.599 161.935 68.7713 156.878 62.3918 158.774C56.0122 160.67 58.883 170.469 53.7794 171.101C48.6757 171.733 49.3137 169.836 48.3568 172.997C47.3998 176.158 43.8911 175.526 36.2356 175.842C28.5802 176.158 39.4254 188.801 34.9597 195.438C30.494 202.076 28.8991 200.811 25.7094 201.444Z" fill="#F4F6FF"/>
<path d="M210.734 112.429C206.674 109.607 209.042 84.7454 210.734 72.6671L224.373 71.3845L227.544 82.9283L226.276 94.1515L230.399 102.168L238.646 108.902L239.597 104.413L243.403 99.9234H247.844L257.042 102.168C258.84 103.664 262.752 108.453 264.02 115.636C265.606 124.614 259.263 117.239 257.042 112.429C254.822 107.619 255.774 114.353 252.602 114.353C249.43 114.353 247.844 97.0374 245.624 106.657C243.403 116.277 235.791 115.636 231.668 114.353C227.544 113.071 230.716 121.728 227.544 131.669C224.373 141.61 222.152 127.18 222.469 115.636C222.787 104.092 215.809 115.957 210.734 112.429Z" fill="#F4F6FF"/>
<path d="M108.284 105.054C112.09 92.5482 113.993 112.429 120.02 112.429C124.723 112.429 122.161 102.256 120.168 96.7971C118.511 94.2961 121.916 90.3571 123.826 88.7002C124.249 89.5553 125.856 91.5221 128.901 92.5482C132.707 93.8308 132.39 96.3961 131.755 99.9234C131.248 102.745 133.024 103.451 133.976 103.451L138.099 105.054V109.223L141.271 112.429L146.346 114.995L151.104 114.033V115.636C151.738 123.332 139.051 119.484 133.976 121.408C128.901 123.332 135.879 125.576 135.879 128.142C135.879 130.707 129.218 129.424 127.949 133.914C126.681 138.403 120.02 145.457 112.09 139.365C104.161 133.272 108.284 141.93 101.623 150.588C94.9624 159.246 94.9624 141.93 94.9624 131.669C94.9624 123.46 101.517 125.042 104.795 126.859C104.689 123.759 105.239 115.059 108.284 105.054Z" fill="#F4F6FF"/>
<path d="M268.704 111.143C266.446 111.726 265.789 111.96 264.682 113.799C264.227 114.554 264.088 114.82 263.257 114.82C261.154 114.82 260.172 109.595 259.566 107.875C257.885 103.1 255.08 101.217 250.429 101.217C247.928 101.217 246.444 98.9356 244.103 98.6634C243.36 98.5771 242.592 98.4949 242.423 99.4192C242.019 101.64 241.783 101.228 240.256 102.892C239.773 103.418 238.966 104.135 238.714 104.832C238.403 105.689 238.826 107.3 238.226 107.977C237.423 108.881 232.732 104.273 232.27 103.831C229.676 101.348 227.265 97.3228 227.233 93.5775C227.169 86.0548 228.238 78.3468 225.144 71.3341C224.662 70.2421 218.294 71.0685 217.119 71.0685C214.169 71.0685 214.043 72.0075 211.964 69.8022C210.002 67.7195 208.499 65.2456 206.849 62.8983C206.166 61.9263 204.554 59.8688 203.51 59.3647C201.217 58.2576 197.219 59.8348 194.86 60.0592C191.812 60.3491 190.564 61.6775 189.706 64.8183C189.413 65.8915 188.925 67.4623 188.925 68.4949" stroke="#E1E5F1" stroke-linecap="round" stroke-linejoin="round"/>
<path d="M188.674 79.3624C188.674 83.1639 189.897 88.8503 186.942 91.9541C185.979 92.9657 184.661 93.5446 183.78 94.6233C182.522 96.1642 182.193 98.125 182.149 100.063C182.05 104.404 182.357 111.482 177.637 113.755C174.82 115.113 175.516 108.321 174.616 106.502C174.296 105.854 172.41 105.684 171.716 105.483C168.945 104.682 165.105 105.402 162.21 105.402C160.759 105.402 159.672 105.554 159.672 107.235" stroke="#E1E5F1" stroke-linecap="round" stroke-linejoin="round"/>
<path d="M154.353 110.105C151.447 111.959 147.791 114.928 144.057 113.604C141.637 112.746 138.551 113.396 137.539 110.641C136.959 109.065 136.442 107.896 136.442 106.216C136.442 104.6 133.557 103.167 132.137 103.068C127.326 102.731 131.64 97.7295 130.147 95.2065C128.722 92.8014 125.447 91.03 123.343 89.2181C122.823 88.77 122.416 87.9979 121.617 88.2921C120.187 88.819 118.896 91.9557 118.896 93.4367" stroke="#E1E5F1" stroke-linecap="round" stroke-linejoin="round"/>
<path d="M115.35 93.5453C109.26 93.5453 103.124 93.6467 97.0354 93.9111C96.4136 93.9381 96.254 102.978 96.2214 103.423C96.0412 105.881 96.125 108.976 93.4945 110.17C92.0837 110.811 90.4943 111.645 88.9768 111.918C87.4756 112.188 85.3139 113.361 85.3139 114.926C85.3139 120.953 85.7495 128.087 82.587 133.543C81.0362 136.218 78.6646 135.926 76.3193 137.282C74.5414 138.31 72.9218 139.01 71.0283 139.64" stroke="#E1E5F1" stroke-linecap="round" stroke-linejoin="round"/>
<path d="M64.8235 140.526C63.0276 141.116 59.3697 141.878 58.7497 144.086C58.0936 146.422 57.9894 149.024 57.5186 151.409C57.0993 153.533 56.6088 156.094 55.6718 158.037C54.5812 160.298 53.8306 160.478 51.6911 161.514C50.0305 162.318 48.8566 164.109 47.0947 164.46" stroke="#E1E5F1" stroke-linecap="round" stroke-linejoin="round"/>
<path d="M42.6625 165.347C36.3084 166.506 32.3017 168.333 29.3895 174.085C28.1371 176.558 27.4189 179.092 26.44 181.669C25.9648 182.921 24.9638 183.783 24.3097 184.926C23.6403 186.096 23.4019 187.458 22.7325 188.648C21.5716 190.711 20.6084 192.625 19.8034 194.877C19.0522 196.979 16.531 198.123 14.8261 199.367C12.5104 201.058 9.14669 199.394 6.81719 201.026C4.84069 202.411 3.36672 205.344 1 206.123" stroke="#E1E5F1" stroke-linecap="round" stroke-linejoin="round"/>
<path d="M197.789 223.869C199.807 224.398 201.966 225.313 203.865 224.13C204.134 223.962 204.514 224.07 204.757 224.223C206.204 225.134 207.632 226.433 209.452 226.492C212.059 226.575 214.681 226.492 217.291 226.492" stroke="#E1E5F1" stroke-linecap="round" stroke-linejoin="round"/>
<path d="M207.54 224.756C210.633 222.219 213.549 218.62 217.772 218.553C220.145 218.515 221.932 219.051 223.883 220.565C224.97 221.408 226.157 222.126 227.385 222.711C228.104 223.053 228.751 223.298 229.303 223.922C229.88 224.575 231.981 224.226 232.784 224.111C234.422 223.878 236.211 223.612 237.805 223.155C239.351 222.712 241.09 222.872 242.575 223.467C243.414 223.803 244.247 224.116 245.154 224.156C245.449 224.169 245.534 224.096 245.657 224.356" stroke="#E1E5F1" stroke-linecap="round" stroke-linejoin="round"/>
<path d="M265.158 225.982C259.212 225.541 253.163 225.375 247.303 226.46C243.556 227.153 239.649 226.718 235.906 227.415" stroke="#E1E5F1" stroke-linecap="round" stroke-linejoin="round"/>
<path d="M65.71 225.033C61.4012 224.398 57.1956 223.852 52.8525 223.852C51.1768 223.852 49.6283 224.27 47.9763 224.486C46.6201 224.664 43.6958 224.565 42.6626 225.624" stroke="#E1E5F1" stroke-linecap="round" stroke-linejoin="round"/>
<path d="M10.751 217.771C17.3301 217.221 24.8909 215.438 31.139 218.533" stroke="#E1E5F1" stroke-linecap="round" stroke-linejoin="round"/>
<path d="M24.9341 217.438C28.8797 216.436 32.6144 215.773 35.6568 212.687C37.7046 210.61 39.9885 210.555 42.6201 210.555C43.0975 210.555 43.1947 211.119 43.3891 211.505C43.8391 212.401 44.6875 213.146 45.3542 213.846C46.0129 214.538 47.4437 215.709 48.4193 215.758C50.1509 215.845 52.8712 215.059 54.2399 216.488C55.1165 217.403 55.695 217.647 56.8458 217.647" stroke="#E1E5F1" stroke-linecap="round" stroke-linejoin="round"/>
<path d="M83.3594 149.953L82.4956 149.089" stroke="white"/>
<path d="M81.6319 150.817L80.7681 149.953" stroke="white"/>
<path d="M79.9043 151.68L79.0405 149.953" stroke="white"/>
<path d="M72.1656 73.1577C72.1656 79.7226 67.2707 81.3638 64.8232 81.3638C70.6971 81.3638 72.1656 86.8346 72.1656 89.5699C72.1656 83.005 77.0605 81.3638 79.5079 81.3638C73.634 80.2696 72.1656 75.4371 72.1656 73.1577Z" fill="#FFC369"/>
<path d="M140.217 48C140.217 51.6567 137.475 52.5708 136.104 52.5708C139.395 52.5708 140.217 55.618 140.217 57.1416C140.217 53.485 142.96 52.5708 144.331 52.5708C141.04 51.9614 140.217 49.2697 140.217 48Z" fill="#FFC369"/>
<path d="M189.125 74.5108C189.125 79.2645 185.468 80.4529 183.64 80.4529C188.028 80.4529 189.125 84.4142 189.125 86.3949C189.125 81.6413 192.782 80.4529 194.61 80.4529C190.222 79.6606 189.125 76.1614 189.125 74.5108Z" fill="#FFC369"/>
<path d="M92.3032 215.919H208.426" stroke="#E8EAF2"/>
<path d="M258.397 196.982C259.445 191.426 260.246 185.704 262.46 180.465C263.367 178.316 264.094 176.099 265.019 173.957C266.071 171.52 266.971 168.947 267.916 166.464C268.008 166.221 268.847 164.422 268.657 164.167C268.567 164.047 268.445 164.379 268.352 164.495C268.116 164.79 267.834 165.04 267.6 165.337C265.453 168.068 263.742 171.452 262.253 174.58C260.848 177.53 259.931 180.683 258.702 183.703C257.937 185.584 257.317 187.494 256.72 189.434C256.217 191.069 255.524 192.647 255.217 194.334C255.084 195.063 254.831 195.774 254.574 196.467C254.404 196.929 254.034 198.254 253.899 197.78C253.765 197.31 253.924 195.703 253.932 195.45C253.995 193.332 254.048 191.2 254.313 189.095C254.68 186.186 255.366 183.24 255.957 180.366C256.58 177.341 257.333 174.188 258.985 171.539C259.885 170.097 260.316 168.451 261.131 166.967C261.651 166.02 261.624 164.623 262.318 163.795C263.238 162.697 261 166.342 260.314 167.602C259.035 169.95 257.647 172.194 256.535 174.635C255.837 176.167 255.074 177.667 254.324 179.174C253.382 181.066 253.028 183.207 252.352 185.201C251.352 188.156 250.739 191.097 250.12 194.159C249.869 195.401 249.183 196.892 249.183 198.163" stroke="#E1E5F1" stroke-width="0.5" stroke-linecap="round" stroke-linejoin="round"/>
<path d="M250.123 196.39C250.123 189.6 249.543 182.121 250.99 175.461C251.844 171.528 252.208 167.536 253.265 163.641C253.91 161.265 254.071 158.766 254.76 156.419C255.163 155.05 255.389 154.054 255.389 152.602C255.389 151.489 255.29 152.379 255.074 152.906C254.436 154.467 253.868 155.99 253.33 157.591C251.834 162.038 250.081 166.16 249.191 170.82C248.056 176.765 246.901 183.025 246.613 189.081C246.58 189.776 246.223 190.42 246.223 191.12C246.223 191.777 245.833 192.1 245.833 192.725C245.833 193.904 245.638 195.053 245.638 196.195" stroke="#E1E5F1" stroke-width="0.5" stroke-linecap="round" stroke-linejoin="round"/>
<path d="M245.637 180.922C245.188 176.356 244.788 171.628 242.997 167.395C242.093 165.258 240.694 163.459 239.57 161.467C239.41 161.182 238.282 159.224 238.603 160.44C238.762 161.042 238.744 161.618 238.744 162.242C238.744 163.04 239.143 163.58 239.298 164.338C239.732 166.454 240.137 168.813 240.921 170.812C241.855 173.192 241.682 176.231 241.838 178.771C241.902 179.804 242.159 180.825 242.191 181.861C242.203 182.244 242.132 182.606 242.332 182.931C242.635 183.424 242.372 185.031 242.372 185.54C242.372 186.88 242.279 188.265 242.382 189.602C242.506 191.205 243.461 195.895 243.461 194.286" stroke="#E1E5F1" stroke-width="0.5" stroke-linecap="round" stroke-linejoin="round"/>
<path d="M242.092 188.374C240.801 184.238 239.348 180.008 236.675 176.55C235.827 175.452 234.915 174.484 234.02 173.439C233.852 173.243 233.228 171.837 233.228 172.778C233.228 174.01 233.934 174.805 234.469 175.888C236.469 179.937 238.137 184.058 239.116 188.472C239.552 190.437 240.165 192.599 240.165 194.617" stroke="#E1E5F1" stroke-width="0.5" stroke-linecap="round" stroke-linejoin="round"/>
<path d="M239.433 194.45C237.448 191.458 235.205 187.089 231.999 185.395C231.472 185.117 231.148 185.096 230.742 184.627C230.451 184.291 229.27 182.911 228.805 183.114C228.641 183.186 230.621 185.528 230.742 185.658C233.839 188.981 236.606 193.205 236.606 198.163" stroke="#E1E5F1" stroke-width="0.5" stroke-linecap="round" stroke-linejoin="round"/>
<path d="M249.183 169.601C248.051 165.543 246.507 161.642 244.783 157.792C244.104 156.276 243.044 154.944 242.285 153.461C242.23 153.353 241.091 151.55 241.215 152.215C241.306 152.704 241.522 153.026 241.745 153.44C243.334 156.39 244.302 159.31 245.486 162.44C246.025 163.866 245.875 165.715 245.875 167.214C245.875 168.251 246.027 169.281 246.07 170.32C246.131 171.823 246.264 173.515 246.264 175.115" stroke="#E1E5F1" stroke-width="0.5" stroke-linecap="round" stroke-linejoin="round"/>
<path d="M258.646 170.212C259.792 167.389 260.289 164.301 261.527 161.527C262.703 158.891 263.872 156.253 265.117 153.625C265.571 152.666 265.968 151.389 266.025 150.333C266.037 150.11 265.703 150.944 265.626 151.062C264.701 152.485 263.875 154.151 262.635 155.351C260.897 157.032 259.496 159.309 258.125 161.28C256.735 163.28 256.005 165.988 254.302 167.767C252.068 170.102 251.087 173.048 250.07 176.002" stroke="#E1E5F1" stroke-width="0.5" stroke-linecap="round" stroke-linejoin="round"/>
<path d="M185.36 199.049L269.571 199.049" stroke="#E8EAF2" stroke-width="2" stroke-linecap="round"/>
<path d="M193.295 190.03C189.878 195.161 192.685 198.181 194.515 199.049H211.598C212.818 197.847 215.868 192.035 215.462 183.216C215.055 174.398 204.683 180.41 206.514 174.398C208.344 168.385 208.954 165.579 203.26 163.174C197.565 160.769 202.039 160.168 199.599 156.159C197.159 152.151 194.515 157.562 194.515 160.168C194.515 162.773 198.176 163.374 196.549 166.982C194.922 170.59 189.227 176.201 189.838 180.41C190.448 184.619 197.565 183.617 193.295 190.03Z" fill="#E1E5F1"/>
<path d="M195.997 154.728C199.382 164.976 205.635 188.189 203.564 199.049" stroke="white" stroke-width="0.5"/>
<path d="M189.792 176.888C191.855 178.116 193.623 179.146 195.899 179.74C196.685 179.945 197.48 180.028 198.265 180.204C199.165 180.405 199.971 180.429 200.911 180.429C201.425 180.429 201.94 180.441 202.453 180.429C203.09 180.414 203.736 179.798 204.17 179.361C204.779 178.749 205.476 178.087 205.748 177.268" stroke="white" stroke-width="0.5" stroke-linecap="round" stroke-linejoin="round"/>
<path d="M202.202 177.775C203.768 176.929 204.99 176.036 205.983 174.559C206.281 174.114 206.634 173.905 206.634 173.343" stroke="white" stroke-width="0.5" stroke-linecap="round" stroke-linejoin="round"/>
<path d="M205.748 164.478C205.049 165.657 204.416 166.854 203.765 168.054C203.572 168.408 203.233 168.635 203.04 168.98C202.821 169.372 202.762 169.708 202.424 170.007C202.076 170.315 201.804 170.683 201.316 170.683" stroke="white" stroke-width="0.5" stroke-linecap="round" stroke-linejoin="round"/>
<path d="M195.997 168.754C197.26 168.853 198.513 168.91 199.777 168.91C200.657 168.91 202.076 168.03 202.585 167.068C202.932 166.415 203.512 165.987 203.896 165.391C204.193 164.931 204.485 163.838 204.861 163.592" stroke="white" stroke-width="0.5" stroke-linecap="round" stroke-linejoin="round"/>
<path d="M195.997 166.833C197.172 167.004 198.344 167.181 199.529 167.128C200.459 167.087 201.123 165.686 202.011 165.286C202.849 164.909 203.264 164.018 203.975 163.592" stroke="white" stroke-width="0.5" stroke-linecap="round" stroke-linejoin="round"/>
<path d="M188.906 178.661C190.114 179.469 191.336 180.239 192.585 180.977C193.566 181.556 194.616 181.778 195.675 182.142C196.881 182.556 198.127 182.823 199.389 182.997C200.602 183.165 201.866 183.062 203.089 183.062" stroke="white" stroke-width="0.5" stroke-linecap="round" stroke-linejoin="round"/>
<path d="M203.975 191.958C206.714 189.284 209.724 186.644 211.765 183.277C212.448 182.15 213.328 180.838 213.726 179.548" stroke="white" stroke-width="0.5" stroke-linecap="round" stroke-linejoin="round"/>
<path d="M221.696 191.924C224.31 195.883 222.163 198.213 220.763 198.883H207.698C206.764 197.955 204.431 193.471 204.742 186.667C205.053 179.863 212.986 184.502 211.586 179.863C210.186 175.224 209.72 173.059 214.075 171.204C218.43 169.348 215.008 168.884 216.875 165.792C218.741 162.699 220.763 166.874 220.763 168.884C220.763 170.894 217.963 171.358 219.208 174.142C220.452 176.925 224.807 181.255 224.341 184.502C223.874 187.749 218.43 186.976 221.696 191.924Z" stroke="#E1E5F1" stroke-width="0.5"/>
<path d="M219.133 164.687C216.537 172.694 211.743 190.83 213.331 199.316" stroke="#E1E5F1" stroke-width="0.5"/>
<path d="M224.375 181.569C222.737 182.618 221.333 183.498 219.526 184.006C218.902 184.181 218.271 184.252 217.647 184.402C216.932 184.574 216.292 184.594 215.546 184.594C215.138 184.594 214.729 184.605 214.321 184.594C213.815 184.582 213.302 184.055 212.957 183.682C212.474 183.158 211.92 182.593 211.705 181.893" stroke="#E1E5F1" stroke-width="0.5" stroke-linecap="round" stroke-linejoin="round"/>
<path d="M220.006 175.407C218.948 175.471 217.898 175.509 216.839 175.509C216.102 175.509 214.913 174.935 214.486 174.309C214.196 173.884 213.709 173.605 213.387 173.217C213.139 172.917 212.894 172.206 212.579 172.046" stroke="#E1E5F1" stroke-width="0.5" stroke-linecap="round" stroke-linejoin="round"/>
<path d="M220.006 173.987C219.041 174.113 218.078 174.242 217.105 174.203C216.341 174.173 215.796 173.147 215.066 172.854C214.378 172.578 214.036 171.926 213.452 171.613" stroke="#E1E5F1" stroke-width="0.5" stroke-linecap="round" stroke-linejoin="round"/>
<path d="M225.25 183.3C224.281 183.931 223.303 184.533 222.302 185.109C221.517 185.562 220.676 185.735 219.827 186.019C218.862 186.343 217.864 186.552 216.853 186.688C215.881 186.819 214.869 186.739 213.889 186.739" stroke="#E1E5F1" stroke-width="0.5" stroke-linecap="round" stroke-linejoin="round"/>
<path d="M223.939 194.122C221.856 194.444 219.773 194.935 217.665 194.935C216.763 194.935 215.861 194.935 214.96 194.935C214.342 194.935 213.615 195.057 213.005 194.929C212.806 194.887 212.207 194.621 212.142 194.471" stroke="#E1E5F1" stroke-width="0.5" stroke-linecap="round" stroke-linejoin="round"/>
<path d="M95.0255 180.646C95.0255 180.646 86.059 197.09 84.6565 204.884L83.1248 208.54L66.7624 209.637L65.1986 206.188C64.9377 202.297 62.9834 195.232 62.0389 192.185C64.964 193.411 67.9187 200.379 69.0304 203.71C70.1372 199.016 65.8896 187.781 63.6275 182.75C68.0626 185.296 72.3978 194.304 74.011 198.49C75.1416 194.15 73.5928 183.415 72.6771 178.59C75.8661 181.842 77.2673 190.16 77.7815 197.262C78.9362 189.285 83.5477 181.39 86.3861 177.671C83.1328 182.154 82.1086 197.799 82.0032 205.062C82.9183 192.207 91.066 183.428 95.0255 180.646Z" fill="white"/>
<path d="M49 109.575L197.479 131.043L217.407 151.268L49 109.575Z" fill="#C88500"/>
<path d="M49 109.575L197.787 131.026L190.869 160.26L49 109.575Z" fill="#FBAF18"/>
<path d="M137.918 82.8139L142.347 85.5342C144.613 86.9261 144.13 90.3503 141.567 91.0613L131.863 93.7537C131.036 93.983 130.151 93.8529 129.426 93.3953L125.077 90.6531C122.841 89.2437 123.34 85.8513 125.886 85.1448L135.511 82.4744C136.326 82.2484 137.198 82.3714 137.918 82.8139Z" fill="#9ACEF5"/>
<path d="M126.224 85.0511L122.007 86.2209L130.54 91.3564L144.972 87.1547L142.345 85.5143L133.046 88.2917C131.873 88.6173 131.522 88.2539 131.427 88.1486L126.224 85.0511Z" fill="#76BAED"/>
<path d="M122 86.0256L108.94 89.649C107.32 90.0985 106.371 91.7761 106.821 93.3961L119.181 137.946C119.63 139.566 121.308 140.515 122.928 140.065L172.794 126.23C174.414 125.78 175.363 124.103 174.913 122.483L164.334 84.3498C163.884 82.7298 162.206 81.7809 160.586 82.2303L132.493 90.0247C131.701 90.2446 130.853 90.1344 130.143 89.719L124.351 86.3312C123.641 85.9159 122.793 85.8056 122 86.0256Z" fill="#3F99DD"/>
<path d="M114.711 100.487C114.486 99.6768 114.961 98.838 115.771 98.6132L124.571 96.1717C125.381 95.947 126.22 96.4214 126.444 97.2314L127.462 100.898C127.686 101.708 127.212 102.547 126.402 102.772L117.602 105.213C116.792 105.438 115.953 104.963 115.728 104.153L114.711 100.487Z" fill="white"/>
<path d="M139.171 107.521C139.003 106.914 139.359 106.285 139.966 106.116L153.166 102.454C153.774 102.285 154.403 102.641 154.571 103.249C154.74 103.856 154.384 104.485 153.776 104.654L140.577 108.316C139.969 108.485 139.34 108.129 139.171 107.521Z" fill="#CBE9FF"/>
<path d="M140.291 111.555C140.122 110.947 140.478 110.318 141.085 110.15L154.285 106.487C154.893 106.319 155.522 106.675 155.69 107.282C155.859 107.89 155.503 108.519 154.896 108.687L141.696 112.349C141.088 112.518 140.459 112.162 140.291 111.555Z" fill="#CBE9FF"/>
<path d="M148.009 113.757C147.841 113.149 148.197 112.52 148.804 112.352L155.404 110.52C156.012 110.352 156.641 110.708 156.809 111.315C156.978 111.923 156.622 112.552 156.014 112.72L149.414 114.552C148.807 114.72 148.178 114.364 148.009 113.757Z" fill="#CBE9FF"/>
<path d="M95.9417 101.399L96.9821 103.357C97.5145 104.358 96.5966 105.513 95.5004 105.221L91.3493 104.113C90.9957 104.018 90.6983 103.779 90.5304 103.454L89.5238 101.505C89.0065 100.503 89.9234 99.3636 91.0126 99.6544L95.1298 100.753C95.4783 100.846 95.7724 101.08 95.9417 101.399Z" fill="#9ACEF5"/>
<path d="M91.1572 99.6929L89.3535 99.2115L91.3813 102.945L97.5976 104.52L96.9862 103.349L92.9657 102.36C92.4638 102.226 92.4133 102.016 92.4011 101.957L91.1572 99.6929Z" fill="#76BAED"/>
<path d="M89.3931 99.1379L83.8065 97.6468C83.1135 97.4618 82.4018 97.8737 82.2168 98.5667L77.1304 117.623C76.9454 118.316 77.3572 119.028 78.0502 119.213L99.3812 124.907C100.074 125.092 100.786 124.68 100.971 123.987L105.325 107.675C105.51 106.982 105.098 106.27 104.405 106.085L92.3877 102.878C92.0486 102.787 91.7606 102.563 91.5892 102.257L90.1915 99.7586C90.0202 99.4523 89.7322 99.2284 89.3931 99.1379Z" fill="#3F99DD"/>
<path d="M83.5855 102.881C83.678 102.534 84.0338 102.328 84.3803 102.421L88.1446 103.425C88.4911 103.518 88.697 103.874 88.6045 104.22L88.1859 105.789C88.0934 106.135 87.7375 106.341 87.391 106.249L83.6268 105.244C83.2803 105.151 83.0744 104.796 83.1668 104.449L83.5855 102.881Z" fill="white"/>
<path d="M91.0609 110.756C91.1303 110.497 91.3972 110.342 91.6571 110.412L97.3035 111.919C97.5634 111.988 97.7178 112.255 97.6484 112.515C97.5791 112.775 97.3122 112.929 97.0523 112.86L91.4059 111.353C91.146 111.283 90.9916 111.016 91.0609 110.756Z" fill="#CBE9FF"/>
<path d="M90.6 112.482C90.6694 112.222 90.9363 112.067 91.1961 112.137L96.8426 113.644C97.1024 113.713 97.2569 113.98 97.1875 114.24C97.1181 114.5 96.8512 114.654 96.5914 114.585L90.9449 113.078C90.6851 113.008 90.5306 112.742 90.6 112.482Z" fill="#CBE9FF"/>
<path d="M92.9628 114.96C93.0321 114.701 93.299 114.546 93.5589 114.616L96.3821 115.369C96.642 115.438 96.7964 115.705 96.7271 115.965C96.6577 116.225 96.3908 116.38 96.1309 116.31L93.3077 115.557C93.0479 115.487 92.8934 115.22 92.9628 114.96Z" fill="#CBE9FF"/>
<path d="M49 109.575L171.303 138.809L190.429 160.26L49 109.575Z" fill="#C88500"/>
<path d="M78.4304 113.662L77.2041 117.75L100.912 123.881L102.138 119.385L78.4304 113.662Z" fill="#328ACE"/>
<path d="M120.532 142.275L114.81 121.837L163.043 128.786L120.532 142.275Z" fill="#328ACE"/>
<path d="M49 109.575L171.626 138.792L147.818 167.618L49 109.575Z" fill="#FFC654"/>
<path d="M174.766 188.763C174.638 188.74 174.446 188.704 174.329 188.616L156.171 177.238C155.578 176.863 155.401 176.035 155.775 175.442C156.15 174.849 156.978 174.672 157.571 175.046L175.729 186.425C176.322 186.8 176.5 187.628 176.125 188.221C175.85 188.633 175.278 188.858 174.766 188.763Z" fill="#FBAF18"/>
<path d="M175.69 177.344C175.562 177.321 175.37 177.285 175.253 177.197L165.459 171.077C164.867 170.702 164.689 169.875 165.064 169.282C165.438 168.689 166.266 168.511 166.859 168.886L176.653 175.006C177.246 175.381 177.424 176.208 177.049 176.801C176.71 177.202 176.202 177.439 175.69 177.344Z" fill="#FFC654"/>
<path d="M151.622 184.276C151.494 184.252 151.302 184.217 151.185 184.129L133.44 173.025C132.847 172.65 132.669 171.823 133.044 171.23C133.419 170.637 134.247 170.459 134.839 170.834L152.585 181.938C153.178 182.312 153.356 183.14 152.981 183.733C152.706 184.146 152.134 184.371 151.622 184.276Z" fill="#C88500"/>
</g>
<defs>
<clipPath id="clip0">
<rect width="270" height="270" fill="white"/>
</clipPath>
</defs>
</svg>
