<svg width="36" height="36" viewBox="0 0 36 36" fill="none" xmlns="http://www.w3.org/2000/svg">
<circle cx="18" cy="18" r="18" fill="#22C34F"/>
<path fill-rule="evenodd" clip-rule="evenodd" d="M25.6187 12.1313C25.9604 12.473 25.9604 13.027 25.6187 13.3687L15.9937 22.9937C15.652 23.3354 15.098 23.3354 14.7563 22.9937L10.3813 18.6187C10.0396 18.277 10.0396 17.723 10.3813 17.3813C10.723 17.0396 11.277 17.0396 11.6187 17.3813L15.375 21.1376L24.3813 12.1313C24.723 11.7896 25.277 11.7896 25.6187 12.1313Z" fill="white"/>
</svg>
