<svg width="100" height="100" viewBox="0 0 100 100" fill="none" xmlns="http://www.w3.org/2000/svg">
<path d="M100 70.1785C100 77.6787 77.6142 83.7588 50 83.7588C22.3858 83.7588 0 77.6787 0 70.1785C0 62.6784 22.3858 56.5983 50 56.5983C77.6142 56.5983 100 62.6784 100 70.1785Z" fill="url(#paint0_radial)" fill-opacity="0.5"/>
<path d="M13.2901 45.3778C15.1657 46.415 19.2981 53.0837 20.8228 71.4606C16.6178 62.2477 9.22431 44.1331 13.2901 45.3778Z" fill="#BBBBBB"/>
<path d="M20.5596 70.5891C21.7224 67.2584 24.1046 61.4954 24.3309 65.0889C24.2994 66.2195 23.5012 68.9024 20.5596 70.5891Z" fill="#D4D4D4"/>
<path d="M20.5596 68.7557C20.5976 67.9522 20.6641 67.0255 20.7636 66.0303C20.5556 67.333 20.3309 68.6988 20.0881 70.1308C17.0711 37.3128 21.7852 39.2378 21.7852 39.2378C21.7852 39.2378 24.8493 37.7119 21.5959 60.5368C22.4742 56.3792 23.9617 52.6108 26.3108 52.4384C27.4108 52.1022 27.8005 54.8951 20.5596 68.7557Z" fill="#D4D4D4"/>
<path d="M14.7226 62.9317C14.7226 64.4206 15.7683 68.0366 19.9513 70.5891C19.0305 66.4565 16.6957 59.1394 14.7226 62.9317Z" fill="#BBBBBB"/>
<path d="M13.2614 53.6449C14.3743 52.1448 17.4448 53.2591 20.823 69.7177C17.615 66.2582 11.6116 58.2004 13.2614 53.6449Z" fill="#D4D4D4"/>
<path fill-rule="evenodd" clip-rule="evenodd" d="M22.9536 68.0359C22.2856 69.1273 21.5198 70.061 21.0163 70.5891L20.8225 70.4183C21.3144 69.9024 22.069 68.9828 22.727 67.9078C23.3861 66.8307 23.9405 65.61 24.0465 64.4889L24.3083 64.5118C24.1971 65.6876 23.6202 66.9466 22.9536 68.0359Z" fill="white"/>
<path fill-rule="evenodd" clip-rule="evenodd" d="M23.3011 60.2212C24.4839 57.3359 25.8185 54.7036 26.6874 53.16L26.9227 53.291C26.0588 54.8258 24.7291 57.4482 23.5508 60.3225C22.3716 63.1991 21.3487 66.3169 21.0908 68.8462L20.8225 68.8191C21.0844 66.2507 22.1193 63.1041 23.3011 60.2212Z" fill="white"/>
<path fill-rule="evenodd" clip-rule="evenodd" d="M17.5338 62.5456C16.2034 59.5894 14.7672 56.2781 13.8509 54.131L14.1057 54.0314C15.0216 56.1774 16.4571 59.4871 17.7866 62.4414C18.4514 63.9186 19.0894 65.3063 19.6226 66.415C20.1577 67.5275 20.5827 68.3494 20.8225 68.7026L20.5917 68.8462C20.3388 68.4738 19.9053 67.6329 19.3726 66.5252C18.838 65.4136 18.1989 64.0237 17.5338 62.5456Z" fill="white"/>
<path fill-rule="evenodd" clip-rule="evenodd" d="M19.6967 66.2318C18.637 58.2885 14.7777 49.0605 12.9799 45.4398L13.2084 45.3168C15.0117 48.9485 18.886 58.2078 19.9515 66.195L19.6967 66.2318Z" fill="white"/>
<path fill-rule="evenodd" clip-rule="evenodd" d="M19.9514 68.8224C20.2627 65.1877 21.0546 47.5733 21.4117 39.2166L21.6943 39.2285C21.3374 47.5808 20.5452 65.2038 20.2333 68.8462L19.9514 68.8224Z" fill="white"/>
<path d="M90.2659 18.5641C90.2659 21.5271 88.2083 22.2678 87.1795 22.2678C89.6486 22.2678 90.2659 24.7369 90.2659 25.9715C90.2659 23.0085 92.3235 22.2678 93.3523 22.2678C90.8832 21.774 90.2659 19.5929 90.2659 18.5641Z" fill="#CCCCCC"/>
<path d="M12.7256 23.4074C12.7256 26.3704 10.668 27.1111 9.63918 27.1111C12.1083 27.1111 12.7256 29.5802 12.7256 30.8148C12.7256 27.8518 14.7832 27.1111 15.812 27.1111C13.3429 26.6173 12.7256 24.4362 12.7256 23.4074Z" fill="#CCCCCC"/>
<path d="M29.8878 16H80.7692V68.2947H29.8878V16Z" fill="#CCCCCC"/>
<path d="M29.8877 24.2176H80.769V28.4577H29.8877V24.2176Z" fill="white"/>
<path d="M29.8877 32.6978H80.769V34.1112H29.8877V32.6978Z" fill="white"/>
<path d="M34.4693 55.6172V54.3927L29.5711 53.9845V55.6172H25.0811C22.7952 56.2703 21.6795 58.6106 21.4074 59.6991V71.1282H43.4493V59.6991C43.1228 56.4336 40.3199 55.6172 38.9593 55.6172H34.4693Z" fill="white"/>
<path d="M29.5706 54.8008V53.5763H34.4688V54.8008C32.8361 55.7805 30.523 55.209 29.5706 54.8008Z" fill="#ECECEC"/>
<path d="M38.1431 49.0863V43.7799H25.8976V48.6781C26.0336 50.5829 27.4487 54.3927 32.0203 54.3927C36.592 54.3927 38.007 50.8551 38.1431 49.0863Z" fill="white"/>
<path d="M25.4887 63.7809V71.1282H43.4488V59.699C43.0406 55.6172 39.7751 55.6172 38.1424 55.6172C33.2442 61.495 27.6657 63.5087 25.4887 63.7809Z" fill="#BBBBBB"/>
<path d="M38.1431 47.0453C36.5104 46.3923 36.6464 44.5962 36.9186 43.7799L39.3677 43.3717V47.0453H38.1431Z" fill="#1B2246"/>
<path d="M25.7316 47.0453C27.3644 46.3923 27.2283 44.5962 26.9562 43.7799L24.5071 43.3717V47.0453H25.7316Z" fill="#1B2246"/>
<path d="M24.2644 37.4377C24.2644 36.6571 24.8972 36.0243 25.6778 36.0243H38.362C39.1426 36.0243 39.7754 36.6571 39.7754 37.4377V42.7747C39.7754 43.5552 39.1426 44.188 38.362 44.188H25.6778C24.8972 44.188 24.2644 43.5552 24.2644 42.7747V37.4377Z" fill="#828282"/>
<path d="M38.1427 48.6781V45.4126C38.6869 45.5487 39.7754 46.0657 39.7754 47.0453C39.7754 48.025 38.6869 48.542 38.1427 48.6781Z" fill="white"/>
<path d="M25.8976 48.6781V45.4126C25.3533 45.5487 24.2648 46.0657 24.2648 47.0453C24.2648 48.025 25.3533 48.542 25.8976 48.6781Z" fill="white"/>
<path d="M32.8365 52.7599C32.1834 52.1069 31.4759 52.4878 31.2038 52.7599C31.2038 53.3042 31.3671 54.3927 32.0201 54.3927C32.6732 54.3927 32.8365 53.3042 32.8365 52.7599Z" fill="#1B2246"/>
<path d="M89.9685 35.792C87.3114 37.2614 81.4572 46.7087 79.2973 72.7427C85.2543 59.6911 95.7284 34.0288 89.9685 35.792Z" fill="#BBBBBB"/>
<path d="M79.6699 71.5081C78.0226 66.7896 74.6478 58.6253 74.3272 63.7161C74.3717 65.3178 75.5026 69.1185 79.6699 71.5081Z" fill="#D4D4D4"/>
<path d="M79.6699 68.9108C79.6161 67.7724 79.5218 66.4596 79.3809 65.0497C79.6754 66.8953 79.9939 68.8302 80.3377 70.8588C84.6119 24.3666 77.9335 27.0937 77.9335 27.0937C77.9335 27.0937 73.5928 24.9321 78.2017 57.2673C76.9575 51.3774 74.8503 46.0387 71.5223 45.7945C69.964 45.3183 69.4119 49.2749 79.6699 68.9108Z" fill="#D4D4D4"/>
<path d="M87.9392 60.6601C87.9392 62.7694 86.4577 67.8921 80.5318 71.5081C81.8363 65.6536 85.144 55.2877 87.9392 60.6601Z" fill="#BBBBBB"/>
<path d="M90.0095 47.5037C88.4328 45.3786 84.083 46.9573 79.2972 70.2735C83.8418 65.3726 92.3467 53.9573 90.0095 47.5037Z" fill="#D4D4D4"/>
<path fill-rule="evenodd" clip-rule="evenodd" d="M76.2783 67.8911C77.2245 69.4372 78.3094 70.76 79.0227 71.5081L79.2973 71.2662C78.6003 70.5352 77.5313 69.2326 76.5992 67.7096C75.6654 66.1837 74.8801 64.4543 74.7299 62.8661L74.359 62.8986C74.5165 64.5644 75.3338 66.3479 76.2783 67.8911Z" fill="white"/>
<path fill-rule="evenodd" clip-rule="evenodd" d="M75.7859 56.8201C74.1103 52.7327 72.2196 49.0035 70.9886 46.8167L70.6553 47.0024C71.8792 49.1766 73.7629 52.8917 75.4321 56.9636C77.1027 61.0389 78.5518 65.4558 78.9172 69.039L79.2973 69.0006C78.9262 65.362 77.4601 60.9043 75.7859 56.8201Z" fill="white"/>
<path fill-rule="evenodd" clip-rule="evenodd" d="M83.9563 60.1131C85.8411 55.9251 87.8756 51.2341 89.1738 48.1924L88.8127 48.0513C87.5152 51.0915 85.4816 55.7802 83.5981 59.9655C82.6563 62.0582 81.7525 64.0241 80.9971 65.5948C80.2391 67.1708 79.637 68.3352 79.2972 68.8355L79.6242 69.0389C79.9826 68.5114 80.5967 67.3201 81.3514 65.7508C82.1087 64.1761 83.014 62.207 83.9563 60.1131Z" fill="white"/>
<path fill-rule="evenodd" clip-rule="evenodd" d="M80.8927 65.3353C82.394 54.0821 87.8614 41.0092 90.4083 35.8799L90.0846 35.7056C87.5299 40.8505 82.0413 53.9679 80.5318 65.2831L80.8927 65.3353Z" fill="white"/>
<path fill-rule="evenodd" clip-rule="evenodd" d="M80.5318 69.0052C80.0908 63.856 78.969 38.9024 78.4631 27.0637L78.0627 27.0806C78.5684 38.9129 79.6906 63.8789 80.1325 69.039L80.5318 69.0052Z" fill="white"/>
<defs>
<radialGradient id="paint0_radial" cx="0" cy="0" r="1" gradientUnits="userSpaceOnUse" gradientTransform="translate(50 70.1785) rotate(90) scale(13.5802 50)">
<stop stop-color="#DDDDDD"/>
<stop offset="1" stop-color="#F7F7F7" stop-opacity="0"/>
</radialGradient>
</defs>
</svg>
