<svg width="100" height="100" viewBox="0 0 100 100" fill="none" xmlns="http://www.w3.org/2000/svg">
<path d="M100 75.4321C100 82.9323 77.6142 89.0124 50 89.0124C22.3858 89.0124 0 82.9323 0 75.4321C0 67.932 22.3858 61.8519 50 61.8519C77.6142 61.8519 100 67.932 100 75.4321Z" fill="url(#paint0_radial)" fill-opacity="0.3"/>
<path d="M12.2931 49.3493C14.1687 50.3865 18.301 57.0552 19.8257 75.4321C15.6207 66.2192 8.22727 48.1047 12.2931 49.3493Z" fill="#BBBBBB"/>
<path d="M19.5625 74.5607C20.7254 71.23 23.1076 65.4669 23.3338 69.0604C23.3024 70.191 22.5042 72.8739 19.5625 74.5607Z" fill="#D4D4D4"/>
<path d="M19.5625 72.7273C19.6005 71.9237 19.6671 70.997 19.7665 70.0018C19.5586 71.3045 19.3339 72.6704 19.0911 74.1023C16.0741 41.2843 20.7882 43.2093 20.7882 43.2093C20.7882 43.2093 23.8523 41.6835 20.5989 64.5083C21.4772 60.3508 22.9646 56.5823 25.3138 56.4099C26.4137 56.0738 26.8034 58.8667 19.5625 72.7273Z" fill="#D4D4D4"/>
<path d="M13.7255 66.9032C13.7255 68.3922 14.7713 72.0082 18.9543 74.5607C18.0335 70.4281 15.6986 63.111 13.7255 66.9032Z" fill="#BBBBBB"/>
<path d="M12.2643 57.6164C13.3773 56.1163 16.4477 57.2307 19.8259 73.6892C16.618 70.2297 10.6145 62.1719 12.2643 57.6164Z" fill="#D4D4D4"/>
<path fill-rule="evenodd" clip-rule="evenodd" d="M21.9565 72.0075C21.2886 73.0989 20.5228 74.0326 20.0192 74.5607L19.8254 74.3899C20.3174 73.8739 21.072 72.9544 21.7299 71.8793C22.3891 70.8022 22.9434 69.5815 23.0494 68.4604L23.3113 68.4833C23.2001 69.6592 22.6232 70.9181 21.9565 72.0075Z" fill="white"/>
<path fill-rule="evenodd" clip-rule="evenodd" d="M22.3041 64.1927C23.4868 61.3074 24.8214 58.6751 25.6904 57.1315L25.9256 57.2625C25.0617 58.7973 23.732 61.4197 22.5538 64.294C21.3745 67.1706 20.3516 70.2885 20.0937 72.8177L19.8254 72.7907C20.0874 70.2222 21.1223 67.0756 22.3041 64.1927Z" fill="white"/>
<path fill-rule="evenodd" clip-rule="evenodd" d="M16.5368 66.5172C15.2063 63.5609 13.7702 60.2496 12.8539 58.1026L13.1087 58.0029C14.0246 60.149 15.4601 63.4587 16.7896 66.4129C17.4544 67.8902 18.0924 69.2779 18.6256 70.3866C19.1607 71.4991 19.5857 72.321 19.8255 72.6742L19.5947 72.8177C19.3418 72.4453 18.9083 71.6044 18.3755 70.4967C17.841 69.3852 17.2019 67.9952 16.5368 66.5172Z" fill="white"/>
<path fill-rule="evenodd" clip-rule="evenodd" d="M18.6997 70.2034C17.64 62.26 13.7806 53.032 11.9828 49.4113L12.2113 49.2883C14.0146 52.92 17.8889 62.1793 18.9545 70.1665L18.6997 70.2034Z" fill="white"/>
<path fill-rule="evenodd" clip-rule="evenodd" d="M18.9544 72.7939C19.2656 69.1592 20.0575 51.5449 20.4147 43.1881L20.6973 43.2C20.3403 51.5523 19.5482 69.1753 19.2362 72.8177L18.9544 72.7939Z" fill="white"/>
<path d="M87.2144 38.4815C84.5573 39.9509 78.7032 49.3981 76.5432 75.4321C82.5002 62.3805 92.9743 36.7182 87.2144 38.4815Z" fill="#BBBBBB"/>
<path d="M76.9159 74.1976C75.2686 69.4791 71.8938 61.3148 71.5732 66.4056C71.6177 68.0072 72.7486 71.808 76.9159 74.1976Z" fill="#D4D4D4"/>
<path d="M76.9159 71.6002C76.8621 70.4619 76.7678 69.1491 76.6269 67.7392C76.9214 69.5847 77.2399 71.5196 77.5837 73.5482C81.8579 27.056 75.1795 29.7832 75.1795 29.7832C75.1795 29.7832 70.8388 27.6215 75.4477 59.9567C74.2035 54.0669 72.0963 48.7282 68.7683 48.484C67.21 48.0078 66.658 51.9644 76.9159 71.6002Z" fill="#D4D4D4"/>
<path d="M85.1852 63.3495C85.1852 65.4588 83.7037 70.5815 77.7778 74.1975C79.0822 68.343 82.3899 57.9771 85.1852 63.3495Z" fill="#BBBBBB"/>
<path d="M87.2555 50.1932C85.6788 48.068 81.329 49.6467 76.5432 72.963C81.0878 68.0621 89.5927 56.6468 87.2555 50.1932Z" fill="#D4D4D4"/>
<path fill-rule="evenodd" clip-rule="evenodd" d="M73.5242 70.5806C74.4704 72.1267 75.5553 73.4494 76.2687 74.1976L76.5432 73.9556C75.8463 73.2247 74.7773 71.922 73.8452 70.399C72.9114 68.8731 72.126 67.1438 71.9758 65.5556L71.6049 65.588C71.7625 67.2538 72.5797 69.0373 73.5242 70.5806Z" fill="white"/>
<path fill-rule="evenodd" clip-rule="evenodd" d="M73.0318 59.5096C71.3562 55.4221 69.4655 51.693 68.2346 49.5062L67.9012 49.6919C69.1251 51.8661 71.0089 55.5812 72.6781 59.6531C74.3487 63.7284 75.7977 68.1453 76.1631 71.7284L76.5432 71.6901C76.1721 68.0514 74.706 63.5938 73.0318 59.5096Z" fill="white"/>
<path fill-rule="evenodd" clip-rule="evenodd" d="M81.2023 62.8026C83.087 58.6146 85.1216 53.9236 86.4197 50.8819L86.0587 50.7408C84.7611 53.781 82.7276 58.4697 80.8441 62.655C79.9023 64.7477 78.9984 66.7136 78.2431 68.2843C77.4851 69.8603 76.883 71.0247 76.5432 71.525L76.8702 71.7284C77.2285 71.2008 77.8426 70.0096 78.5973 68.4403C79.3546 66.8656 80.2599 64.8965 81.2023 62.8026Z" fill="white"/>
<path fill-rule="evenodd" clip-rule="evenodd" d="M78.1387 68.0247C79.64 56.7716 85.1074 43.6986 87.6543 38.5693L87.3306 38.3951C84.7759 43.5399 79.2873 56.6573 77.7778 67.9725L78.1387 68.0247Z" fill="white"/>
<path fill-rule="evenodd" clip-rule="evenodd" d="M77.7778 71.6947C77.3368 66.5455 76.215 41.5918 75.709 29.7531L75.3086 29.77C75.8143 41.6024 76.9366 66.5683 77.3785 71.7284L77.7778 71.6947Z" fill="white"/>
<path d="M36.4197 12.4691C36.4197 15.4321 34.3621 16.1728 33.3333 16.1728C35.8025 16.1728 36.4197 18.642 36.4197 19.8765C36.4197 16.9136 38.4774 16.1728 39.5062 16.1728C37.037 15.679 36.4197 13.4979 36.4197 12.4691Z" fill="#D4D4D4"/>
<path d="M5.55555 29.7531C5.55555 32.7161 3.49794 33.4568 2.46913 33.4568C4.93827 33.4568 5.55555 35.926 5.55555 37.1605C5.55555 34.1976 7.61316 33.4568 8.64197 33.4568C6.17284 32.963 5.55555 30.7819 5.55555 29.7531Z" fill="#D4D4D4"/>
<path d="M70.7303 75.7311H74.8755V53.8207L65.4007 34.2791L23.3565 53.8207V75.7311H63.032V57.9659C63.5058 57.0185 64.019 56.7816 64.2164 56.7816H68.9538C69.9012 56.7816 70.5329 57.5712 70.7303 57.9659V75.7311Z" fill="#D4D4D4"/>
<path d="M49.4121 75.7311L36.9765 52.0442L23.3565 52.6364V75.7311H49.4121Z" fill="#C9C9C9"/>
<path d="M55.3336 46.1225V75.7311H63.0318V57.9659L55.3336 46.1225Z" fill="#C9C9C9"/>
<path d="M20.9877 53.8207L34.0155 32.5025H50.3002H66.5849L56.518 53.8207H20.9877Z" fill="#BEBDBD"/>
<rect x="52.9652" y="28.9495" width="5.92172" height="3.55303" fill="#D4D4D4"/>
<rect x="51.7805" y="26.5808" width="8.29041" height="2.36869" rx="0.5" fill="#BBBBBB"/>
<path d="M69.5458 10H79.0206C81.9814 12.3687 79.0206 15.3295 76.0597 14.7374C73.691 14.2636 73.4936 15.3295 73.691 15.9217V18.8826C73.691 20.7775 72.1119 20.8565 71.3223 20.6591H65.4006C64.8084 20.6591 63.6241 21.1328 63.6241 23.0278C63.6241 24.9227 62.045 25.3965 61.2554 25.3965H51.7806C48.8198 24.2121 50.5963 21.2513 52.3728 21.2513C54.1493 21.2513 57.1102 21.2513 56.518 18.8826C56.0443 16.9876 57.1102 16.1191 57.7024 15.9217H64.8084C67.7693 15.9217 67.7693 14.7374 67.7693 12.3687C67.7693 10.4737 68.9536 10 69.5458 10Z" fill="#D4D4D4"/>
<rect x="39.9372" y="57.3738" width="8.29041" height="9.47475" rx="1" fill="white"/>
<rect x="29.278" y="57.3738" width="8.29041" height="9.47475" rx="1" fill="white"/>
<path d="M77.2439 53.8207L66.5848 32.5025L65.4004 34.8712L74.8752 53.8207H77.2439Z" fill="#BBBBBB"/>
<path d="M73.0987 75.7311L70.73 70.9937V75.7311H73.0987Z" fill="#C9C9C9"/>
<defs>
<radialGradient id="paint0_radial" cx="0" cy="0" r="1" gradientUnits="userSpaceOnUse" gradientTransform="translate(50 75.4321) rotate(90) scale(13.5802 50)">
<stop stop-color="#C9C9C9" stop-opacity="0.65"/>
<stop offset="1" stop-color="#848484" stop-opacity="0"/>
</radialGradient>
</defs>
</svg>
