<svg width="36" height="36" viewBox="0 0 36 36" fill="none" xmlns="http://www.w3.org/2000/svg">
<path d="M0 8C0 3.58172 3.58172 0 8 0H28C32.4183 0 36 3.58172 36 8V28C36 32.4183 32.4183 36 28 36H8C3.58172 36 0 32.4183 0 28V8Z" fill="#6477EA"/>
<path d="M6 13.2C6 12.0954 6.89543 11.2 8 11.2H27.2C28.3046 11.2 29.2 12.0954 29.2 13.2V26C29.2 27.1046 28.3046 28 27.2 28H8C6.89543 28 6 27.1046 6 26V13.2Z" fill="#8175CE"/>
<path fill-rule="evenodd" clip-rule="evenodd" d="M27.2 12.2H8C7.44772 12.2 7 12.6477 7 13.2V26C7 26.5523 7.44771 27 8 27H27.2C27.7523 27 28.2 26.5523 28.2 26V13.2C28.2 12.6477 27.7523 12.2 27.2 12.2ZM8 11.2C6.89543 11.2 6 12.0954 6 13.2V26C6 27.1046 6.89543 28 8 28H27.2C28.3046 28 29.2 27.1046 29.2 26V13.2C29.2 12.0954 28.3046 11.2 27.2 11.2H8Z" fill="white"/>
<path fill-rule="evenodd" clip-rule="evenodd" d="M10.8742 11.5055C11.1473 11.5465 11.3355 11.8011 11.2945 12.0742C11.1882 12.7826 10.9088 13.8794 10.1781 14.809C9.4293 15.7617 8.23499 16.5 6.40002 16.5C6.12388 16.5 5.90002 16.2761 5.90002 16C5.90002 15.7239 6.12388 15.5 6.40002 15.5C7.92506 15.5 8.83075 14.905 9.39192 14.191C9.9713 13.4539 10.2118 12.5508 10.3056 11.9258C10.3465 11.6527 10.6011 11.4646 10.8742 11.5055Z" fill="white"/>
<path fill-rule="evenodd" clip-rule="evenodd" d="M24.3259 11.5055C24.0528 11.5465 23.8646 11.8011 23.9056 12.0742C24.0118 12.7826 24.2913 13.8794 25.0219 14.809C25.7708 15.7617 26.9651 16.5 28.8 16.5C29.0762 16.5 29.3 16.2761 29.3 16C29.3 15.7239 29.0762 15.5 28.8 15.5C27.275 15.5 26.3693 14.905 25.8082 14.191C25.2288 13.4539 24.9883 12.5508 24.8945 11.9258C24.8536 11.6527 24.599 11.4646 24.3259 11.5055Z" fill="white"/>
<path fill-rule="evenodd" clip-rule="evenodd" d="M11.6742 27.6945C11.9473 27.6535 12.1355 27.3989 12.0945 27.1258C11.982 26.3757 11.5857 25.2805 10.7556 24.3643C9.91166 23.4328 8.62971 22.7 6.80005 22.7C6.52391 22.7 6.30005 22.9239 6.30005 23.2C6.30005 23.4761 6.52391 23.7 6.80005 23.7C8.33039 23.7 9.34843 24.3005 10.0145 25.0357C10.6944 25.7862 11.0181 26.691 11.1056 27.2742C11.1465 27.5473 11.4011 27.7354 11.6742 27.6945Z" fill="white"/>
<path fill-rule="evenodd" clip-rule="evenodd" d="M25.138 27.6962C24.864 27.6619 24.6697 27.412 24.7039 27.138C24.7903 26.4471 25.0018 25.3591 25.5905 24.432C26.1972 23.4765 27.2041 22.7 28.8 22.7C29.0762 22.7 29.3 22.9239 29.3 23.2C29.3 23.4762 29.0762 23.7 28.8 23.7C27.596 23.7 26.8862 24.2569 26.4346 24.968C25.965 25.7076 25.7765 26.6196 25.6962 27.262C25.6619 27.536 25.412 27.7304 25.138 27.6962Z" fill="white"/>
<path fill-rule="evenodd" clip-rule="evenodd" d="M15 8.5C14.7239 8.5 14.5 8.72386 14.5 9V11.8C14.5 12.0761 14.7239 12.3 15 12.3H20.2C20.4761 12.3 20.7 12.0761 20.7 11.8V9C20.7 8.72386 20.4761 8.5 20.2 8.5H15ZM13.5 9C13.5 8.17157 14.1716 7.5 15 7.5H20.2C21.0284 7.5 21.7 8.17157 21.7 9V11.8C21.7 12.6284 21.0284 13.3 20.2 13.3H15C14.1716 13.3 13.5 12.6284 13.5 11.8V9Z" fill="white"/>
<path d="M12.4 11.2H22.8V28H12.4V11.2Z" fill="#FF8731"/>
<path fill-rule="evenodd" clip-rule="evenodd" d="M21.8 12.2H13.4V27H21.8V12.2ZM12.4 11.2V28H22.8V11.2H12.4Z" fill="white"/>
</svg>
