<svg width="36" height="36" viewBox="0 0 36 36" fill="none" xmlns="http://www.w3.org/2000/svg">
<path d="M0 8C0 3.58172 3.58172 0 8 0H28C32.4183 0 36 3.58172 36 8V28C36 32.4183 32.4183 36 28 36H8C3.58172 36 0 32.4183 0 28V8Z" fill="#FF8731"/>
<path fill-rule="evenodd" clip-rule="evenodd" d="M9.5528 27.7764L11.5528 23.7764L12.4472 24.2236L10.4472 28.2236L9.5528 27.7764Z" fill="white"/>
<path fill-rule="evenodd" clip-rule="evenodd" d="M17.5 20V15H18.5V20H17.5Z" fill="white"/>
<path fill-rule="evenodd" clip-rule="evenodd" d="M22.5 20V15H23.5V20H22.5Z" fill="white"/>
<path d="M24.1672 19.9531C25.4988 20.2503 25.934 21.3799 25.9929 22.4566C26.0428 23.3705 25.2037 24 24.2885 24H13.1106C12.2149 24 11.4285 23.4045 11.1856 22.5424L7.19335 8.37396C7.06832 7.93024 7.0833 7.44598 7.33031 7.05675C8.25208 5.60424 9.48154 5.90746 10.2667 6.4448C10.5543 6.64157 10.7264 6.95815 10.8203 7.29368L13.9452 18.4609C14.1869 19.3247 14.9742 19.922 15.8712 19.922H23.8429C23.9515 19.922 24.0611 19.9294 24.1672 19.9531Z" fill="#3F99DD"/>
<path fill-rule="evenodd" clip-rule="evenodd" d="M8.81277 5.50595C9.48723 5.45597 10.1032 5.72701 10.5491 6.03217C10.9681 6.31894 11.1897 6.75846 11.3018 7.15895L14.4267 18.3262C14.6079 18.974 15.1984 19.422 15.8712 19.422H23.8429C23.9726 19.422 24.1218 19.4307 24.2761 19.4651C25.0772 19.6439 25.6307 20.0841 25.9818 20.6484C26.3238 21.1979 26.4599 21.8405 26.4921 22.4293C26.563 23.7267 25.3831 24.5 24.2884 24.5H13.1106C11.991 24.5 11.0079 23.7556 10.7043 22.678L6.71207 8.50956C6.56146 7.97504 6.56266 7.33323 6.90813 6.78884C7.43817 5.95361 8.10752 5.55821 8.81277 5.50595ZM8.88668 6.50321C8.55047 6.52813 8.14419 6.70738 7.75246 7.32466C7.60391 7.55874 7.57515 7.88544 7.67459 8.23836L11.6668 22.4068C11.849 23.0534 12.4388 23.5 13.1106 23.5H24.2884C25.0242 23.5 25.5226 23.0143 25.4936 22.4839C25.4669 21.996 25.3561 21.5355 25.1328 21.1767C24.9187 20.8327 24.5888 20.5595 24.0582 20.4411C24.0005 20.4282 23.9304 20.422 23.8429 20.422H15.8712C14.7499 20.422 13.7658 19.6754 13.4636 18.5957L10.3388 7.42842C10.2631 7.15784 10.1404 6.9642 9.98434 6.85743C9.64506 6.62525 9.25369 6.47602 8.88668 6.50321Z" fill="white"/>
<path fill-rule="evenodd" clip-rule="evenodd" d="M26.6465 28.3535L22.6465 24.3535L23.3536 23.6464L27.3536 27.6464L26.6465 28.3535Z" fill="white"/>
<path fill-rule="evenodd" clip-rule="evenodd" d="M5.68333 24.6131C5.89703 24.4382 6.21204 24.4696 6.38694 24.6833C7.95509 26.5993 12.4726 30 18 30C20.7588 30 23.4488 29.1538 25.6973 28.0511C27.9482 26.9472 29.72 25.6042 30.6406 24.6524C30.8326 24.4539 31.1492 24.4486 31.3476 24.6406C31.5461 24.8326 31.5514 25.1492 31.3594 25.3476C30.3455 26.3958 28.4744 27.8029 26.1376 28.9489C23.7982 30.0962 20.9556 31 18 31C12.0988 31 7.31875 27.4007 5.61309 25.3167C5.43819 25.103 5.46964 24.788 5.68333 24.6131Z" fill="white"/>
<path fill-rule="evenodd" clip-rule="evenodd" d="M12.5 15C12.5 14.7239 12.7239 14.5 13 14.5H25.6452C26.0024 14.5 26.475 14.6523 26.8561 15.0574C27.2448 15.4706 27.5 16.1038 27.5 17C27.5 17.2761 27.2761 17.5 27 17.5C26.7239 17.5 26.5 17.2761 26.5 17C26.5 16.2962 26.3036 15.9294 26.1278 15.7426C25.9443 15.5477 25.7395 15.5 25.6452 15.5H13C12.7239 15.5 12.5 15.2761 12.5 15Z" fill="white"/>
</svg>
