<svg width="70" height="61" viewBox="0 0 70 61" fill="none" xmlns="http://www.w3.org/2000/svg">
<path d="M-1 63V12.7924C1.03349 11.0846 6.67943 11.0163 12.9952 24.405C19.311 37.7937 27.8278 33.3991 31.2966 29.5282C38.4737 17.2325 50.3158 16.8909 56.7751 24.405C61.9426 30.4163 70.4115 30.3252 74 29.5282V63H-1Z" fill="url(#paint0_radial)"/>
<path d="M24.3293 59.7296C23.9502 59.7296 21.9598 58.3707 21.012 57.6913C21.4859 57.5215 22.0076 56.2072 19.3537 56.6149C16.6998 57.0225 18.0105 60.5788 19.1163 61.7678C26.6988 63.2965 24.8032 59.7296 24.3293 59.7296Z" fill="#3F3A36"/>
<path d="M27.309 60.3752C26.9299 60.3752 24.9395 59.1399 23.9917 58.5222C24.4656 58.3678 25.413 57.3085 22.7591 57.6791C20.1052 58.0497 20.9903 61.1473 22.0961 62.2282C29.6786 63.6179 27.783 60.3752 27.309 60.3752Z" fill="#605B57"/>
<path d="M19.6145 30.223H26.9778C28.9413 40.3419 24.1961 52.6014 21.5781 57.4663H17.651L19.6145 51.6284C21.1853 45.4014 20.269 34.7636 19.6145 30.223Z" fill="#10669F"/>
<path d="M28.9505 45.6994C29.7279 42.5794 27.9788 34.6493 27.007 31.0743H20.205C21.3387 34.6493 23.7032 42.3844 24.0919 44.7244C24.4806 47.0644 22.6343 54.4744 21.6626 57.8869C22.7963 58.2119 25.0636 58.6669 25.0636 57.8869C25.0636 56.9119 27.9788 49.5994 28.9505 45.6994Z" fill="#2784C1"/>
<path d="M34.0395 28.3074C33.8866 26.3579 34.4668 25.5405 37.035 25.5405C37.035 25.5405 37.6465 51.7905 37.035 63" stroke="#F48054" stroke-width="1.5"/>
<path d="M23.9291 11.4933C15.0203 11.9748 20.0541 29.7918 17 29.7918C17 29.7918 21.6382 32.1734 26.4038 31.7179C30.2084 30.8615 28.7185 18.7298 29.3734 13.901L23.9291 11.4933Z" fill="#5DB0EF"/>
<path d="M39.7861 27.9013C39.7861 28.6918 39.167 28.5601 38.8574 28.3954C38.1144 25.6287 35.7615 25.2663 34.678 25.431L35.1424 23.4548C39.7861 22.9607 39.7861 26.9132 39.7861 27.9013Z" fill="#FFC9C2"/>
<path d="M28.2162 15.761L29.1735 22.0785C31.7264 22.0785 36.6408 22.2729 35.8749 23.0505C35.109 23.828 35.2367 25.3183 35.3962 25.9663H26.3015C25.1846 23.8604 23.238 18.8712 24.3868 15.761C25.9186 13.4284 27.578 14.7891 28.2162 15.761Z" fill="#74CAF1"/>
<path d="M31.5564 5.60979C31.178 5.21526 31.3987 3.80153 31.5564 3.14398C27.7726 0.776795 25.8807 6.10296 25.4077 9.06194C25.4077 9.45647 24.7771 10.8702 24.4618 11.5278C26.0384 12.5141 29.1915 14.3881 29.1915 13.9936C29.1915 13.5004 29.1915 11.5278 29.6645 11.5278C30.1375 11.5278 31.0834 11.5278 31.5564 11.0346C31.9347 10.6401 31.714 8.89755 31.5564 8.07561C32.0294 8.07561 32.9753 7.97698 32.9753 7.58245C32.9753 7.08931 32.0294 6.10306 31.5564 5.60987L31.5564 5.60979Z" fill="#FFC9C2"/>
<circle cx="34.0395" cy="28.3075" r="0.638514" fill="#F48054"/>
<path d="M29.2144 6.94899C29.2144 5.01628 30.8053 4.21099 31.6008 4.04993C32.2372 2.27829 29.6918 -0.781975 25.8737 0.184376C22.0556 1.15073 23.0097 7.11005 24.4416 9.36487C25.3961 9.20381 27.2098 8.78506 26.828 8.39851C26.4461 8.01197 26.6689 6.94899 26.828 6.46581C27.9734 5.69273 28.2598 6.46581 28.2598 6.94899H29.2144Z" fill="#E8EBEE"/>
<path d="M24.0361 11.4932C24.2064 12.004 27.6543 13.5506 29.357 14.2601V12.7702C28.8462 12.7702 26.0226 11.3513 24.6746 10.6418L24.0361 11.4932Z" fill="#74CAF1"/>
<g opacity="0.3">
<path d="M46.4046 47.4891C46.051 47.3233 45.6709 47.1982 45.365 46.9561C44.7487 46.4639 44.5924 45.6162 44.3995 44.8557C44.2065 44.0953 43.8331 43.2592 43.0723 43.0411C42.7876 42.9604 42.4538 42.9924 42.2374 43.193C42.0092 43.4046 41.963 43.7521 42.0253 44.0589C42.0877 44.3657 42.2396 44.6405 42.357 44.9314C42.6311 45.6068 42.7145 46.3434 42.5983 47.0623C42.5022 47.6519 42.2726 48.2495 42.42 48.8275C42.6702 49.8083 43.9167 50.3834 43.9512 51.394C43.9747 52.0759 43.4083 52.707 43.5367 53.378C43.6313 53.8746 44.0928 54.2621 44.1178 54.7667C44.1456 55.3388 43.5998 55.823 43.6262 56.3952C43.6526 56.9674 44.2293 57.3498 44.6056 57.7999C44.9212 58.1778 45.1088 58.6445 45.142 59.134C45.1618 59.4393 45.1221 59.7556 45.2227 60.0449C45.296 60.2565 45.4428 60.4361 45.5565 60.6266C45.6819 60.8323 45.7766 61.0548 45.9277 61.2453C46.1177 61.4826 46.3752 61.658 46.6669 61.7487C46.9586 61.8394 47.271 61.8413 47.5638 61.7542C47.6804 60.9937 47.5785 60.218 47.6107 59.4495C47.6746 57.9605 48.2432 56.4599 47.8793 55.0146C47.7457 54.4846 47.4889 53.9815 47.4435 53.4377C47.4031 52.952 47.5337 52.4707 47.6247 51.9916C47.8125 51.0021 47.8096 49.9792 47.7325 48.9788C47.6716 48.1848 47.1082 47.8191 46.4046 47.4891Z" fill="url(#paint1_linear)"/>
<path d="M48.6083 51.3434C48.6025 52.0066 48.751 52.6923 48.5426 53.3221C48.3849 53.7993 48.0381 54.1901 47.859 54.6593C47.4458 55.7424 48.0017 56.9569 47.8882 58.1133C47.8411 58.5898 47.6806 59.0474 47.5792 59.5152C47.4534 60.1074 47.4225 60.7165 47.4879 61.3188C47.4812 61.4284 47.5136 61.5368 47.5792 61.6241C47.6447 61.7114 47.739 61.7716 47.8447 61.7938C48.1943 61.9296 48.5565 62.0291 48.9258 62.0909C48.801 61.3897 48.9325 60.6663 49.2954 60.057C49.8613 59.1127 50.961 58.4764 51.1658 57.392C51.3042 56.6576 50.9817 55.9123 51.0045 55.1649C51.021 54.6676 51.189 54.1878 51.4855 53.792C51.7516 53.439 52.112 53.1659 52.3596 52.7998C52.9548 51.9173 52.7692 50.7376 52.5923 49.6822C52.4153 48.6268 52.3125 47.4123 53.0119 46.6126C53.2331 46.3598 53.5214 46.1702 53.7219 45.9C54.1686 45.2978 54.0559 44.3702 53.5364 43.832C53.0169 43.2937 52.1805 43.1448 51.4741 43.3816C51.1761 43.471 50.913 43.6531 50.7219 43.9024C50.3651 44.4182 50.5079 45.1228 50.6591 45.7358C50.7911 46.2683 50.8975 46.8828 50.7169 47.4196C50.5821 47.8191 50.2403 48.0355 49.9498 48.3137C49.5381 48.7014 49.2073 49.1694 48.9768 49.6899C48.7463 50.2104 48.621 50.7727 48.6083 51.3434Z" fill="url(#paint2_linear)"/>
<path d="M46.7727 60.7273L44.7273 48.5909" stroke="white" stroke-width="0.1"/>
<path d="M45.3693 52.6523C45.6412 52.3187 45.905 51.972 46.2038 51.6613C46.2573 51.6057 46.3313 51.5623 46.3777 51.5005C46.4355 51.4234 46.4509 51.3233 46.5037 51.244" stroke="#F8FDFF" stroke-width="0.1" stroke-linecap="round" stroke-linejoin="round"/>
<path d="M46.0343 56.3687C45.6828 56.2622 45.3308 56.1582 44.9781 56.0558" stroke="#F8FDFF" stroke-width="0.1" stroke-linecap="round" stroke-linejoin="round"/>
<path d="M51.1762 49.9285C50.8096 51.1089 50.5778 52.3129 50.2888 53.5103C50.1814 53.955 50.0094 54.385 49.8993 54.834C49.8145 55.1798 49.6946 55.4948 49.5788 55.8299C49.3872 56.3847 49.1755 56.9309 48.9354 57.4643C48.8042 57.7558 48.6026 58.1708 48.6026 58.4922" stroke="white" stroke-width="0.1" stroke-linecap="round" stroke-linejoin="round"/>
<path d="M50.2888 53.3451C50.2182 52.7018 50.1101 52.0668 49.988 51.4322C49.97 51.3385 49.9209 51.1201 49.845 51.0822" stroke="white" stroke-width="0.1" stroke-linecap="round" stroke-linejoin="round"/>
<path d="M49.3569 56.4068C49.5993 56.2893 49.8567 56.181 50.1113 56.0962" stroke="white" stroke-width="0.1" stroke-linecap="round" stroke-linejoin="round"/>
</g>
<defs>
<radialGradient id="paint0_radial" cx="0" cy="0" r="1" gradientUnits="userSpaceOnUse" gradientTransform="translate(33.2391 37.5) rotate(90.4918) scale(27.8621 40.967)">
<stop stop-color="#BAE3F8"/>
<stop offset="1" stop-color="white"/>
</radialGradient>
<linearGradient id="paint1_linear" x1="44.995" y1="47.8157" x2="44.9999" y2="61.8182" gradientUnits="userSpaceOnUse">
<stop stop-color="#5EC5F8"/>
<stop offset="1" stop-color="#4CB5F1"/>
</linearGradient>
<linearGradient id="paint2_linear" x1="52.4054" y1="42.7317" x2="50.6665" y2="62.0854" gradientUnits="userSpaceOnUse">
<stop stop-color="#68C5FD"/>
<stop offset="1" stop-color="#3FA9EC"/>
</linearGradient>
</defs>
</svg>
