<svg width="66" height="66" viewBox="0 0 66 66" fill="none" xmlns="http://www.w3.org/2000/svg">
<g clip-path="url(#clip0)">
<path d="M66 46.3178C66 51.2679 51.2254 55.2808 33 55.2808C14.7746 55.2808 0 51.2679 0 46.3178C0 41.3677 14.7746 37.3549 33 37.3549C51.2254 37.3549 66 41.3677 66 46.3178Z" fill="url(#paint0_radial)" fill-opacity="0.5"/>
<path d="M8.77149 29.9493C10.0094 30.6339 12.7367 35.0352 13.743 47.164C10.9678 41.0835 6.08805 29.1279 8.77149 29.9493Z" fill="#FFCA7F"/>
<path d="M13.5693 46.5888C14.3368 44.3906 15.909 40.587 16.0584 42.9587C16.0376 43.7049 15.5108 45.4756 13.5693 46.5888Z" fill="#FFDDAD"/>
<path d="M13.5693 45.3788C13.5944 44.8484 13.6383 44.2368 13.7039 43.58C13.5667 44.4398 13.4184 45.3412 13.2582 46.2863C11.2669 24.6264 14.3782 25.8969 14.3782 25.8969C14.3782 25.8969 16.4005 24.8899 14.2533 39.9543C14.833 37.2103 15.8147 34.7231 17.3651 34.6093C18.0911 34.3875 18.3483 36.2308 13.5693 45.3788Z" fill="#FFDDAD"/>
<path d="M9.71692 41.5349C9.71692 42.5176 10.4071 44.9042 13.1679 46.5888C12.5602 43.8613 11.0192 39.032 9.71692 41.5349Z" fill="#FFCA7F"/>
<path d="M8.75252 35.4056C9.48707 34.4155 11.5136 35.151 13.7432 46.0136C11.6259 43.7304 7.66364 38.4122 8.75252 35.4056Z" fill="#FFDDAD"/>
<path fill-rule="evenodd" clip-rule="evenodd" d="M15.1494 44.9037C14.7085 45.624 14.2031 46.2402 13.8708 46.5888L13.7429 46.4761C14.0676 46.1355 14.5656 45.5287 14.9998 44.8191C15.4349 44.1082 15.8008 43.3026 15.8707 42.5627L16.0435 42.5778C15.9701 43.3538 15.5894 44.1847 15.1494 44.9037Z" fill="white"/>
<path fill-rule="evenodd" clip-rule="evenodd" d="M15.3788 39.7459C16.1594 37.8417 17.0402 36.1043 17.6137 35.0855L17.769 35.1721C17.1988 36.185 16.3212 37.9158 15.5436 39.8128C14.7653 41.7114 14.0902 43.7692 13.9199 45.4385L13.7429 45.4206C13.9157 43.7254 14.5988 41.6487 15.3788 39.7459Z" fill="white"/>
<path fill-rule="evenodd" clip-rule="evenodd" d="M11.5723 41.2801C10.6943 39.329 9.74639 37.1435 9.1416 35.7265L9.30981 35.6607C9.91431 37.0771 10.8617 39.2615 11.7392 41.2113C12.178 42.1863 12.5991 43.1022 12.951 43.8339C13.3041 44.5682 13.5846 45.1106 13.7429 45.3437L13.5906 45.4385C13.4236 45.1927 13.1375 44.6377 12.7859 43.9066C12.4331 43.173 12.0113 42.2556 11.5723 41.2801Z" fill="white"/>
<path fill-rule="evenodd" clip-rule="evenodd" d="M12.9999 43.713C12.3004 38.4704 9.75329 32.3799 8.56671 29.9903L8.71753 29.9091C9.90771 32.306 12.4647 38.4171 13.168 43.6887L12.9999 43.713Z" fill="white"/>
<path fill-rule="evenodd" clip-rule="evenodd" d="M13.168 45.4228C13.3734 43.0238 13.896 31.3984 14.1318 25.8829L14.3183 25.8908C14.0827 31.4033 13.5599 43.0345 13.354 45.4385L13.168 45.4228Z" fill="white"/>
<path d="M59.5755 12.2523C59.5755 14.2079 58.2175 14.6968 57.5385 14.6968C59.1681 14.6968 59.5755 16.3264 59.5755 17.1412C59.5755 15.1857 60.9335 14.6968 61.6125 14.6968C59.9829 14.3708 59.5755 12.9313 59.5755 12.2523Z" fill="#FFCA7F"/>
<path d="M8.39891 15.4489C8.39891 17.4044 7.04089 17.8933 6.36188 17.8933C7.99151 17.8933 8.39891 19.523 8.39891 20.3378C8.39891 18.3822 9.75694 17.8933 10.436 17.8933C8.80632 17.5674 8.39891 16.1279 8.39891 15.4489Z" fill="#FFCA7F"/>
<path d="M19.726 10.56H53.3077V45.0745H19.726V10.56Z" fill="#FFB245"/>
<path d="M19.7259 15.9836H53.3076V18.7821H19.7259V15.9836Z" fill="#FFD36A"/>
<path d="M19.7259 21.5806H53.3076V22.5134H19.7259V21.5806Z" fill="#FFD36A"/>
<path d="M22.7498 36.7074V35.8992L19.5169 35.6298V36.7074H16.5535C15.0449 37.1384 14.3085 38.683 14.1289 39.4014V46.9446H28.6766V39.4014C28.4611 37.2462 26.6112 36.7074 25.7132 36.7074H22.7498Z" fill="white"/>
<path d="M19.5166 36.1686V35.3604H22.7494V36.1686C21.6718 36.8151 20.1452 36.438 19.5166 36.1686Z" fill="#FFF0CD"/>
<path d="M25.1744 32.3969V28.8947H17.0924V32.1275C17.1822 33.3847 18.1161 35.8992 21.1334 35.8992C24.1507 35.8992 25.0847 33.5643 25.1744 32.3969Z" fill="white"/>
<path d="M16.8226 42.0954V46.9446H28.6762V39.4013C28.4068 36.7073 26.2516 36.7073 25.174 36.7073C21.9412 40.5867 18.2594 41.9158 16.8226 42.0954Z" fill="#FFD36A"/>
<path d="M25.1745 31.0499C24.0969 30.6189 24.1867 29.4335 24.3663 28.8947L25.9827 28.6253V31.0499H25.1745Z" fill="#1B2246"/>
<path d="M16.9829 31.0499C18.0605 30.6189 17.9707 29.4335 17.7911 28.8947L16.1747 28.6253V31.0499H16.9829Z" fill="#1B2246"/>
<path d="M16.0145 24.7089C16.0145 24.1937 16.4322 23.7761 16.9474 23.7761H25.319C25.8341 23.7761 26.2518 24.1937 26.2518 24.7089V28.2313C26.2518 28.7465 25.8341 29.1641 25.319 29.1641H16.9473C16.4322 29.1641 16.0145 28.7464 16.0145 28.2313V24.7089Z" fill="#828282"/>
<path d="M25.1742 32.1275V29.9723C25.5334 30.0621 26.2518 30.4034 26.2518 31.0499C26.2518 31.6965 25.5334 32.0377 25.1742 32.1275Z" fill="white"/>
<path d="M17.0924 32.1275V29.9723C16.7332 30.0621 16.0148 30.4034 16.0148 31.0499C16.0148 31.6965 16.7332 32.0377 17.0924 32.1275Z" fill="white"/>
<path d="M21.6722 34.8216C21.2411 34.3905 20.7741 34.642 20.5945 34.8216C20.5945 35.1808 20.7023 35.8992 21.1333 35.8992C21.5644 35.8992 21.6722 35.1808 21.6722 34.8216Z" fill="#1B2246"/>
<path d="M59.3792 23.6227C57.6256 24.5925 53.7618 30.8277 52.3362 48.0102C56.2679 39.3961 63.1808 22.459 59.3792 23.6227Z" fill="#FFCA7F"/>
<path d="M52.5821 47.1953C51.4949 44.0811 49.2676 38.6927 49.056 42.0526C49.0854 43.1097 49.8317 45.6182 52.5821 47.1953Z" fill="#FFDDAD"/>
<path d="M52.5821 45.4811C52.5466 44.7298 52.4844 43.8634 52.3914 42.9328C52.5858 44.1509 52.796 45.4279 53.0229 46.7668C55.8438 16.0819 51.4361 17.8818 51.4361 17.8818C51.4361 17.8818 48.5713 16.4551 51.6132 37.7964C50.792 33.9091 49.4012 30.3855 47.2047 30.2244C46.1763 29.9101 45.8119 32.5215 52.5821 45.4811Z" fill="#FFDDAD"/>
<path d="M58.0399 40.0356C58.0399 41.4278 57.0621 44.8088 53.151 47.1953C54.012 43.3314 56.1951 36.4899 58.0399 40.0356Z" fill="#FFCA7F"/>
<path d="M59.4063 31.3525C58.3656 29.9498 55.4948 30.9918 52.3362 46.3805C55.3356 43.1459 60.9488 35.6118 59.4063 31.3525Z" fill="#FFDDAD"/>
<path fill-rule="evenodd" clip-rule="evenodd" d="M50.3437 44.8081C50.9682 45.8286 51.6842 46.7016 52.155 47.1953L52.3362 47.0357C51.8763 46.5532 51.1707 45.6935 50.5555 44.6883C49.9392 43.6812 49.4209 42.5398 49.3218 41.4916L49.077 41.513C49.181 42.6125 49.7204 43.7896 50.3437 44.8081Z" fill="white"/>
<path fill-rule="evenodd" clip-rule="evenodd" d="M50.0187 37.5013C48.9128 34.8036 47.665 32.3423 46.8525 30.899L46.6325 31.0216C47.4403 32.4566 48.6836 34.9085 49.7853 37.596C50.8878 40.2857 51.8442 43.2008 52.0854 45.5657L52.3362 45.5404C52.0913 43.1389 51.1237 40.1968 50.0187 37.5013Z" fill="white"/>
<path fill-rule="evenodd" clip-rule="evenodd" d="M55.4112 39.6746C56.6552 36.9106 57.9979 33.8145 58.8547 31.807L58.6164 31.7138C57.7601 33.7204 56.4179 36.8149 55.1748 39.5772C54.5532 40.9584 53.9567 42.2559 53.4581 43.2925C52.9579 44.3327 52.5605 45.1012 52.3362 45.4314L52.552 45.5657C52.7885 45.2175 53.1939 44.4312 53.692 43.3955C54.1918 42.3562 54.7893 41.0566 55.4112 39.6746Z" fill="white"/>
<path fill-rule="evenodd" clip-rule="evenodd" d="M53.3892 43.1213C54.38 35.6942 57.9885 27.066 59.6695 23.6807L59.4558 23.5657C57.7697 26.9613 54.1473 35.6188 53.151 43.0868L53.3892 43.1213Z" fill="white"/>
<path fill-rule="evenodd" clip-rule="evenodd" d="M53.151 45.5434C52.86 42.145 52.1196 25.6756 51.7856 17.862L51.5214 17.8732C51.8551 25.6825 52.5958 42.16 52.8875 45.5657L53.151 45.5434Z" fill="white"/>
</g>
<defs>
<radialGradient id="paint0_radial" cx="0" cy="0" r="1" gradientUnits="userSpaceOnUse" gradientTransform="translate(33 46.3178) rotate(90) scale(8.96296 33)">
<stop stop-color="#FDD296"/>
<stop offset="1" stop-color="#FFD18F" stop-opacity="0"/>
</radialGradient>
<clipPath id="clip0">
<rect width="66" height="66" fill="white"/>
</clipPath>
</defs>
</svg>
