<svg width="190" height="190" viewBox="0 0 190 190" fill="none" xmlns="http://www.w3.org/2000/svg">
<mask id="mask0" mask-type="alpha" maskUnits="userSpaceOnUse" x="0" y="0" width="190" height="190">
<rect width="190" height="190" fill="#C4C4C4"/>
</mask>
<g mask="url(#mask0)">
<rect x="106.079" y="63.1295" width="16.1395" height="4.52887" stroke="#E1E5F1"/>
<rect x="117.136" y="68.1055" width="16.1395" height="4.52887" stroke="#E1E5F1"/>
<rect x="106.079" y="73.0814" width="16.1395" height="4.52887" stroke="#E1E5F1"/>
<rect x="141.212" y="41.3148" width="16.1395" height="4.52888" stroke="#E8EAF2"/>
<rect x="132.918" y="46.2909" width="16.1395" height="4.52888" stroke="#E8EAF2"/>
<rect x="149.505" y="46.2909" width="16.1395" height="4.52888" stroke="#E8EAF2"/>
<rect x="141.212" y="51.2668" width="16.1395" height="4.52888" stroke="#E8EAF2"/>
<path d="M10.783 144.758L68.8362 144.758" stroke="#E8EAF2"/>
<path d="M165.256 123.883C165.765 119.562 162.503 116.575 160.808 115.622C160.173 120.494 158.394 131.572 156.36 136.91C154.327 142.248 157.843 146.336 159.855 147.712H163.985C167.163 147.924 173.835 147.839 175.106 145.806C176.694 143.264 169.387 138.498 165.256 135.321C161.126 132.144 164.621 129.284 165.256 123.883Z" fill="#EEF0F5"/>
<path d="M165.034 82.2359C164.21 81.8497 163.324 81.5583 162.612 80.9942C161.176 79.8474 160.812 77.8723 160.362 76.1004C159.912 74.3285 159.042 72.3804 157.27 71.8722C156.606 71.6842 155.829 71.7587 155.324 72.2263C154.793 72.7192 154.685 73.5289 154.83 74.2438C154.976 74.9586 155.33 75.599 155.603 76.2765C156.242 77.8503 156.436 79.5667 156.165 81.2416C155.942 82.6154 155.406 84.0078 155.75 85.3545C156.333 87.6397 159.237 88.9796 159.318 91.3342C159.372 92.9232 158.053 94.3935 158.352 95.9571C158.572 97.114 159.648 98.0169 159.706 99.1925C159.771 100.526 158.499 101.654 158.56 102.987C158.622 104.32 159.965 105.211 160.842 106.26C161.578 107.14 162.015 108.228 162.092 109.368C162.138 110.08 162.046 110.817 162.28 111.491C162.451 111.984 162.793 112.402 163.058 112.846C163.35 113.325 163.571 113.844 163.923 114.287C164.365 114.84 164.965 115.249 165.645 115.46C166.325 115.672 167.053 115.676 167.735 115.473C168.007 113.701 167.769 111.894 167.844 110.103C167.993 106.634 169.318 103.138 168.47 99.7702C168.159 98.5353 167.56 97.363 167.454 96.096C167.36 94.9644 167.665 93.843 167.877 92.7267C168.314 90.4212 168.307 88.0378 168.128 85.7069C167.986 83.8571 166.673 83.005 165.034 82.2359Z" fill="#F4F6FF"/>
<path d="M170.168 91.2165C170.155 92.7617 170.501 94.3594 170.015 95.8267C169.648 96.9387 168.84 97.8492 168.423 98.9425C167.46 101.466 168.755 104.296 168.491 106.99C168.381 108.1 168.007 109.166 167.771 110.256C167.478 111.636 167.406 113.055 167.558 114.459C167.542 114.714 167.618 114.967 167.771 115.17C167.923 115.373 168.143 115.514 168.389 115.566C169.204 115.882 170.048 116.114 170.908 116.258C170.617 114.624 170.924 112.939 171.77 111.519C173.088 109.319 175.65 107.836 176.127 105.309C176.45 103.598 175.698 101.862 175.752 100.12C175.79 98.9616 176.182 97.8437 176.872 96.9217C177.492 96.0992 178.332 95.4629 178.909 94.6099C180.296 92.5536 179.863 89.8051 179.451 87.346C179.039 84.8868 178.799 82.0571 180.429 80.1937C180.944 79.6048 181.616 79.163 182.083 78.5335C183.124 77.1304 182.861 74.9692 181.651 73.7151C180.44 72.461 178.492 72.1141 176.846 72.6658C176.151 72.874 175.539 73.2984 175.093 73.8793C174.262 75.0809 174.594 76.7225 174.947 78.151C175.255 79.3915 175.502 80.8233 175.082 82.074C174.767 83.0049 173.971 83.5092 173.294 84.1574C172.335 85.0608 171.564 86.1512 171.027 87.3639C170.49 88.5765 170.198 89.8867 170.168 91.2165Z" fill="#E8EAF2"/>
<path d="M165.892 113.08L161.126 84.803" stroke="white"/>
<path d="M162.622 94.2662C163.255 93.4889 163.87 92.6811 164.566 91.9571C164.691 91.8276 164.863 91.7264 164.971 91.5824C165.106 91.4029 165.142 91.1695 165.265 90.9849" stroke="white" stroke-linecap="round" stroke-linejoin="round"/>
<path d="M176.152 87.9197C175.297 90.6702 174.757 93.4754 174.084 96.2652C173.834 97.3014 173.433 98.3034 173.176 99.3495C172.979 100.155 172.699 100.889 172.43 101.67C171.983 102.963 171.49 104.235 170.931 105.478C170.625 106.157 170.155 107.124 170.155 107.873" stroke="white" stroke-width="0.5" stroke-linecap="round" stroke-linejoin="round"/>
<path d="M174.084 95.8804C173.92 94.3815 173.668 92.9021 173.383 91.4234C173.341 91.2052 173.227 90.6961 173.05 90.6078" stroke="white" stroke-width="0.5" stroke-linecap="round" stroke-linejoin="round"/>
<path d="M161.126 115.622L174.152 115.622L178.6 135.957" stroke="#E8EAF2"/>
<path d="M156.995 135.003L160.49 117.846" stroke="#E8EAF2"/>
<path d="M179.236 139.134C179.13 142.417 177.33 148.856 170.975 148.348C164.621 147.839 161.338 148.136 160.491 148.348C157.949 146.547 153.628 141.676 156.678 136.592" stroke="#E8EAF2"/>
<path d="M169.704 73.3651C170.657 81.3081 171.547 100.753 167.48 114.987" stroke="#E8EAF2"/>
<path d="M29.5812 49.661H60.5429" stroke="#F4F6FF"/>
<path d="M78.7883 64.0359L78.7883 94.9977" stroke="#F4F6FF"/>
<path d="M75.4708 91.1274V52.9781H57.7784V91.1274H75.4708Z" fill="#F4F6FF"/>
<path d="M55.0139 91.1277V52.9784H37.3215V91.1277H55.0139Z" fill="#F4F6FF"/>
<path d="M11.8886 132.041C7.24438 139.118 11.0593 143.283 13.5473 144.481H36.7686C38.4273 142.823 42.574 134.806 42.0211 122.642C41.4682 110.479 27.3695 118.772 29.8575 110.479C32.3455 102.185 33.1749 98.3152 25.4344 94.9979C17.694 91.6806 23.7758 90.8512 20.4584 85.3223C17.1411 79.7935 13.5473 87.2574 13.5473 90.8512C13.5473 94.445 18.5234 95.2743 16.3119 100.25C14.1003 105.226 6.35988 112.967 7.18921 118.772C8.01855 124.577 17.694 123.195 11.8886 132.041Z" fill="#E1E5F1"/>
<path d="M16.5884 83.6636C21.2879 97.8544 29.9683 129.996 27.0932 145.034" stroke="white"/>
<path d="M7.06128 113.827C9.99948 115.564 12.5181 117.023 15.7605 117.863C16.8796 118.153 18.0115 118.271 19.1308 118.519C20.4123 118.804 21.5601 118.837 22.8988 118.837C23.6305 118.837 24.3645 118.854 25.096 118.837C26.0029 118.816 26.9233 117.945 27.5417 117.326C28.4085 116.459 29.4019 115.524 29.7885 114.364" stroke="white" stroke-linecap="round" stroke-linejoin="round"/>
<path d="M24.778 115.438C26.9279 114.31 28.6051 113.121 29.9676 111.153C30.3779 110.56 30.8624 110.282 30.8624 109.532" stroke="white" stroke-linecap="round" stroke-linejoin="round"/>
<path d="M29.6097 97.0051C28.594 98.7395 27.6738 100.499 26.7266 102.264C26.4473 102.785 25.9532 103.119 25.6727 103.626C25.3543 104.203 25.2697 104.698 24.778 105.138C24.2727 105.59 23.8765 106.132 23.1674 106.132" stroke="white" stroke-linecap="round" stroke-linejoin="round"/>
<path d="M15.2933 102.374C17.1807 102.487 19.0526 102.553 20.9404 102.553C22.255 102.553 24.3743 101.545 25.1359 100.445C25.6533 99.6975 26.5203 99.2079 27.0944 98.5261C27.5378 97.9996 27.9738 96.7492 28.536 96.4681" stroke="white" stroke-linecap="round" stroke-linejoin="round"/>
<path d="M15.4723 99.8684C17.1857 100.076 18.8941 100.29 20.6222 100.226C21.9782 100.176 22.9455 98.4752 24.2411 97.9894C25.4624 97.5314 26.0681 96.4495 27.1044 95.9314" stroke="white" stroke-linecap="round" stroke-linejoin="round"/>
<path d="M5.62964 116.69C7.38335 117.807 9.15659 118.872 10.9685 119.891C12.3923 120.692 13.9147 120.999 15.4523 121.502C17.2018 122.075 19.0093 122.444 20.8408 122.685C22.6014 122.917 24.4347 122.775 26.2094 122.775" stroke="white" stroke-linecap="round" stroke-linejoin="round"/>
<path d="M26.7462 134.407C30.7174 130.821 35.0815 127.281 38.0403 122.765C39.0301 121.254 40.3067 119.495 40.8836 117.764" stroke="white" stroke-linecap="round" stroke-linejoin="round"/>
<path d="M8.13513 136.375C11.8324 136.872 15.5294 137.628 19.2701 137.628C20.8708 137.628 22.4714 137.628 24.0721 137.628C25.169 137.628 26.4587 137.815 27.5418 137.618C27.8952 137.554 28.9573 137.143 29.0728 136.912" stroke="white" stroke-linecap="round" stroke-linejoin="round"/>
<path d="M51.2414 134.609C54.8295 140.044 51.8821 143.243 49.9599 144.163H32.0195C30.738 142.89 27.5344 136.732 27.9615 127.39C28.3887 118.048 39.2811 124.417 37.3589 118.048C35.4367 111.678 34.796 108.705 40.7761 106.157C46.7563 103.61 42.0576 102.973 44.6205 98.7261C47.1834 94.4796 49.9599 100.212 49.9599 102.973C49.9599 105.733 46.1155 106.37 47.8241 110.192C49.5327 114.013 55.5128 119.959 54.8721 124.417C54.2314 128.876 46.7563 127.815 51.2414 134.609Z" stroke="#E1E5F1"/>
<path d="M47.7208 97.2095C44.157 108.204 37.5744 133.106 39.7546 144.758" stroke="#E1E5F1"/>
<path d="M54.9199 120.389C52.6707 121.829 50.7426 123.039 48.2605 123.736C47.4038 123.976 46.5372 124.073 45.6804 124.28C44.6994 124.516 43.8207 124.543 42.7959 124.543C42.2358 124.543 41.6739 124.557 41.114 124.543C40.4196 124.526 39.7151 123.803 39.2417 123.291C38.5782 122.572 37.8177 121.796 37.5217 120.834" stroke="#E1E5F1" stroke-linecap="round" stroke-linejoin="round"/>
<path d="M48.9205 111.928C47.4669 112.017 46.0253 112.068 44.5714 112.068C43.559 112.068 41.9268 111.281 41.3402 110.421C40.9417 109.837 40.274 109.455 39.8318 108.922C39.4903 108.51 39.1545 107.533 38.7216 107.313" stroke="#E1E5F1" stroke-linecap="round" stroke-linejoin="round"/>
<path d="M48.9205 109.979C47.595 110.151 46.2733 110.329 44.9363 110.276C43.8873 110.234 43.1389 108.826 42.1366 108.423C41.1917 108.044 40.7231 107.148 39.9214 106.719" stroke="#E1E5F1" stroke-linecap="round" stroke-linejoin="round"/>
<path d="M56.1199 122.767C54.7907 123.633 53.4466 124.46 52.0733 125.251C50.9941 125.872 49.8402 126.11 48.6748 126.5C47.3488 126.945 45.9788 127.232 44.5906 127.419C43.2561 127.598 41.8666 127.488 40.5214 127.488" stroke="#E1E5F1" stroke-linecap="round" stroke-linejoin="round"/>
<path d="M54.3202 137.625C51.4599 138.068 48.5996 138.743 45.7057 138.743C44.4673 138.743 43.229 138.743 41.9907 138.743C41.142 138.743 40.1442 138.909 39.3063 138.734C39.0329 138.676 38.2112 138.31 38.1218 138.104" stroke="#E1E5F1" stroke-linecap="round" stroke-linejoin="round"/>
<path d="M184.943 148.075H161.721" stroke="#D1D5E5" stroke-linecap="round"/>
<path d="M55.0141 155.263H39.5332" stroke="#D1D5E5" stroke-linecap="round"/>
<ellipse opacity="0.9" cx="161.168" cy="146.969" rx="2.21155" ry="1.10578" fill="white"/>
<path opacity="0.9" d="M65.0926 33.7778C65.0926 37.437 68.1419 38.3518 69.6666 38.3518C66.0074 38.3518 65.0926 41.4012 65.0926 42.9259C65.0926 39.2667 62.0432 38.3518 60.5185 38.3518C64.1777 37.742 65.0926 35.0483 65.0926 33.7778Z" fill="#FAB856"/>
<path opacity="0.9" d="M117.87 40.8148C117.87 43.3482 119.982 43.9815 121.037 43.9815C118.504 43.9815 117.87 46.0926 117.87 47.1482C117.87 44.6148 115.759 43.9815 114.704 43.9815C117.237 43.5593 117.87 41.6944 117.87 40.8148Z" fill="#FAB856"/>
<g opacity="0.3">
<path opacity="0.3" d="M117.815 116.921C111.964 111.657 121.585 101.129 121.585 101.129C125.522 96.9824 128.161 91.7743 129.194 86.1473C129.194 86.1473 130.269 86.9152 131.023 86.4405C131.777 85.9657 133.034 84.8208 132.741 79.5428C132.462 74.7676 128.678 77.8254 128.678 77.8254C131.261 63.0807 121.78 61.5867 121.78 61.5867L123.148 56.965C139.68 55.2196 140.071 73.1479 138.2 84.4857C138.2 84.4857 136.078 94.6646 135.561 97.7085C135.045 100.752 131.037 109.647 131.037 121.417" fill="#211E1F"/>
<path opacity="0.3" d="M110.931 73.8601C110.931 73.8601 133.816 99.1747 134.081 99.9287C134.347 100.697 128.454 113.501 124.182 117.215C116.014 124.336 90.7688 118.457 89.8333 108.167C89.2748 101.856 94.6923 99.9566 95.2229 94.3854C95.5999 90.3781 89.5819 88.144 88.5208 81.023C87.6271 74.9492 96.3818 70.2577 100.18 68.1214C103.964 65.9851 101.562 63.0668 106.575 58.7802C111.587 54.4937 125.452 54.9824 128.049 58.3334C130.647 61.6845 121.571 61.7822 116.656 61.866C111.741 61.9498 109.311 62.6898 109.186 65.9152C109.256 67.6466 108.516 69.2524 107.049 70.5649L110.931 73.8601Z" fill="#211E1F"/>
<path opacity="0.3" d="M132.322 82.7125C132.322 82.7125 133.718 82.517 133.928 80.8135C134.137 79.1101 136.064 75.5216 135.31 73.3853L132.839 70.3973L128.818 72.2962C128.818 72.2962 130.046 76.122 130.046 76.2477C130.046 76.3734 132.322 82.7125 132.322 82.7125Z" fill="#FBD9D4"/>
<path opacity="0.3" d="M133.984 74.4606L131.722 64.0862L120.928 60.5536L110.135 64.0862L107.873 74.4606C107.873 74.4606 107.538 79.0125 108.208 82.0145C108.865 85.0025 111.28 89.8337 113.305 92.2353C115.329 94.6369 117.48 97.9321 120.942 97.9321C124.405 97.9321 126.555 94.6369 128.58 92.2353C130.605 89.8337 133.02 85.0025 133.676 82.0145C134.319 79.0265 133.984 74.4606 133.984 74.4606Z" fill="#FBD9D4"/>
<path opacity="0.3" d="M124.433 63.346C124.433 63.346 115.65 72.5754 103.642 77.4764C103.642 77.4764 102.665 67.5488 104.229 62.3546C105.793 57.1744 111.936 52.9576 115.902 51.8267C119.867 50.6957 121.291 50.4723 122.995 51.8267C122.995 51.8267 128.58 51.1006 132.015 55.5827C138.577 64.1698 136.539 73.9158 136.539 73.9158C136.539 73.9158 131.205 73.4271 128.259 67.6186C125.355 61.9218 124.433 63.346 124.433 63.346Z" fill="#211E1F"/>
<path opacity="0.3" d="M133.495 78.733C133.495 78.733 133.886 74.1253 134.067 73.6087C134.263 73.092 135.282 74.8932 135.52 73.6924L132.154 70.8719L131.666 71.0674C131.68 71.0674 133.23 74.7955 133.495 78.733Z" fill="#211E1F"/>
<g opacity="0.3">
<path opacity="0.3" d="M124.433 86.0636C126.849 87.2784 130.577 86.2591 128.943 84.2205L125.732 80.1992L124.433 86.0636Z" fill="url(#paint0_linear)"/>
<path opacity="0.3" d="M124.335 86.0914C126.15 85.3932 129.488 84.0668 127.281 82.084C125.955 80.8553 125.299 79.0681 125.536 77.2808" fill="#FBD9D4"/>
<path opacity="0.3" d="M125.159 80.1852C125.327 80.6879 125.564 81.1486 125.871 81.5675C126.192 81.9585 126.541 82.3215 126.918 82.6706C127.184 82.9778 127.337 83.2989 127.184 83.5642C127.016 83.9272 126.751 84.2484 126.416 84.4718C125.62 85.0163 124.796 85.519 123.93 85.9658C124.922 85.8122 125.871 85.4911 126.751 85.0163C127.254 84.751 127.672 84.3322 127.924 83.8295C128.175 83.2012 128.049 82.4891 127.589 81.9864C127.142 81.4698 126.807 81.2743 126.528 80.9113C126.234 80.5762 125.997 80.1992 125.787 79.7942C125.383 78.9425 125.131 78.021 125.061 77.0854C124.754 78.1187 124.782 79.1938 125.159 80.1852Z" fill="#D45E3F"/>
</g>
<path opacity="0.3" d="M129.622 78.5333C130.21 78.4096 130.57 77.7526 130.426 77.0659C130.282 76.3792 129.688 75.9228 129.099 76.0465C128.51 76.1702 128.15 76.8272 128.295 77.5139C128.439 78.2007 129.033 78.6571 129.622 78.5333Z" fill="#211E1F"/>
<path opacity="0.3" d="M118.996 78.5349C119.585 78.4112 119.945 77.7542 119.801 77.0675C119.657 76.3807 119.062 75.9243 118.474 76.0481C117.885 76.1718 117.525 76.8288 117.669 77.5155C117.814 78.2022 118.408 78.6587 118.996 78.5349Z" fill="#211E1F"/>
<path opacity="0.3" d="M127.268 74.572C129.208 73.8879 131.317 73.9158 133.216 74.6558C133.439 74.7396 133.593 74.4324 133.397 74.3068C130.744 72.6173 127.714 73.4829 126.849 73.7762C126.709 73.8181 126.625 73.9716 126.639 74.1113L126.653 74.209C126.695 74.4883 126.988 74.6698 127.268 74.572Z" fill="#211E1F"/>
<path opacity="0.3" d="M120.118 74.4884C117.563 73.6646 114.757 74.0835 112.551 75.6473C115.357 72.38 119.406 73.3574 120.384 73.6507C120.509 73.6925 120.593 73.8182 120.593 73.9439L120.579 74.1812C120.565 74.4046 120.342 74.5582 120.118 74.4884Z" fill="#211E1F"/>
<path opacity="0.3" d="M120.258 91.5649C120.258 91.5649 122.213 88.13 125.173 88.521C127.421 88.8142 128.035 90.5875 128.035 90.5875C128.035 90.5875 125.089 86.8594 120.258 91.5649Z" fill="#91293C"/>
</g>
<g opacity="0.3">
<path opacity="0.3" d="M67.6465 116.921C73.4969 111.657 63.8765 101.129 63.8765 101.129C59.939 96.9824 57.3 91.7743 56.2668 86.1473C56.2668 86.1473 55.1916 86.9152 54.4377 86.4405C53.6837 85.9657 52.427 84.8208 52.7202 79.5428C52.9995 74.7676 56.7834 77.8254 56.7834 77.8254C54.2003 63.0807 63.681 61.5867 63.681 61.5867L62.3127 56.965C45.7807 55.2196 45.3897 73.1479 47.2608 84.4857C47.2608 84.4857 49.3831 94.6646 49.8997 97.7085C51.7847 108.669 59.2967 112.174 59.2967 123.945" fill="#211E1F"/>
<path opacity="0.3" d="M74.53 73.8601C74.53 73.8601 51.6449 99.1747 51.3796 99.9287C51.1143 100.697 57.0066 113.501 61.2793 117.215C69.4475 124.336 94.6923 118.457 95.6278 108.167C96.1863 101.856 90.7687 99.9566 90.2382 94.3854C89.8612 90.3781 95.8791 88.144 96.9403 81.023C97.8339 74.9492 89.0792 70.2577 85.2814 68.1214C81.4835 65.9851 83.899 63.0668 78.8864 58.7802C73.8737 54.4937 60.0086 54.9824 57.4116 58.3334C54.8145 61.6845 63.8903 61.7822 68.8052 61.866C73.7201 61.9498 76.1497 62.6898 76.2753 65.9152C76.2055 67.6466 76.9455 69.2524 78.4116 70.5649L74.53 73.8601Z" fill="#211E1F"/>
<path opacity="0.3" d="M53.1389 82.7125C53.1389 82.7125 51.7426 82.517 51.5332 80.8135C51.3238 79.1101 49.3969 75.5216 50.1509 73.3853L52.6223 70.3973L56.6436 72.2962C56.6436 72.2962 55.4149 76.122 55.4149 76.2477C55.4149 76.3734 53.1389 82.7125 53.1389 82.7125Z" fill="#FBD9D4"/>
<path opacity="0.3" d="M51.4775 74.4606L53.7395 64.0862L64.5327 60.5536L75.326 64.0862L77.588 74.4606C77.588 74.4606 77.9231 79.0125 77.2529 82.0145C76.5966 85.0025 74.1811 89.8337 72.1564 92.2353C70.1318 94.6369 67.9816 97.9321 64.5188 97.9321C61.056 97.9321 58.9057 94.6369 56.8811 92.2353C54.8565 89.8337 52.441 85.0025 51.7847 82.0145C51.1424 79.0265 51.4775 74.4606 51.4775 74.4606Z" fill="#FBD9D4"/>
<path opacity="0.3" d="M61.0279 63.346C61.0279 63.346 69.8105 72.5754 81.8186 77.4764C81.8186 77.4764 82.796 67.5488 81.2321 62.3546C79.6683 57.1744 73.5246 52.9576 69.5592 51.8267C65.5938 50.6957 64.1696 50.4723 62.4661 51.8267C62.4661 51.8267 56.881 51.1006 53.4461 55.5827C46.8836 64.1698 48.9222 73.9158 48.9222 73.9158C48.9222 73.9158 54.2559 73.4271 57.2021 67.6186C60.1064 61.9218 61.0279 63.346 61.0279 63.346Z" fill="#211E1F"/>
<path opacity="0.3" d="M51.966 78.733C51.966 78.733 51.5751 74.1253 51.3935 73.6087C51.1981 73.092 50.1788 74.8932 49.9414 73.6924L53.3064 70.8719L53.7951 71.0674C53.7812 71.0674 52.2313 74.7955 51.966 78.733Z" fill="#211E1F"/>
<g opacity="0.3">
<path opacity="0.3" d="M61.0279 86.0636C58.6123 87.2784 54.8843 86.2591 56.5179 84.2205L59.7294 80.1992L61.0279 86.0636Z" fill="url(#paint1_linear)"/>
<path opacity="0.3" d="M61.1256 86.0914C59.3104 85.3932 55.9733 84.0668 58.1795 82.084C59.5059 80.8553 60.1622 79.0681 59.9248 77.2808" fill="#FBD9D4"/>
<path opacity="0.3" d="M60.3018 80.1852C60.1343 80.6879 59.8969 81.1486 59.5897 81.5675C59.2686 81.9585 58.9195 82.3215 58.5425 82.6706C58.2772 82.9778 58.1236 83.2989 58.2772 83.5642C58.4448 83.9272 58.71 84.2484 59.0452 84.4718C59.841 85.0163 60.6648 85.519 61.5305 85.9658C60.5392 85.8122 59.5897 85.4911 58.71 85.0163C58.2074 84.751 57.7885 84.3322 57.5372 83.8295C57.2858 83.2012 57.4115 82.4891 57.8723 81.9864C58.3191 81.4698 58.6542 81.2743 58.9335 80.9113C59.2267 80.5762 59.464 80.1992 59.6735 79.7942C60.0784 78.9425 60.3297 78.021 60.3995 77.0854C60.7067 78.1187 60.6788 79.1938 60.3018 80.1852Z" fill="#D45E3F"/>
</g>
<path opacity="0.3" d="M57.1665 77.5283C57.3109 76.8416 56.9507 76.1846 56.3621 76.0608C55.7735 75.9371 55.1793 76.3935 55.0349 77.0802C54.8906 77.767 55.2507 78.424 55.8393 78.5477C56.428 78.6714 57.0222 78.215 57.1665 77.5283Z" fill="#211E1F"/>
<path opacity="0.3" d="M67.7875 77.5223C67.9318 76.8356 67.5717 76.1786 66.9831 76.0549C66.3944 75.9311 65.8002 76.3875 65.6559 77.0743C65.5115 77.761 65.8717 78.418 66.4603 78.5417C67.0489 78.6654 67.6431 78.209 67.7875 77.5223Z" fill="#211E1F"/>
<path opacity="0.3" d="M58.1935 74.572C56.2527 73.8879 54.1443 73.9158 52.2453 74.6558C52.0219 74.7396 51.8683 74.4324 52.0638 74.3068C54.7168 72.6173 57.7467 73.4829 58.6124 73.7762C58.752 73.8181 58.8358 73.9716 58.8218 74.1113L58.8079 74.209C58.7799 74.4883 58.4728 74.6698 58.1935 74.572Z" fill="#211E1F"/>
<path opacity="0.3" d="M65.3425 74.4884C67.8977 73.6646 70.7043 74.0835 72.9104 75.6473C70.1039 72.38 66.0546 73.3574 65.0772 73.6507C64.9516 73.6925 64.8678 73.8182 64.8678 73.9439L64.8818 74.1812C64.8957 74.4046 65.1191 74.5582 65.3425 74.4884Z" fill="#211E1F"/>
<path opacity="0.3" d="M65.203 91.5649C65.203 91.5649 63.2482 88.13 60.288 88.521C58.04 88.8142 57.4257 90.5875 57.4257 90.5875C57.4257 90.5875 60.3718 86.8594 65.203 91.5649Z" fill="#91293C"/>
</g>
<path d="M98.7974 55.6386C116.167 53.8095 116.586 72.6454 114.617 84.5556C112.649 96.4659 117.312 100.012 125.425 106.058C130.13 109.507 133.327 114.646 134.361 120.384C132.392 117.606 125.02 112.984 118.722 112.579C108.069 111.909 97.2057 122.241 93.1983 118.639C87.0407 113.11 97.1498 102.051 97.1498 102.051C101.283 97.6947 104.061 92.2212 105.151 86.315C105.151 86.315 106.281 87.1248 107.077 86.6221C107.873 86.1195 109.2 84.9187 108.879 79.3754C108.585 74.3628 104.62 77.5742 104.62 77.5742C107.329 62.0895 97.3732 60.5117 97.3732 60.5117L98.7974 55.6386Z" fill="#211E1F"/>
<path d="M85.812 75.005C85.812 75.005 108.962 100.613 109.228 101.381C109.493 102.149 103.531 115.12 99.2164 118.862C90.9504 126.067 65.4124 120.119 64.4629 109.703C63.8904 103.322 69.3778 101.395 69.9084 95.7537C70.2994 91.6906 64.1976 89.4425 63.1364 82.2377C62.2288 76.0941 71.0952 71.3467 74.921 69.1825C78.7608 67.0322 76.3173 64.0721 81.3858 59.7297C86.4543 55.3872 100.487 55.8759 103.126 59.2828C105.765 62.6898 96.5774 62.7736 91.6066 62.8573C86.6359 62.9411 84.1784 63.6811 84.0388 66.9484C84.1086 68.6938 83.3546 70.3274 81.8885 71.6539L85.812 75.005Z" fill="#211E1F"/>
<path d="M107.999 103.419C104.927 102.037 104.774 90.5316 104.774 90.5316L86.4264 90.0708C86.4264 90.0708 89.3865 105.877 84.2343 105.123C84.2343 105.123 82.7542 105.695 80.7994 105.737C78.8446 105.793 84.4018 116.516 84.4018 116.516C84.4018 116.516 94.5109 130.046 94.4969 130.046C94.483 130.046 108.278 123.889 108.208 123.093C108.139 122.297 108.53 117.661 108.641 116.279C108.753 114.897 113.417 105.29 113.417 105.29C113.417 105.29 110.582 104.578 107.999 103.419Z" fill="#FBD9D4"/>
<path opacity="0.9" d="M86.7334 92.4165C86.7334 92.4165 89.6237 101.269 94.0918 104.452C98.5599 107.636 104.773 91.6207 104.773 91.6207L86.7334 92.4165Z" fill="url(#paint2_linear)"/>
<path d="M109.06 82.6985C109.06 82.6985 110.526 82.489 110.75 80.7018C110.973 78.9146 112.998 75.1306 112.202 72.8966L109.605 69.7689L105.388 71.7516C105.388 71.7516 106.686 75.7729 106.686 75.8986C106.673 76.0243 109.06 82.6985 109.06 82.6985Z" fill="#FBD9D4"/>
<path d="M79.6403 75.8986C79.6403 75.8986 79.4867 77.5462 79.9754 78.8028C80.4641 80.0735 80.1849 82.112 81.4834 82.6985L81.7347 78.8587L81.9023 76.5967L81.5532 75.6472L81.0366 74.8374L79.6403 75.8986Z" fill="#FBD9D4"/>
<path d="M110.191 74.0277L107.65 63.1227L95.544 59.4086L83.4383 63.1227L80.897 74.0277C80.897 74.0277 80.534 78.8169 81.2601 81.9586C81.9861 85.1002 84.7089 90.1827 86.9709 92.696C89.2328 95.2233 91.6484 98.686 95.5301 98.686C99.4117 98.686 101.827 95.2233 104.089 92.696C106.351 90.1687 109.06 85.1002 109.8 81.9586C110.554 78.8169 110.191 74.0277 110.191 74.0277Z" fill="#FBD9D4"/>
<path d="M96.6472 60.6094C96.6472 60.6094 87.7529 71.9053 78.314 77.1832C78.314 77.1832 77.2947 66.739 78.9284 61.2935C80.562 55.848 87.0268 51.4218 91.2017 50.235C95.3766 49.0481 96.8706 48.8247 98.6578 50.235C98.6578 50.235 104.522 49.467 108.125 54.1865C115.022 63.2204 112.872 73.4551 112.872 73.4551C112.872 73.4551 105.639 72.2404 102.274 66.2783C98.1133 58.9199 96.6472 60.6094 96.6472 60.6094Z" fill="#211E1F"/>
<path d="M109.674 78.5097C109.674 78.5097 110.121 75.0329 110.317 74.4744C110.512 73.9299 111.559 73.7483 111.811 72.4917L108.278 70.2576L107.761 70.4671C107.761 70.4671 109.409 74.3767 109.674 78.5097Z" fill="#211E1F"/>
<path d="M80.8131 74.9352C80.8131 74.9352 80.8131 79.1101 81.0226 80.3667C81.0226 80.3667 80.0033 78.6074 79.6403 75.8986L80.8131 74.9352Z" fill="#211E1F"/>
<path d="M96.7587 86.217C94.2175 87.4877 90.3079 86.4265 92.0253 84.2762L95.3903 80.0455L96.7587 86.217Z" fill="url(#paint3_linear)"/>
<path d="M96.8564 86.245C94.9435 85.519 91.4388 84.1227 93.7566 82.0422C95.1529 80.7576 95.8371 78.8727 95.5997 77.0016" fill="#FBD9D4"/>
<path d="M95.9906 80.0454C95.8231 80.5621 95.5578 81.0647 95.2366 81.5115C94.9015 81.9165 94.5385 82.3074 94.1475 82.6704C93.8822 82.9916 93.7147 83.3267 93.8683 83.606C94.0498 83.9969 94.3291 84.3181 94.6781 84.5694C95.5159 85.1419 96.3816 85.6725 97.2892 86.1472C96.2559 85.9796 95.2506 85.6445 94.3291 85.1558C93.7985 84.8766 93.3656 84.4437 93.1003 83.9131C92.835 83.2569 92.9747 82.5029 93.4494 81.9863C93.9102 81.4557 94.2732 81.2323 94.5525 80.8553C94.8596 80.4922 95.111 80.1013 95.3204 79.6824C95.7533 78.7888 96.0046 77.8253 96.0884 76.834C96.4235 77.8672 96.3816 78.9982 95.9906 80.0454Z" fill="#D45E3F"/>
<path d="M102.032 78.3111C102.651 78.1811 103.029 77.4883 102.877 76.7639C102.724 76.0394 102.099 75.5576 101.481 75.6876C100.862 75.8177 100.484 76.5104 100.636 77.2349C100.788 77.9594 101.413 78.4412 102.032 78.3111Z" fill="#211E1F"/>
<path d="M90.3871 78.3099C91.0059 78.1798 91.3841 77.4871 91.2318 76.7626C91.0795 76.0382 90.4545 75.5563 89.8357 75.6864C89.2169 75.8165 88.8387 76.5092 88.9909 77.2337C89.1432 77.9581 89.7683 78.44 90.3871 78.3099Z" fill="#211E1F"/>
<path d="M99.5654 74.1393C102.162 73.2177 105.053 73.5389 107.385 75.0329C104.383 71.7656 100.18 72.9385 99.1186 73.3015C98.965 73.3573 98.8812 73.497 98.9091 73.6506L98.9231 73.7483C98.951 74.0555 99.2722 74.237 99.5654 74.1393Z" fill="#211E1F"/>
<path d="M91.5648 74.0416C88.884 73.1759 85.9378 73.6087 83.62 75.2563C86.5662 71.8215 90.8248 72.8408 91.8581 73.1619C91.9977 73.2038 92.0815 73.3295 92.0675 73.4691L92.0535 73.7204C92.0256 73.9718 91.7882 74.1253 91.5648 74.0416Z" fill="#211E1F"/>
<path d="M91.439 91.9976C91.439 91.9976 93.687 88.4511 97.429 89.0515C100.263 89.5123 101.143 91.4391 101.143 91.4391C101.143 91.4391 97.2056 87.2642 91.439 91.9976Z" fill="#91293C"/>
<path d="M82.3211 55.8341C82.3211 55.8341 78.621 59.5063 78.0066 65.2032C77.3923 70.9 83.9408 63.1087 83.871 62.6619C83.8012 62.2151 84.611 59.7018 84.611 59.7018L82.3211 55.8341Z" fill="#211E1F"/>
<path d="M105.262 51.6453C105.262 51.6453 109.591 53.4185 113.514 63.9605C117.438 74.5024 106.463 61.6426 106.463 61.6426C106.463 61.6426 105.346 56.0994 105.262 55.4292C105.164 54.759 105.262 51.6453 105.262 51.6453Z" fill="#211E1F"/>
<path d="M112.369 129.795L114.268 163.334L115.19 179.391V195.448L114.268 202.569C114.268 202.569 105.304 204.287 100.459 204.72C95.6138 205.152 85.0439 206.842 85.0439 206.842L78.2859 195.56L79.8916 141.999L83.5778 108.879C83.5778 108.879 88.3391 112.272 98.0433 110.917L111.853 108.655" fill="white"/>
<path d="M89.6796 210.207C89.6796 202.206 87.5852 171.893 84.0107 162.077C79.7939 150.516 83.8432 126.444 84.0107 122.898C84.1783 119.351 86.524 103.489 86.524 103.489C82.5586 104.746 74.3624 107.05 69.2241 108.474C66.5711 109.214 64.5745 110.205 64.5745 110.205L65.2028 169.184C66.0545 174.476 59.8411 204.678 59.8411 204.678C59.8411 204.678 66.9481 209.439 89.6796 210.207Z" fill="#4DA6DC"/>
<path d="M130.772 111.797L127.924 150.474L135.827 198.241C131.052 204.999 109.968 207.903 109.968 207.903C109.688 206.814 107.077 182.826 107.077 179.796C107.077 176.766 109.744 166.112 110.987 158.573C112.23 151.033 111.238 140.407 110.582 136.777C110.107 134.18 107.468 115.567 107.301 113.682C107.147 111.797 106.91 102.149 106.91 102.149C106.91 102.149 122.841 110.052 130.772 111.797Z" fill="#4DA6DC"/>
<path fill-rule="evenodd" clip-rule="evenodd" d="M115.532 135.312C115.532 135.312 115.532 135.312 115.469 135.283C115.405 135.253 115.406 135.253 115.406 135.253L115.406 135.253L115.406 135.253L115.406 135.252L115.407 135.251C115.407 135.25 115.408 135.248 115.409 135.245C115.412 135.241 115.415 135.234 115.419 135.226C115.428 135.21 115.442 135.187 115.46 135.158C115.497 135.1 115.555 135.019 115.639 134.925C115.806 134.738 116.078 134.498 116.498 134.285L116.562 134.409C116.158 134.615 115.899 134.843 115.743 135.018C115.664 135.106 115.611 135.181 115.578 135.233C115.561 135.259 115.549 135.279 115.542 135.293C115.538 135.3 115.536 135.305 115.534 135.308L115.533 135.311L115.532 135.312Z" fill="#4DA6DC"/>
<path opacity="0.9" d="M113.919 144.302C113.919 144.302 110.638 146.564 111.922 146.243C113.207 145.922 114.673 144.987 114.91 144.721C115.162 144.456 114.84 143.856 113.919 144.302Z" fill="url(#paint4_linear)"/>
<path d="M79.4308 169.394C79.6263 169.617 79.8218 169.84 79.9894 170.036C81.7208 172.019 86.887 178.092 87.3897 180.145C87.3897 180.145 86.147 169.813 85.2813 167.02C84.625 164.255 83.6337 160.932 83.4801 160.541C83.2427 159.941 81.7347 153.267 82.0838 147.137C82.4329 141.021 76.8198 128.413 72.7147 143.632C69.2101 156.646 76.0658 165.526 79.4308 169.394Z" fill="url(#paint5_linear)"/>
<path d="M108.348 171.879C108.348 171.879 111.057 158.963 111.112 158.098C111.168 157.232 111.601 152.275 111.573 150.055C111.545 147.835 119.392 145.517 120.467 154.495C121.543 163.473 107.566 175.858 107.566 175.858L108.348 171.879Z" fill="url(#paint6_linear)"/>
<path fill-rule="evenodd" clip-rule="evenodd" d="M127.884 126.093C127.978 126.071 128.072 126.129 128.094 126.223C128.896 129.684 128.894 135.761 128.695 140.951C128.596 143.551 128.446 145.935 128.322 147.67C128.259 148.537 128.203 149.242 128.163 149.73C128.143 149.974 128.126 150.164 128.115 150.293C128.109 150.357 128.105 150.407 128.102 150.44L128.1 150.468L131.126 168.793C131.142 168.888 131.077 168.978 130.982 168.993C130.887 169.009 130.797 168.945 130.781 168.85L127.748 150.48L127.75 150.458L127.924 150.474C127.75 150.458 127.75 150.458 127.75 150.458L127.754 150.409C127.757 150.376 127.762 150.327 127.767 150.262C127.779 150.134 127.795 149.945 127.815 149.701C127.855 149.214 127.911 148.51 127.974 147.645C128.098 145.913 128.247 143.532 128.346 140.938C128.545 135.74 128.543 129.71 127.754 126.302C127.732 126.208 127.79 126.114 127.884 126.093Z" fill="#1B2246"/>
<path fill-rule="evenodd" clip-rule="evenodd" d="M132.047 130.724C132.143 130.726 132.219 130.806 132.217 130.902C132.203 131.578 131.968 132.568 131.634 133.657C131.299 134.752 130.857 135.965 130.418 137.095C129.979 138.224 129.542 139.273 129.215 140.038C129.051 140.421 128.915 140.734 128.819 140.95C128.772 141.059 128.734 141.143 128.709 141.2C128.696 141.229 128.686 141.251 128.68 141.266L128.669 141.288C128.669 141.288 128.669 141.288 128.51 141.217C128.351 141.145 128.351 141.145 128.351 141.145L128.361 141.123C128.367 141.109 128.377 141.087 128.39 141.058C128.415 141.001 128.453 140.917 128.5 140.81C128.595 140.594 128.731 140.283 128.894 139.901C129.22 139.138 129.656 138.093 130.093 136.968C130.53 135.843 130.968 134.638 131.3 133.555C131.634 132.466 131.855 131.517 131.868 130.894C131.87 130.798 131.95 130.722 132.047 130.724ZM128.439 141.376C128.351 141.336 128.312 141.233 128.351 141.145L128.51 141.217L128.669 141.288C128.63 141.376 128.526 141.415 128.439 141.376Z" fill="#1B2246"/>
<path d="M130.772 111.797C130.772 111.797 134.291 113.431 134.78 116.153C135.268 118.876 140.644 155.152 141.314 161.602C141.984 168.053 143.813 194.792 143.813 194.792L125.285 193.158V122.953L130.772 111.797Z" fill="#4DA6DC"/>
<path d="M125.285 122.953L121.054 191.008H125.285V122.953Z" fill="url(#paint7_linear)"/>
<path fill-rule="evenodd" clip-rule="evenodd" d="M125.285 137.461C125.478 137.461 125.634 137.617 125.634 137.81V186.107C125.634 186.3 125.478 186.456 125.285 186.456C125.092 186.456 124.936 186.3 124.936 186.107V137.81C124.936 137.617 125.092 137.461 125.285 137.461Z" fill="#1B2246"/>
<path d="M64.7421 110.275C64.7421 110.275 61.2234 111.909 60.7347 114.631C60.246 117.354 54.8704 153.63 54.2001 160.08C53.5299 166.545 51.7008 193.27 51.7008 193.27L70.2434 191.622V121.417L64.7421 110.275Z" fill="#4DA6DC"/>
<path d="M70.2292 121.417L74.46 189.472H70.2292V121.417Z" fill="url(#paint8_linear)"/>
<path fill-rule="evenodd" clip-rule="evenodd" d="M70.2296 135.925C70.4224 135.925 70.5786 136.081 70.5786 136.274V184.571C70.5786 184.764 70.4224 184.92 70.2296 184.92C70.0368 184.92 69.8805 184.764 69.8805 184.571V136.274C69.8805 136.081 70.0368 135.925 70.2296 135.925Z" fill="#1B2246"/>
<path d="M146.257 84.4996C145.573 84.9604 144.833 85.3234 144.121 85.7004C143.744 85.868 143.381 86.0495 143.018 86.231L141.9 86.7197C141.537 86.8873 141.147 87.0269 140.77 87.1805C140.393 87.3201 140.016 87.4877 139.639 87.6273C138.871 87.8786 138.117 88.1858 137.349 88.4232L136.19 88.7862C135.799 88.8979 135.422 89.0515 135.031 89.1493C134.249 89.3587 133.481 89.5821 132.699 89.8055C131.121 90.1825 129.571 90.6014 127.98 90.9086C126.402 91.2716 124.81 91.5369 123.218 91.8441C122.422 92.0116 121.613 92.1094 120.817 92.235C120.021 92.3607 119.211 92.4864 118.415 92.626C116.809 92.8494 115.19 93.0728 113.57 93.3102C112.76 93.4079 111.95 93.5057 111.14 93.6313L109.926 93.8128C109.521 93.8827 109.116 93.9385 108.697 94.0083C109.102 94.0502 109.521 94.0781 109.926 94.1061L111.154 94.1759C111.978 94.2178 112.802 94.2596 113.626 94.2876C115.273 94.2876 116.921 94.2457 118.569 94.1759C119.392 94.1061 120.216 94.0362 121.04 93.9664C121.864 93.8966 122.688 93.8268 123.497 93.6872L125.955 93.3102L126.569 93.2124L127.184 93.0868L128.398 92.8354C129.208 92.6539 130.018 92.5003 130.814 92.2769C131.61 92.0535 132.42 91.8441 133.216 91.6067C133.998 91.3414 134.793 91.0761 135.575 90.8108C136.357 90.5316 137.125 90.1965 137.893 89.8893C138.284 89.7357 138.647 89.5542 139.024 89.3727L140.155 88.8281C140.532 88.6466 140.895 88.4372 141.258 88.2277C141.621 88.0183 141.984 87.8368 142.333 87.5994L143.381 86.9292C143.716 86.6918 144.065 86.4405 144.386 86.2031C144.707 85.9378 145.042 85.6865 145.349 85.4212L145.81 85.0023C145.978 84.7929 146.117 84.6532 146.257 84.4996Z" fill="#494849"/>
<path d="M149.873 94.2457C148.323 94.8322 146.787 95.3907 145.238 95.9073C143.688 96.4239 142.138 96.8987 140.574 97.3036C139.01 97.7364 137.432 98.0576 135.827 98.3508C135.422 98.4206 135.031 98.4765 134.626 98.5602L133.411 98.7138L132.797 98.7976C132.587 98.8116 132.392 98.8255 132.182 98.8535C131.777 98.8953 131.359 98.9372 130.954 98.9931C131.359 99.0629 131.777 99.1327 132.182 99.1886C132.392 99.2165 132.601 99.2444 132.811 99.2723L133.439 99.3003C133.858 99.3142 134.277 99.3422 134.696 99.3422C135.115 99.3282 135.533 99.3142 135.952 99.2863C137.614 99.1746 139.275 98.9093 140.895 98.4625C142.515 98.0297 144.079 97.4711 145.601 96.773C145.978 96.5915 146.355 96.41 146.718 96.2284C147.081 96.033 147.458 95.8375 147.807 95.628C148.505 95.2092 149.217 94.7624 149.873 94.2457Z" fill="#494849"/>
<path d="M44.454 84.4996C45.1382 84.9604 45.8782 85.3234 46.5903 85.7004C46.9673 85.868 47.3303 86.0495 47.6934 86.231L48.8104 86.7197C49.1734 86.8873 49.5644 87.0269 49.9414 87.1805C50.3184 87.3201 50.6954 87.4877 51.0724 87.6273C51.8403 87.8786 52.5943 88.1858 53.3623 88.4232L54.5212 88.7862C54.9121 88.8979 55.2891 89.0515 55.6801 89.1493C56.462 89.3587 57.23 89.5821 58.0119 89.8055C59.5897 90.1825 61.1395 90.6014 62.7313 90.9086C64.3091 91.2716 65.9009 91.5369 67.4926 91.8441C68.2885 92.0116 69.0983 92.1094 69.8942 92.235C70.6901 92.3607 71.5 92.4864 72.2958 92.626C73.9016 92.8494 75.5212 93.0728 77.1409 93.3102C77.9508 93.4079 78.7606 93.5057 79.5705 93.6313L80.7852 93.8128C81.1901 93.8827 81.5951 93.9385 82.014 94.0083C81.609 94.0502 81.1901 94.0781 80.7852 94.1061L79.5565 94.1759C78.7327 94.2178 77.9089 94.2596 77.0851 94.2876C75.4375 94.2876 73.7899 94.2457 72.1422 94.1759C71.3184 94.1061 70.4946 94.0362 69.6708 93.9664C68.847 93.8966 68.0232 93.8268 67.2134 93.6872L64.7559 93.3102L64.1416 93.2124L63.5272 93.0868L62.3124 92.8354C61.5026 92.6539 60.6927 92.5003 59.8969 92.2769C59.101 92.0535 58.2911 91.8441 57.4953 91.6067C56.7133 91.3414 55.9175 91.0761 55.1355 90.8108C54.3536 90.5316 53.5857 90.1965 52.8177 89.8893C52.4267 89.7357 52.0637 89.5542 51.6867 89.3727L50.5557 88.8281C50.1787 88.6466 49.8157 88.4372 49.4527 88.2277C49.0896 88.0183 48.7266 87.8368 48.3775 87.5994L47.3303 86.9292C46.9952 86.6918 46.6461 86.4405 46.325 86.2031C46.0039 85.9378 45.6687 85.6865 45.3616 85.4212L44.9008 85.0023C44.7332 84.7929 44.5936 84.6532 44.454 84.4996Z" fill="#494849"/>
<path d="M60.7765 98.9652C62.3962 99.3422 63.9879 99.6913 65.5937 100.012C67.1994 100.32 68.7911 100.585 70.3969 100.794C72.0026 101.018 73.6223 101.129 75.242 101.213C75.6469 101.227 76.0518 101.241 76.4567 101.255H77.6855L78.2998 101.269C78.5093 101.255 78.7047 101.241 78.9142 101.241C79.3191 101.227 79.738 101.213 80.1569 101.213C79.7659 101.339 79.361 101.451 78.9561 101.562C78.7606 101.618 78.5512 101.674 78.3557 101.716L77.7413 101.828C77.3364 101.897 76.9175 101.967 76.4986 102.037C76.0797 102.079 75.6748 102.121 75.2559 102.149C73.5944 102.246 71.9049 102.205 70.2572 101.981C68.5957 101.772 66.962 101.423 65.3703 100.934C64.9793 100.808 64.5744 100.683 64.1834 100.543C63.7925 100.389 63.4015 100.25 63.0245 100.096C62.2565 99.7471 61.5026 99.3981 60.7765 98.9652Z" fill="#494849"/>
<path d="M58.5846 81.7072C59.7435 82.2378 60.9164 82.6846 62.1032 83.0756C63.2901 83.4665 64.4769 83.8156 65.6917 84.0669C66.9064 84.3183 68.1212 84.5556 69.3639 84.6813C69.9783 84.7651 70.6066 84.807 71.2349 84.8628C71.5421 84.9047 71.8632 84.9047 72.1844 84.9187C72.5055 84.9326 72.8127 84.9605 73.1339 84.9885C72.8267 85.0583 72.5055 85.1281 72.1983 85.1839C71.8772 85.2398 71.57 85.3096 71.2489 85.3375L70.2854 85.4213C70.1318 85.4353 69.9643 85.4492 69.8107 85.4492H69.322C68.0374 85.4632 66.7389 85.2957 65.4822 85.0164C64.2256 84.7511 62.9968 84.3183 61.824 83.7737C60.6511 83.2431 59.5201 82.5869 58.5846 81.7072Z" fill="#494849"/>
<path d="M161.772 92.4542C161.772 96.6832 158.541 97.7404 156.926 97.7404C160.802 97.7404 161.772 101.264 161.772 103.027C161.772 98.7976 165.002 97.7404 166.617 97.7404C162.741 97.0356 161.772 93.9226 161.772 92.4542Z" fill="#3F99DD"/>
<path d="M37.2963 52.0741C37.2963 54.6074 35.4197 55.2408 34.4814 55.2408C36.7333 55.2408 37.2963 57.3519 37.2963 58.4074C37.2963 55.8741 39.1728 55.2408 40.1111 55.2408C37.8592 54.8185 37.2963 52.9537 37.2963 52.0741Z" fill="#3F99DD"/>
</g>
<defs>
<linearGradient id="paint0_linear" x1="130.55" y1="87.8739" x2="126.162" y2="84.1789" gradientUnits="userSpaceOnUse">
<stop offset="0.22" stop-color="#D7916B" stop-opacity="0"/>
<stop offset="0.99" stop-color="#A5525B"/>
</linearGradient>
<linearGradient id="paint1_linear" x1="54.9088" y1="87.8764" x2="59.2961" y2="84.1814" gradientUnits="userSpaceOnUse">
<stop offset="0.22" stop-color="#D7916B" stop-opacity="0"/>
<stop offset="0.99" stop-color="#A5525B"/>
</linearGradient>
<linearGradient id="paint2_linear" x1="105.536" y1="101.717" x2="90.3494" y2="92.5712" gradientUnits="userSpaceOnUse">
<stop offset="0.22" stop-color="#D7916B" stop-opacity="0"/>
<stop offset="0.99" stop-color="#A5525B"/>
</linearGradient>
<linearGradient id="paint3_linear" x1="90.3575" y1="88.09" x2="94.968" y2="84.2073" gradientUnits="userSpaceOnUse">
<stop offset="0.22" stop-color="#D7916B" stop-opacity="0"/>
<stop offset="0.99" stop-color="#A5525B"/>
</linearGradient>
<linearGradient id="paint4_linear" x1="113.217" y1="143.693" x2="113.532" y2="148.995" gradientUnits="userSpaceOnUse">
<stop offset="0.22" stop-color="#D7916B" stop-opacity="0"/>
<stop offset="0.99" stop-color="#A5525B"/>
</linearGradient>
<linearGradient id="paint5_linear" x1="79.6877" y1="142.525" x2="79.2475" y2="228.816" gradientUnits="userSpaceOnUse">
<stop offset="0.18" stop-color="#0079C9" stop-opacity="0"/>
<stop offset="0.38" stop-color="#0669AA" stop-opacity="0.28"/>
<stop offset="0.64" stop-color="#0B588B" stop-opacity="0.56"/>
<stop offset="0.85" stop-color="#0F4E77" stop-opacity="0.74"/>
<stop offset="1" stop-color="#104A70" stop-opacity="0.8"/>
</linearGradient>
<linearGradient id="paint6_linear" x1="114.172" y1="143.567" x2="113.891" y2="198.595" gradientUnits="userSpaceOnUse">
<stop offset="0.18" stop-color="#0079C9" stop-opacity="0"/>
<stop offset="0.38" stop-color="#0669AA" stop-opacity="0.28"/>
<stop offset="0.64" stop-color="#0B588B" stop-opacity="0.56"/>
<stop offset="0.85" stop-color="#0F4E77" stop-opacity="0.74"/>
<stop offset="1" stop-color="#104A70" stop-opacity="0.8"/>
</linearGradient>
<linearGradient id="paint7_linear" x1="126.492" y1="178.381" x2="119.811" y2="135.402" gradientUnits="userSpaceOnUse">
<stop offset="0.18" stop-color="#0079C9" stop-opacity="0"/>
<stop offset="0.38" stop-color="#0669AA" stop-opacity="0.28"/>
<stop offset="0.64" stop-color="#0B588B" stop-opacity="0.56"/>
<stop offset="0.85" stop-color="#0F4E77" stop-opacity="0.74"/>
<stop offset="1" stop-color="#104A70" stop-opacity="0.8"/>
</linearGradient>
<linearGradient id="paint8_linear" x1="69.0176" y1="176.85" x2="75.6983" y2="133.871" gradientUnits="userSpaceOnUse">
<stop offset="0.18" stop-color="#0079C9" stop-opacity="0"/>
<stop offset="0.38" stop-color="#0669AA" stop-opacity="0.28"/>
<stop offset="0.64" stop-color="#0B588B" stop-opacity="0.56"/>
<stop offset="0.85" stop-color="#0F4E77" stop-opacity="0.74"/>
<stop offset="1" stop-color="#104A70" stop-opacity="0.8"/>
</linearGradient>
</defs>
</svg>
