<svg width="360" height="252" viewBox="0 0 360 252" fill="none" xmlns="http://www.w3.org/2000/svg">
<rect x="-38" y="65" width="78" height="84" rx="8" fill="#FBAF18"/>
<path opacity="0.5" d="M256.686 -13C249.221 2.125 248.081 34.3786 303.244 42.3929C372.198 52.4107 345.088 111.339 339.194 118.411C333.301 125.482 273.777 180.286 332.711 232.732C339.391 238.036 354.399 249.114 361 251" stroke="white" stroke-width="2"/>
<path opacity="0.3" d="M-5 107.535C21.1526 109.828 77.2101 104.783 92.2194 66.2567C97.3362 51.3506 104.5 14.8309 92.2194 -12" stroke="white" stroke-width="2"/>
<path opacity="0.3" d="M1 77.9013C27.4064 82.8227 75.2248 73.7325 55.2478 -2" stroke="white" stroke-width="2"/>
<path opacity="0.6" d="M169 66.5C169 70.7001 165.81 74 162 74C158.19 74 155 70.7001 155 66.5C155 62.2999 158.19 59 162 59C165.81 59 169 62.2999 169 66.5Z" stroke="#0961A3" stroke-width="2"/>
<path opacity="0.6" d="M116 144C116 146.845 113.905 149 111.5 149C109.095 149 107 146.845 107 144C107 141.155 109.095 139 111.5 139C113.905 139 116 141.155 116 144Z" stroke="#0961A3" stroke-width="2"/>
</svg>
