<svg width="360" height="300" viewBox="0 0 360 300" fill="none" xmlns="http://www.w3.org/2000/svg">
<path d="M322.29 181.035C291.104 185.827 262.96 178.309 238.459 172.526C213.958 166.743 196.108 172.085 168.566 176.629C141.023 181.173 105.625 187.396 67.6536 181.035C29.682 174.674 0 184.615 0 184.615V217H362V184.615C362 184.615 353.476 176.244 322.29 181.035Z" fill="#FFB078"/>
<path d="M363 213H1V283H363V213Z" fill="#ED6E13"/>
<path d="M164.409 241.033C202.653 236.34 257.74 250.373 257.74 250.373C340.773 275.318 123.968 288.582 84.0812 279.656C28.3277 267.179 86.5093 254.336 86.5093 254.336C86.5093 254.336 126.164 245.727 164.409 241.033Z" fill="#232735"/>
<path opacity="0.42" d="M47.2165 0.0652886L176.244 13.246C179.065 13.4994 181.321 15.8652 181.724 18.8224L205.418 207.999C205.821 211.041 204.048 213.913 201.308 214.927L81.3874 257.427C77.7608 258.694 73.8924 256.244 73.3282 252.188L40.5274 7.41605C39.9632 3.27597 43.2675 -0.272678 47.2165 0.0652886Z" fill="#D32E2E"/>
<path d="M57.2099 23.9768C57.2099 23.9768 57.774 14.0068 69.3792 14.6827L105.001 271.284C105.001 271.284 92.5897 276.606 87.8348 265.876L57.2099 23.9768Z" fill="#1479CB"/>
<path d="M69.1374 14.5976L198.165 27.7783C200.985 28.0318 203.242 30.3975 203.645 33.3547L227.339 222.531C227.742 225.573 225.969 228.446 223.229 229.46L103.308 271.959C99.6816 273.226 95.8132 270.776 95.2491 266.72L62.4483 21.9484C61.8841 17.8083 65.1884 14.2597 69.1374 14.5976Z" fill="url(#paint0_linear)"/>
<path d="M202.436 40.1145L224.438 215.857C224.76 218.645 223.148 221.349 220.408 222.278L104.437 262.412C103.711 262.665 103.066 262.75 102.341 262.75C99.5204 262.665 97.1027 260.637 96.6997 257.596L66.1554 30.229C65.7525 27.1873 67.6061 24.4836 70.3462 23.6387C71.0715 23.3852 71.8775 23.3007 72.6834 23.3852L197.198 34.9605C199.938 35.214 202.114 37.4108 202.436 40.1145Z" fill="#3F99DD"/>
<path d="M200.502 41.3552L222.503 217.098C222.826 219.886 221.214 222.59 218.474 223.519L102.502 263.652C102.422 263.652 102.341 263.652 102.341 263.737C99.5204 263.652 97.1027 261.625 96.6997 258.583L66.1554 31.2162C65.7525 28.1745 67.6061 25.4708 70.3462 24.6259C70.5074 24.6259 70.588 24.6259 70.7492 24.6259L195.263 36.2012C198.004 36.5392 200.18 38.6515 200.502 41.3552Z" fill="#FFB245"/>
<path d="M80.8233 139.477C80.8233 139.477 95.6522 226.841 122.489 265.2L136.754 260.215L80.8233 139.477Z" fill="#222736"/>
<path d="M277.225 225.404C277.225 225.404 222.987 215.603 145.135 267.904C145.135 267.904 110.239 255.906 83.9662 163.134L277.225 225.404Z" fill="url(#paint1_linear)"/>
<path d="M67.7672 85.9089C66.8001 86.0779 65.833 85.3175 65.7524 84.3036L60.9169 46.7893C60.7557 45.7754 61.481 44.7615 62.4481 44.677C63.4152 44.5081 64.3823 45.2685 64.4629 46.2824L69.2984 83.7966C69.4596 84.8105 68.7343 85.8244 67.7672 85.9089Z" fill="url(#paint2_linear)"/>
<path d="M67.2033 85.9937C66.3973 86.0782 65.7526 85.5713 65.5914 84.7264L60.6753 46.3672C60.5947 45.5223 61.0783 44.8463 61.8842 44.6774C62.6901 44.5929 63.3349 45.0998 63.496 45.9447L68.4121 84.3039C68.4927 85.1488 68.0092 85.9092 67.2033 85.9937Z" fill="url(#paint3_linear)"/>
<path d="M61.8846 44.7618C61.3205 44.8463 60.9175 45.2688 60.7563 45.7757C60.9175 45.6067 61.1593 45.5222 61.4817 45.4377C62.2876 45.3532 62.9323 45.8602 63.0935 46.7051L68.0096 85.0643C68.0096 85.3177 68.0096 85.4867 67.929 85.6557C68.2514 85.3177 68.4931 84.8953 68.4125 84.3038L63.4965 45.9447C63.4159 45.1843 62.6905 44.5928 61.8846 44.7618Z" fill="url(#paint4_linear)"/>
<path d="M71.3132 112.777H71.0714C70.1043 112.946 69.2984 112.186 69.1372 111.256L66.8806 93.6821C66.7194 92.6682 67.4447 91.8233 68.3313 91.6543H68.573C69.5401 91.4853 70.3461 92.2457 70.5072 93.1751L72.7638 110.749C72.925 111.763 72.2803 112.608 71.3132 112.777Z" fill="url(#paint5_linear)"/>
<path d="M70.6687 112.862C69.8628 112.946 69.2181 112.44 69.0569 111.595L66.7197 93.4289C66.6391 92.584 67.1227 91.9081 67.9286 91.7391C68.7345 91.6546 69.3793 92.1616 69.5404 93.0065L71.8776 111.172C71.9582 112.017 71.3941 112.778 70.6687 112.862Z" fill="url(#paint6_linear)"/>
<path d="M67.9292 91.7389C67.3651 91.8234 66.8816 92.0769 66.7204 92.3303C66.9621 92.2458 67.2039 92.1614 67.4457 92.0769C68.2516 91.9924 68.8963 92.2459 68.8963 92.5838L71.3947 112.186C71.3947 112.27 71.3947 112.439 71.3141 112.524C71.7171 112.355 71.9588 112.101 71.8782 111.763L69.3799 92.1614C69.3799 91.9079 68.7352 91.6544 67.9292 91.7389Z" fill="url(#paint7_linear)"/>
<path d="M87.351 261.989C87.351 261.989 68.8149 120.635 69.6208 120.466C70.4267 120.297 87.5928 250.837 87.5928 250.837C87.5928 250.837 89.2046 261.989 87.351 261.989Z" fill="#232735"/>
<path d="M277.225 225.404C261.51 222.785 244.505 224.644 228.064 228.784C184.464 239.599 145.055 266.045 145.055 266.045C116.848 250.245 93.7179 196.17 84.0469 163.134L81.5486 144.462L65.8332 28.2857V28.2012C65.4302 24.9905 68.0091 22.2023 71.0716 22.5403L196.15 35.1295C198.326 35.383 200.099 37.0728 200.421 39.3541C200.421 39.4386 200.421 39.4386 200.421 39.5231C200.986 43.7477 201.711 50.0845 202.678 57.6043L203.484 64.1946L203.726 66.1379C204.37 71.0384 205.015 76.2769 205.66 81.5154L207.272 94.2736C207.433 95.71 207.594 97.0618 207.755 98.4982L211.865 131.281C212.591 136.857 212.994 140.406 213.074 140.913C235.801 193.805 277.225 225.404 277.225 225.404Z" fill="#FFF3DB"/>
<path opacity="0.2" d="M111.373 42.1546L113.228 51.7092C113.47 53.2 115.002 54.2842 116.695 54.352L169.268 56.3171C171.607 56.3849 173.461 54.6908 173.139 52.7257L171.607 44.2553C171.365 42.8323 169.913 41.6803 168.22 41.6125L115.324 38.5632C112.905 38.3599 110.97 40.1895 111.373 42.1546Z" fill="#FF4E4E"/>
<path d="M97.1834 73.742L97.9894 81.0083C98.2311 82.8671 99.6818 84.219 101.535 84.219L107.741 84.05C109.836 83.9655 111.368 82.1067 111.126 79.9099L110.239 73.0661C109.998 71.2918 108.627 70.0244 106.935 69.9399L100.81 69.6864C98.6341 69.6019 96.9417 71.5452 97.1834 73.742Z" fill="#FF8731"/>
<path d="M101.535 113.453L102.26 120.044C102.502 122.24 104.356 123.761 106.371 123.592L112.012 123.001C114.188 122.747 115.719 120.72 115.397 118.523L114.591 112.27C114.349 110.243 112.657 108.722 110.642 108.806L105.081 109.06C102.986 109.06 101.293 111.172 101.535 113.453Z" fill="#FF8731"/>
<path opacity="0.2" d="M108.305 154.094C109.111 156.882 110.561 161.36 112.576 164.824C113.06 165.753 114.188 166.176 115.155 165.922C117.089 165.415 120.313 164.401 122.892 163.641C124.181 163.219 124.826 161.782 124.423 160.515C123.537 158.065 122.247 154.178 121.361 151.643C121.038 150.629 119.991 149.953 118.943 150.038L110.239 150.967C108.788 151.136 107.821 152.657 108.305 154.094Z" fill="#1455D7"/>
<path opacity="0.2" d="M130.548 216.533C131.838 219.152 134.094 223.208 136.673 226.249C137.318 227.094 138.446 227.263 139.414 226.756C141.187 225.827 144.168 224.222 146.586 222.954C147.795 222.278 148.198 220.757 147.473 219.574C146.183 217.293 144.168 213.829 142.879 211.463C142.315 210.534 141.267 210.027 140.219 210.365L131.919 213.069C130.548 213.576 129.904 215.181 130.548 216.533Z" fill="#1455D7"/>
<path opacity="0.2" d="M200.421 39.3541L202.678 57.6043L203.484 64.1946L203.726 66.1379L205.66 81.5154L207.272 94.1891L207.836 98.4137L211.946 131.112C212.349 134.492 212.671 137.111 212.913 138.801L213.155 140.744L199.132 44.846C198.648 41.4664 195.989 38.9316 192.765 38.6782L65.8332 28.2857V28.2012C65.4302 24.9905 68.0091 22.2023 71.0716 22.5403L196.15 35.1295C198.326 35.383 200.018 37.0728 200.421 39.3541Z" fill="#FF4E4E"/>
<g opacity="0.2">
<path opacity="0.2" d="M155.129 249.907C153.678 249.907 152.308 249.315 151.26 248.302C147.473 244.584 143.685 240.19 141.025 236.557C139.978 235.121 139.575 233.347 139.978 231.657C140.381 229.967 141.428 228.531 142.879 227.686C152.953 222.278 173.181 212.815 194.538 210.534C196.392 210.365 198.245 211.125 199.374 212.646L204.773 219.321C205.982 220.842 206.385 222.954 205.821 224.813C205.257 226.756 203.806 228.193 201.953 228.784C192.12 231.741 176.486 237.656 157.95 249.062C157.144 249.653 156.177 249.907 155.129 249.907ZM195.102 211.21C194.941 211.21 194.78 211.21 194.619 211.21C173.343 213.407 153.275 222.87 143.201 228.277C141.912 228.953 140.945 230.22 140.622 231.741C140.3 233.262 140.622 234.867 141.509 236.05C144.168 239.683 147.956 243.993 151.663 247.71C153.275 249.316 155.693 249.569 157.627 248.386C176.244 236.895 191.959 230.896 201.791 228.024C203.403 227.517 204.693 226.249 205.176 224.559C205.66 222.87 205.337 221.095 204.209 219.743L198.81 213.069C198.004 211.886 196.553 211.21 195.102 211.21Z" fill="#1455D7"/>
</g>
<g opacity="0.5">
<path opacity="0.5" d="M151.986 243.063C154.081 242.556 156.257 241.711 158.191 240.697C159.158 240.19 160.125 239.515 160.931 238.839C161.737 238.078 162.543 237.233 163.349 236.388C164.88 234.699 166.331 232.84 167.379 230.812C168.346 228.784 168.829 226.503 167.782 224.729C167.298 223.884 166.573 223.461 165.525 223.546C164.558 223.63 163.51 224.053 162.624 224.644C160.851 225.827 159.239 227.686 158.755 229.798C158.514 230.812 158.675 231.91 159.239 232.755C159.803 233.6 160.77 234.276 161.737 234.445C162.704 234.614 163.833 234.361 164.719 233.769C165.686 233.262 166.573 232.502 167.379 231.741C168.991 230.136 170.361 228.108 171.167 225.911C171.328 225.404 171.489 224.813 171.569 224.306C171.569 224.053 171.569 223.799 171.489 223.63C171.408 223.546 171.408 223.461 171.328 223.377C171.247 223.292 171.167 223.208 171.005 223.208C170.925 223.123 170.844 223.123 170.764 223.123C170.764 223.123 170.683 223.123 170.683 223.208C170.602 223.377 170.602 223.63 170.602 223.884C170.602 224.475 170.683 224.982 170.844 225.573C171.489 227.77 172.859 229.883 174.713 231.15C175.599 231.741 176.808 232.164 177.372 231.403C177.694 230.981 177.856 230.474 177.936 229.883C178.017 229.291 178.097 228.7 178.178 228.108C178.259 227.517 178.259 226.925 178.339 226.249C178.42 225.911 178.42 225.658 178.581 225.32C178.662 225.151 178.742 224.982 178.823 224.813C178.903 224.644 179.145 224.475 179.306 224.391C179.629 224.222 180.032 224.222 180.354 224.222C180.676 224.306 180.999 224.391 181.24 224.56C181.805 224.813 182.288 225.066 182.772 225.151C183.255 225.235 183.819 225.235 184.303 224.982C184.787 224.813 185.189 224.475 185.592 224.053C186.318 223.208 186.882 222.109 187.688 221.18C188.413 220.166 189.38 219.321 190.428 218.73C191.476 218.138 192.604 217.631 193.813 217.547C195.022 217.462 196.231 217.716 197.278 218.307C197.842 218.561 198.326 218.899 198.809 219.321L199.535 219.828C199.777 219.997 200.018 220.166 200.26 220.25C199.938 220.25 199.696 220.081 199.454 219.997L198.729 219.575C198.245 219.237 197.762 218.983 197.198 218.814C196.15 218.392 195.022 218.223 193.893 218.392C192.846 218.561 191.798 219.068 190.831 219.659C189.864 220.25 189.058 221.011 188.333 221.94C187.607 222.87 187.043 223.884 186.157 224.813C185.351 225.827 183.981 226.334 182.691 226.08C181.402 225.827 180.435 224.813 179.629 225.235C179.387 225.32 179.226 225.911 179.145 226.503C179.064 227.094 178.984 227.686 178.984 228.277C178.903 228.869 178.903 229.46 178.742 230.136C178.581 230.727 178.42 231.403 178.017 231.995C177.775 232.248 177.453 232.502 177.13 232.671C176.808 232.755 176.405 232.755 176.083 232.755C175.438 232.586 174.874 232.333 174.39 231.995C172.295 230.558 171.005 228.362 170.28 225.996C170.119 225.404 169.958 224.813 169.958 224.137C169.958 223.799 169.958 223.461 170.119 223.039C170.199 222.87 170.441 222.616 170.683 222.616C170.925 222.532 171.167 222.616 171.328 222.701C171.489 222.785 171.65 222.87 171.811 222.954C171.972 223.123 172.134 223.292 172.214 223.461C172.375 223.799 172.375 224.222 172.375 224.56C172.375 225.235 172.214 225.827 171.972 226.418C171.086 228.784 169.716 230.812 168.104 232.586C167.298 233.431 166.331 234.276 165.283 234.868C164.236 235.459 162.946 235.881 161.657 235.712C160.367 235.543 159.158 234.699 158.433 233.6C157.627 232.502 157.385 230.981 157.708 229.629C157.949 228.277 158.594 227.094 159.32 226.08C160.045 225.067 161.012 224.222 162.06 223.461C163.107 222.785 164.236 222.194 165.606 222.109C166.25 222.025 166.976 222.194 167.701 222.532C168.346 222.87 168.91 223.461 169.232 224.053C169.958 225.235 170.28 226.672 170.119 228.024C170.038 229.376 169.555 230.643 169.071 231.826C167.943 234.107 166.492 236.135 164.88 237.994C164.074 238.923 163.269 239.768 162.382 240.697C161.415 241.542 160.448 242.303 159.32 242.894C157.144 244.162 154.968 245.006 152.63 245.682C151.986 245.851 151.422 245.513 151.26 244.837C150.938 243.908 151.26 243.232 151.986 243.063C151.905 243.063 151.905 243.063 151.986 243.063Z" fill="#1455D7"/>
</g>
<g opacity="0.2">
<g opacity="0.2">
<path opacity="0.2" d="M225.324 218.645C217.91 218.645 209.448 212.308 204.29 202.254C197.762 189.411 199.212 175.217 207.433 170.654C211.462 168.457 216.459 168.795 221.536 171.584C226.533 174.372 231.046 179.357 234.189 185.609C237.332 191.777 238.702 198.452 238.138 204.451C237.574 210.45 234.995 215.012 231.046 217.209C229.193 218.223 227.339 218.645 225.324 218.645ZM213.155 169.978C211.221 169.978 209.367 170.401 207.755 171.33C199.857 175.724 198.568 189.496 204.934 201.916C211.221 214.421 222.826 220.927 230.724 216.533C234.512 214.421 236.929 210.112 237.494 204.366C238.058 198.536 236.688 192.031 233.625 185.947C230.563 179.864 226.13 175.048 221.295 172.259C218.393 170.739 215.653 169.978 213.155 169.978Z" fill="#1455D7"/>
</g>
<g opacity="0.2">
<path opacity="0.2" d="M224.76 213.069C222.503 213.069 220.166 212.393 217.829 211.041C213.88 208.844 210.415 204.957 207.997 200.141C202.758 189.749 204.128 178.512 211.14 174.625C218.151 170.738 227.822 175.808 233.061 186.2C235.479 191.016 236.607 196.17 236.123 200.817C235.64 205.887 233.464 209.689 229.918 211.632C228.225 212.646 226.533 213.069 224.76 213.069ZM216.137 178.512C215.169 178.512 214.202 178.765 213.316 179.188C208.883 181.638 208.319 190.171 212.188 197.776C214.202 201.662 216.942 204.788 220.086 206.563C222.826 208.168 225.485 208.337 227.5 207.239C229.515 206.14 230.804 203.69 231.127 200.395C231.449 196.762 230.562 192.537 228.628 188.651C225.566 182.567 220.327 178.512 216.137 178.512Z" fill="#1455D7"/>
</g>
<g opacity="0.2">
<path opacity="0.2" d="M221.859 204.873H221.778C221.617 204.789 221.536 204.62 221.536 204.366L227.581 186.454C227.661 186.285 227.823 186.201 228.064 186.201C228.225 186.285 228.306 186.454 228.306 186.708L222.262 204.62C222.181 204.789 222.02 204.873 221.859 204.873Z" fill="#1455D7"/>
</g>
<g opacity="0.2">
<path opacity="0.2" d="M219.36 201.155C219.199 201.155 219.038 201.071 219.038 200.902C218.635 199.381 218.151 197.268 217.748 195.663C217.507 195.241 217.265 194.649 217.104 193.72C217.023 193.213 216.943 192.875 217.346 192.79C217.668 192.706 217.748 192.706 218.393 195.41C218.554 195.579 218.716 195.748 218.877 195.748C219.28 195.832 219.844 195.325 220.327 194.396C220.972 193.297 219.844 190.763 218.877 188.735C217.91 186.538 217.184 184.848 217.99 184.172C218.232 184.003 218.474 183.919 218.716 183.919C219.602 184.088 220.489 185.355 221.295 186.623C221.697 187.214 222.262 188.059 222.503 188.143C222.665 188.143 222.826 188.312 222.826 188.566C222.826 188.735 222.665 188.904 222.423 188.904C221.939 188.904 221.536 188.228 220.73 187.045C220.086 186.031 219.199 184.764 218.635 184.679C218.554 184.679 218.474 184.679 218.393 184.764C217.99 185.102 218.877 187.045 219.522 188.481C220.569 190.932 221.697 193.382 220.892 194.818C220.005 196.424 219.199 196.593 218.716 196.508H218.635C218.877 197.606 219.199 198.958 219.683 200.733C219.763 200.902 219.602 201.155 219.441 201.155C219.36 201.155 219.36 201.155 219.36 201.155Z" fill="#1455D7"/>
</g>
<g opacity="0.2">
<path opacity="0.2" d="M221.617 184.849C221.456 184.849 221.294 184.68 221.294 184.511L221.053 180.286C221.053 180.117 221.214 179.948 221.375 179.864C221.536 179.864 221.697 180.033 221.778 180.202L222.02 184.426C222.02 184.68 221.859 184.849 221.617 184.849C221.697 184.849 221.697 184.849 221.617 184.849Z" fill="#1455D7"/>
</g>
</g>
<g opacity="0.2">
<path opacity="0.5" d="M107.58 178.005C105.887 178.005 104.356 176.906 103.792 175.132C101.938 169.133 98.4728 157.727 96.458 148.939C96.2162 147.757 96.3774 146.489 97.1027 145.475C97.7475 144.461 98.7951 143.87 100.004 143.701L204.048 133.224C205.66 133.055 207.272 133.984 207.997 135.505L216.459 153.248C217.104 154.516 217.023 156.037 216.298 157.304C215.573 158.571 214.364 159.332 212.994 159.332C199.938 159.67 163.51 162.205 108.708 177.751C108.305 177.92 107.983 178.005 107.58 178.005ZM204.37 133.984C204.29 133.984 204.129 133.984 204.048 133.984L100.004 144.461C99.0369 144.546 98.1504 145.053 97.6669 145.898C97.1027 146.743 96.9415 147.757 97.1027 148.77C99.1175 157.473 102.583 168.879 104.437 174.878C105.001 176.653 106.774 177.582 108.466 177.16C163.349 161.613 199.777 159.078 212.913 158.74C214.041 158.74 215.089 158.065 215.653 157.051C216.217 156.037 216.298 154.769 215.814 153.755L207.352 136.012C206.788 134.745 205.579 133.984 204.37 133.984Z" fill="#0C0D0F"/>
</g>
<g opacity="0.2">
<path opacity="0.7" d="M98.231 136.097C96.1356 136.097 94.3626 134.492 94.1208 132.295L90.2524 103.906C90.0913 102.638 90.4136 101.455 91.2195 100.441C91.9449 99.5121 93.0732 98.9206 94.282 98.8361L195.586 94.5271C197.762 94.4426 199.615 96.0479 199.938 98.3292L203 122.409C203.161 123.592 202.839 124.775 202.114 125.789C201.388 126.718 200.341 127.31 199.212 127.394L98.7146 136.012C98.4728 136.097 98.3922 136.097 98.231 136.097ZM195.666 95.203C195.586 95.203 195.586 95.203 195.505 95.203L94.2014 99.5121C93.2343 99.5966 92.2672 100.019 91.6225 100.864C90.9778 101.624 90.736 102.723 90.8166 103.737L94.685 132.126C94.9268 134.069 96.6192 135.421 98.4728 135.252L198.971 126.634C199.938 126.549 200.824 126.042 201.388 125.282C202.033 124.522 202.275 123.508 202.114 122.494L199.051 98.4137C198.971 96.5549 197.439 95.203 195.666 95.203Z" fill="black"/>
</g>
<g opacity="0.2">
<path opacity="0.7" d="M93.9597 95.0341C91.4613 95.0341 89.366 93.0908 89.0436 90.4716L85.9811 64.6172C85.8199 63.0963 86.3035 61.5755 87.2706 60.4771C88.2377 59.3787 89.6883 58.7028 91.139 58.7873L191.234 62.9273C193.652 63.0118 195.666 64.9551 195.989 67.4054L198.326 85.74C198.487 87.1764 198.084 88.6973 197.198 89.7956C196.311 90.894 194.941 91.57 193.571 91.6545L94.2015 95.0341C94.0403 95.0341 93.9597 95.0341 93.9597 95.0341ZM89.6883 90.3871C89.9301 92.6684 91.8643 94.3582 94.0403 94.2737L193.41 90.894C194.619 90.894 195.747 90.3026 196.553 89.2887C197.359 88.3593 197.681 87.0919 197.52 85.8245L195.183 67.4899C194.941 65.2931 193.168 63.6878 191.153 63.6033L91.0584 59.4632C89.7689 59.3787 88.56 59.9701 87.7541 60.8995C86.8676 61.8289 86.4647 63.1808 86.6258 64.4482L89.6883 90.3871Z" fill="#09101D"/>
</g>
<path d="M104.114 79.6569C103.953 79.6569 103.792 79.5724 103.711 79.4879L101.455 76.8687C101.213 76.6152 101.294 76.2772 101.455 76.0238C101.697 75.7703 102.019 75.8548 102.261 76.0238L104.034 78.0516L106.532 73.658C106.693 73.4045 107.016 73.32 107.338 73.489C107.58 73.658 107.66 73.996 107.499 74.3339L104.598 79.4034C104.517 79.4879 104.356 79.6569 104.114 79.6569C104.195 79.6569 104.114 79.6569 104.114 79.6569Z" fill="white"/>
<path d="M108.386 118.945C108.224 118.945 108.063 118.86 107.983 118.776L105.726 116.157C105.484 115.903 105.565 115.565 105.726 115.312C105.968 115.058 106.29 115.143 106.532 115.312L108.305 117.339L110.803 112.946C110.964 112.692 111.287 112.608 111.609 112.777C111.851 112.946 111.932 113.284 111.77 113.622L108.869 118.691C108.788 118.86 108.627 118.945 108.386 118.945Z" fill="white"/>
<path d="M141.186 219.997C141.106 219.997 140.944 219.997 140.864 219.997L137.56 219.236C136.754 219.067 136.27 218.223 136.431 217.378C136.592 216.533 137.398 216.026 138.204 216.195L141.509 216.955C142.314 217.124 142.798 217.969 142.637 218.814C142.476 219.49 141.831 219.997 141.186 219.997Z" fill="white"/>
<path d="M134.82 218.307C134.658 218.307 134.578 218.307 134.417 218.223L133.853 218.054C133.047 217.8 132.563 216.955 132.805 216.195C133.047 215.35 133.853 214.843 134.578 215.097L135.142 215.266C135.948 215.519 136.431 216.364 136.19 217.124C136.109 217.8 135.464 218.307 134.82 218.307Z" fill="white"/>
<path d="M142.717 219.828L143.201 217.885L144.249 219.406L142.717 219.828Z" fill="white"/>
<path opacity="0.2" d="M229.031 227.939L228.064 228.784C184.464 239.599 145.055 266.045 145.055 266.045C116.848 250.245 93.7179 196.17 84.0469 163.134L81.5486 144.461C89.2854 151.474 163.833 217.547 229.031 227.939Z" fill="#3F99DD"/>
<path opacity="0.2" d="M190.035 111.767L185.844 71.1268C185.683 69.268 187.053 67.6627 188.826 67.7471L220.982 68.4231C222.433 68.4231 223.722 69.606 223.803 71.2113L227.429 109.486C227.591 111.26 226.301 112.781 224.689 112.866L193.097 114.555C191.566 114.555 190.196 113.373 190.035 111.767Z" fill="#232735"/>
<path d="M229.676 62.5896C227.984 62.5896 226.614 61.3222 226.372 59.5479L224.035 40.9598C223.471 36.5662 220.005 33.1866 215.734 33.0176C213.155 32.9331 210.656 33.947 208.964 35.9748C207.191 38.0026 206.385 40.6218 206.707 43.3255L208.319 56.1683C208.561 58.1116 207.272 59.8859 205.418 60.0549C203.564 60.3083 201.872 58.9565 201.711 57.0132L200.099 44.1705C199.535 39.4389 200.985 34.7074 204.048 31.1588C207.11 27.6101 211.543 25.7513 216.056 25.9203C223.551 26.2583 229.676 32.1727 230.643 39.9459L232.98 58.534C233.222 60.4773 231.933 62.2516 230.079 62.5051C229.998 62.5896 229.837 62.5896 229.676 62.5896Z" fill="#E2F2FC"/>
<g opacity="0.6">
<path opacity="0.6" d="M225.405 30.0604C223.229 28.5396 220.73 27.6947 217.99 27.5257C213.719 27.3567 209.528 29.131 206.627 32.4262C203.726 35.7214 202.356 40.2839 202.92 44.762L204.451 56.9288C204.532 57.4357 204.693 57.9427 205.015 58.3651C203.887 57.9427 203.081 56.9288 202.92 55.6614L201.227 43.4946C200.663 39.0166 202.033 34.5385 204.935 31.1588C207.836 27.8637 212.027 26.0049 216.298 26.2583C219.844 26.4273 222.987 27.7792 225.405 30.0604Z" fill="#232735"/>
<path opacity="0.6" d="M229.193 61.2377C228.064 60.8153 227.258 59.8014 227.097 58.534L224.841 40.9598C224.599 39.0164 223.712 37.2421 222.423 35.8903C224.518 37.1576 226.049 39.4389 226.372 42.2271L228.548 59.8014C228.709 60.3928 228.87 60.8998 229.193 61.2377Z" fill="#232735"/>
</g>
<path d="M238.058 104.244L200.663 106.694C200.663 106.694 197.842 106.44 196.553 103.568L192.362 64.3636C192.362 64.3636 194.619 55.2385 202.356 55.4075C206.224 55.492 239.025 94.4426 243.457 101.286C242.49 103.568 238.058 104.244 238.058 104.244Z" fill="#0D4386"/>
<path d="M204.612 101.625L200.18 58.872C200.018 56.9287 201.469 55.2389 203.323 55.3234L235.479 55.9993C237.977 56.0838 240.073 58.0271 240.314 60.6463L244.022 99.1745C244.183 101.033 242.893 102.639 241.12 102.723L207.836 104.497C206.224 104.582 204.773 103.315 204.612 101.625Z" fill="#236CC6"/>
<path opacity="0.32" d="M227.097 81.5156L227.581 87.8524C227.742 89.4578 226.533 90.9786 225.002 91.0631L224.277 91.1476C223.632 91.2321 223.068 91.0631 222.584 90.7251C221.859 90.2182 221.295 89.3733 221.214 88.4439L220.731 82.3605C218.716 81.4311 217.184 79.3188 216.943 76.8685L216.459 71.1231C216.298 69.2643 216.943 67.4055 218.071 66.1381C219.119 64.9552 220.569 64.1103 222.262 63.9413C225.727 63.6034 228.87 66.3916 229.112 70.0247L229.596 75.7701C229.757 78.0514 228.79 80.1637 227.097 81.5156Z" fill="#0D4386"/>
<path d="M222.101 83.7125L222.584 90.0493C222.584 90.3028 222.584 90.4718 222.584 90.7252C221.859 90.2183 221.295 89.3734 221.214 88.444L220.731 82.3606C218.716 81.4312 217.184 79.3189 216.943 76.8686L216.459 71.1232C216.298 69.2644 216.943 67.4056 218.071 66.1382C221.214 66.2227 223.874 68.8419 224.115 72.2216L224.599 77.967C224.841 80.2483 223.793 82.4451 222.101 83.7125Z" fill="#FF8731"/>
<path d="M48.8289 139.517L117.171 137.235C120.636 136.982 123.618 139.686 124.021 143.234L136.754 185.142C137.157 188.86 126.6 191.563 123.054 192.07L48.1841 202.04C44.7187 202.547 41.495 200.013 40.9309 196.295L34 149.909C36.4178 141.798 42.9457 139.517 48.8289 139.517Z" fill="#5A4BB6"/>
<path d="M48.8287 139.517L125.874 134.701C129.34 134.448 132.322 137.152 132.725 140.7L137.399 181.932C137.802 185.65 135.304 189.029 131.758 189.536L56.9685 199.506C53.503 200.013 50.2794 197.479 49.7152 193.761L42.7843 147.375C42.2202 143.404 45.0409 139.771 48.8287 139.517Z" fill="#8175CE"/>
<path d="M49.2318 138.335C49.2318 138.335 50.5212 144.334 53.5837 162.668L131.919 155.74C131.919 155.74 130.226 134.279 125.633 133.603L49.2318 138.335Z" fill="#9E92E9"/>
<path d="M53.5838 162.668L51.2466 163.259L47.5394 139.686L45.6052 140.109L49.2318 138.334C49.2318 138.334 52.8585 154.895 53.5838 162.668Z" fill="#222736"/>
<path d="M60.3534 139.517C59.3057 139.517 58.3386 138.673 58.258 137.49C58.0968 134.955 58.9027 132.42 60.5146 130.561C62.1264 128.618 64.383 127.52 66.8007 127.351L91.22 125.745C95.7332 125.407 99.8434 128.703 100.73 133.35L100.972 134.532C101.213 135.715 100.488 136.898 99.3598 137.067C98.2315 137.321 97.1032 136.56 96.9421 135.377L96.7003 134.195C96.2167 131.66 94.0407 129.885 91.5424 130.054L67.1231 131.66C65.8336 131.744 64.6248 132.336 63.7382 133.434C62.8517 134.448 62.4488 135.8 62.5294 137.236C62.61 138.419 61.7235 139.517 60.5952 139.602C60.434 139.433 60.3534 139.517 60.3534 139.517Z" fill="#222736"/>
<path d="M131.919 155.74L130.629 156.416L51.2466 163.26L53.5837 162.668L131.919 155.74Z" fill="#222736"/>
<path d="M88.4801 157.092L89.5278 165.541L102.019 163.935L102.261 163.597L100.73 156.078L89.1248 156.416L88.4801 157.092Z" fill="#B3B7C6"/>
<path d="M89.1247 156.416L90.4948 164.865L102.261 163.597L101.375 155.402L89.1247 156.416Z" fill="#FFE0C1"/>
<path d="M89.6082 156.669L101.213 155.74C101.213 155.74 101.455 158.528 96.3779 158.866C91.5424 159.119 89.6082 156.669 89.6082 156.669Z" fill="#FFF6EE"/>
<path d="M209.686 213.601C209.236 213.425 209.012 212.895 209.18 212.423L210.304 209.125C210.472 208.654 210.978 208.419 211.427 208.595C211.877 208.772 212.101 209.302 211.933 209.773L210.809 213.071C210.641 213.542 210.135 213.778 209.686 213.601Z" fill="#222736"/>
<path d="M219.236 187.393L218.056 186.981C215.416 185.98 214.011 182.859 214.966 180.091L235.864 119.901C236.819 117.133 239.796 115.661 242.436 116.662L243.616 117.074C246.256 118.075 247.66 121.197 246.706 123.965L225.808 184.154C224.853 186.981 221.876 188.395 219.236 187.393Z" fill="#8175CE"/>
<path d="M207.776 201.41C207.776 201.41 206.877 207.888 210.304 211.893C210.304 211.893 215.36 210.951 218.449 205.533L207.776 201.41Z" fill="#5D4FB7"/>
<path d="M220.022 205.709C220.022 205.709 219.011 205.886 217.607 205.886C216.202 205.886 214.348 205.768 212.719 205.12L212.607 205.061C209.293 203.766 206.652 200.527 206.652 200.527C213.169 187.04 214.348 173.848 214.348 173.848L217.607 173.494C218.337 175.261 221.876 176.969 222.325 177.146C222.775 177.264 226.539 178.383 228.168 177.499L230.471 179.973C230.471 180.032 223.28 190.986 220.022 205.709Z" fill="#8175CE"/>
<path opacity="0.58" d="M230.471 180.032C221.595 181.386 214.348 173.848 214.348 173.848L217.607 173.495C218.337 175.261 221.876 176.969 222.325 177.146C222.775 177.264 226.539 178.383 228.168 177.499L230.471 180.032Z" fill="#4434A6"/>
<path opacity="0.17" d="M236.369 119.253L218.899 173.848C218.899 173.848 220.584 175.615 222.494 176.204L241.931 122.08C241.931 122.021 237.212 120.608 236.369 119.253Z" fill="#222736"/>
<path opacity="0.31" d="M236.706 119.076C236.706 119.076 238.223 117.192 240.021 117.015C240.021 117.015 240.414 117.898 242.493 118.9C242.493 118.9 242.38 120.725 241.987 121.668C242.043 121.668 239.403 121.197 236.706 119.076Z" fill="white"/>
<path d="M274.842 165.488C276.586 170.832 273.759 176.609 268.527 178.391C263.295 180.173 257.64 177.285 255.896 171.941C254.151 166.596 256.978 160.819 262.21 159.037C267.442 157.256 273.097 160.143 274.842 165.488Z" fill="#FFA84A"/>
<path d="M272.737 166.205C274.481 171.549 271.654 177.326 266.422 179.108C261.191 180.89 255.535 178.002 253.791 172.658C252.047 167.313 254.874 161.536 260.105 159.755C265.337 157.973 270.992 160.861 272.737 166.205Z" fill="#FFE288"/>
<path d="M270.632 166.922C271.988 171.079 269.79 175.572 265.72 176.958C261.651 178.344 257.253 176.098 255.896 171.941C254.539 167.784 256.738 163.291 260.807 161.905C264.876 160.519 269.275 162.765 270.632 166.922Z" fill="#FFC64A"/>
<path d="M264.21 172.149L262.94 172.31L261.589 170.365C261.463 170.181 261.319 170.058 261.158 169.997C260.997 169.936 260.802 169.92 260.572 169.949L259.683 170.062L260.003 172.684L258.851 172.83L258.055 166.3L260.884 165.94C261.61 165.848 262.18 165.945 262.596 166.231C263.016 166.509 263.265 166.961 263.341 167.584C263.402 168.085 263.313 168.516 263.075 168.879C262.842 169.234 262.481 169.493 261.991 169.656C262.341 169.706 262.642 169.915 262.896 170.284L264.21 172.149ZM261.086 168.953C261.527 168.897 261.84 168.772 262.025 168.579C262.21 168.38 262.281 168.105 262.238 167.753C262.194 167.395 262.06 167.148 261.835 167.014C261.609 166.873 261.275 166.831 260.834 166.887L259.311 167.081L259.562 169.147L261.086 168.953Z" fill="#FFE288"/>
<path d="M267.038 167.077C267.419 167.028 267.77 167.084 268.09 167.244C268.416 167.403 268.683 167.654 268.891 167.998C269.104 168.335 269.239 168.737 269.296 169.207C269.353 169.676 269.319 170.097 269.192 170.471C269.072 170.844 268.875 171.145 268.602 171.374C268.33 171.603 268 171.742 267.613 171.791C267.299 171.831 267.009 171.799 266.745 171.695C266.48 171.59 266.267 171.426 266.105 171.202L266.393 173.564L265.259 173.708L264.504 167.512L265.619 167.37L265.703 168.055C265.805 167.785 265.972 167.566 266.203 167.399C266.439 167.225 266.718 167.117 267.038 167.077ZM267.204 170.931C267.561 170.885 267.824 170.726 267.993 170.454C268.162 170.176 268.218 169.808 268.163 169.351C268.105 168.882 267.961 168.53 267.73 168.296C267.499 168.062 267.205 167.968 266.849 168.013C266.486 168.059 266.22 168.221 266.052 168.5C265.889 168.778 265.836 169.151 265.894 169.621C265.95 170.084 266.09 170.43 266.315 170.658C266.545 170.886 266.841 170.977 267.204 170.931Z" fill="#FFE288"/>
<path opacity="0.6" d="M-111 238V270.51V288.648H390.147V270.51C378.613 263.78 364.911 248.472 315.508 248.472C271.802 248.472 226.647 282.488 103.451 281.461C4.895 280.64 -80.5814 252.145 -111 238Z" fill="#FF8731"/>
<path d="M-111 250.186V270.963V289.79H132.148H376.819V270.963L376.389 270.799C365.032 266.445 342.983 257.993 302.454 257.993C267.931 257.993 209.987 283.211 90.0681 282.555C-5.86709 282.03 -81.3904 259.226 -111 250.186Z" fill="#FF8731"/>
<defs>
<linearGradient id="paint0_linear" x1="163.364" y1="263.557" x2="127.001" y2="6.27706" gradientUnits="userSpaceOnUse">
<stop stop-color="#E8C7FF"/>
<stop offset="1" stop-color="white"/>
</linearGradient>
<linearGradient id="paint1_linear" x1="188.259" y1="262.629" x2="174.68" y2="152.007" gradientUnits="userSpaceOnUse">
<stop stop-color="#9AB5FF"/>
<stop offset="1" stop-color="#CDFFFF"/>
</linearGradient>
<linearGradient id="paint2_linear" x1="67.7766" y1="85.9305" x2="61.9553" y2="44.7428" gradientUnits="userSpaceOnUse">
<stop offset="0.00540541" stop-color="#838BFF"/>
<stop offset="1" stop-color="#8693FF"/>
</linearGradient>
<linearGradient id="paint3_linear" x1="67.2168" y1="86.01" x2="61.3955" y2="44.8223" gradientUnits="userSpaceOnUse">
<stop stop-color="#F2E0FF"/>
<stop offset="1" stop-color="white"/>
</linearGradient>
<linearGradient id="paint4_linear" x1="67.2483" y1="85.7516" x2="61.4585" y2="44.7866" gradientUnits="userSpaceOnUse">
<stop stop-color="#B0C2FF"/>
<stop offset="1" stop-color="#CAFFFF"/>
</linearGradient>
<linearGradient id="paint5_linear" x1="71.2273" y1="112.777" x2="68.2544" y2="91.7421" gradientUnits="userSpaceOnUse">
<stop offset="0.00540541" stop-color="#838BFF"/>
<stop offset="1" stop-color="#8693FF"/>
</linearGradient>
<linearGradient id="paint6_linear" x1="70.6677" y1="112.856" x2="67.6947" y2="91.8216" gradientUnits="userSpaceOnUse">
<stop stop-color="#F2E0FF"/>
<stop offset="1" stop-color="white"/>
</linearGradient>
<linearGradient id="paint7_linear" x1="70.7148" y1="112.72" x2="67.7579" y2="91.7988" gradientUnits="userSpaceOnUse">
<stop stop-color="#B0C2FF"/>
<stop offset="1" stop-color="#CAFFFF"/>
</linearGradient>
</defs>
</svg>
