<svg xmlns="http://www.w3.org/2000/svg" viewBox="0 0 18 18">
  <defs>
    <style>
      .cls-1 {
        fill: #fff;
      }

      .cls-2, .cls-4 {
        fill: none;
      }

      .cls-3 {
        fill: #35cc6d;
      }

      .cls-4 {
        stroke: #fff;
        stroke-miterlimit: 10;
      }
    </style>
  </defs>
  <g id="Group_5036" data-name="Group 5036" transform="translate(-70 -105)">
    <circle id="Ellipse_1187" data-name="Ellipse 1187" class="cls-1" cx="7" cy="7" r="7" transform="translate(72 107)"/>
    <rect id="Rectangle_6147" data-name="Rectangle 6147" class="cls-2" width="18" height="18" transform="translate(70 105)"/>
    <circle id="Ellipse_1135" data-name="Ellipse 1135" class="cls-3" cx="6" cy="6" r="6" transform="translate(73 108)"/>
    <path id="Path_3632" data-name="Path 3632" class="cls-4" d="M6,9l2,2,4-4" transform="translate(70 105)"/>
  </g>
</svg>
